%!PS-Adobe-2.0
%%BoundingBox: 50 50 550 550
/clr0{ 0.0000 0.0000 0.0000 setrgbcolor} def
/clr1{ 0.0000 0.0000 1.0000 setrgbcolor} def
/clr2{ 0.0000 1.0000 1.0000 setrgbcolor} def
/clr3{ 0.0000 1.0000 0.0000 setrgbcolor} def
/clr4{ 1.0000 0.0000 0.0000 setrgbcolor} def
/clr5{ 0.2000 0.6000 0.1000 setrgbcolor} def
/clr6{ 0.7000 0.1000 0.0000 setrgbcolor} def
/clr7{ 0.7000 0.7000 0.7000 setrgbcolor} def
/clr8{ 0.1000 0.0000 0.7000 setrgbcolor} def
/clr9{ 0.7000 0.0000 0.1000 setrgbcolor} def
/m {moveto} def % x y
/l {lineto} def % x y
/s {stroke} def 
/n {newpath} def % x y
/c {closepath} def 
0.01 setlinewidth
clr5
n
    182.15524798149655794     179.06528207267723474 m
    182.21344790193586505      208.8043708621879091 l
s
clr5
n
    182.21344790193586505      208.8043708621879091 m
    166.74433021667010735     207.66161002775254474 l
s
n
    166.74433021667010735     207.66161002775254474 m
    157.75891479743768286     205.90344479133489131 l
s
n
    157.75891479743768286     205.90344479133489131 m
    151.87148126601812237     204.27677302873834719 l
s
n
    151.87148126601812237     204.27677302873834719 m
    151.84706152738499441     204.26909197282819264 l
s
n
    151.84706152738499441     204.26909197282819264 m
    138.19159266771535499     198.79481567374395468 l
s
n
    138.19159266771535499     198.79481567374395468 m
    138.16165606627396301     198.78060787914765228 l
s
n
    138.16165606627396301     198.78060787914765228 m
    135.66695572494595012     197.47715991897655385 l
s
n
    135.66695572494595012     197.47715991897655385 m
    126.15397618190398532     191.38220165980476395 l
s
n
    126.15397618190398532     191.38220165980476395 m
    120.77066647097447571     199.40398147597841216 l
s
n
    120.77066647097447571     199.40398147597841216 m
    105.21284189817806975     199.33979262694546719 l
s
n
    105.21284189817806975     199.33979262694546719 m
    118.09376012982036741     184.31455286768797919 l
s
n
    118.09376012982036741     184.31455286768797919 m
    116.29772262451230347     182.38373613969622511 l
s
n
    116.29772262451230347     182.38373613969622511 m
    116.28581494043105238     182.37035663379501216 l
s
n
    116.28581494043105238     182.37035663379501216 m
    112.29312688447797086       177.374670829690956 l
s
n
    112.29312688447797086       177.374670829690956 m
    112.28570704759336252     177.36381143620266698 l
s
n
    112.28570704759336252     177.36381143620266698 m
    108.95902467809395375     172.08758425104983303 l
s
n
    108.95902467809395375     172.08758425104983303 m
    108.93033205785440032     172.03552190076885609 l
s
n
    108.93033205785440032     172.03552190076885609 m
    106.80756976176516559     167.71475920947835903 l
s
n
    106.80756976176516559     167.71475920947835903 m
    106.33717395224417146     166.59173543721809096 l
s
n
    106.33717395224417146     166.59173543721809096 m
    104.44671281149328479     160.92968785322818803 l
s
n
    104.44671281149328479     160.92968785322818803 m
    103.30456098599665893       155.156075068948752 l
s
n
    103.30456098599665893       155.156075068948752 m
    102.92312304751087026     149.32622500689939216 l
s
n
    102.92312304751087026     149.32622500689939216 m
    102.92318031293467584      149.2515151289132973 l
s
n
    102.92318031293467584      149.2515151289132973 m
    103.30471956720113269     143.49637494484798594 l
s
n
    103.30471956720113269     143.49637494484798594 m
    104.44676831496644809     137.72270488528027954 l
s
n
    104.44676831496644809     137.72270488528027954 m
    105.60889872527062039     133.97686530770758395 l
s
n
    105.60889872527062039     133.97686530770758395 m
    106.33749199568990207     132.05993739504191353 l
s
n
    106.33749199568990207     132.05993739504191353 m
    108.95879914054845017     126.56508781457934276 l
s
n
    108.95879914054845017     126.56508781457934276 m
    108.96260332668808246     126.55793457242272382 l
s
n
    108.96260332668808246     126.55793457242272382 m
    109.00655850382531753     126.47880128034114477 l
s
n
    109.00655850382531753     126.47880128034114477 m
    112.28566652144485261     121.28790281045999677 l
s
n
    112.28566652144485261     121.28790281045999677 m
    113.51848184660067886     119.62307337374346616 l
s
n
    113.51848184660067886     119.62307337374346616 m
    116.27856601898892563     116.29252805517417357 l
s
n
    116.27856601898892563     116.29252805517417357 m
    116.28562111917561595     116.28204403507321274 l
s
n
    116.28562111917561595     116.28204403507321274 m
    126.09713168107370507     107.30535956238584561 l
s
n
    126.09713168107370507     107.30535956238584561 m
    126.12351077820029843     107.28554583940797329 l
s
n
    126.12351077820029843     107.28554583940797329 m
    126.14666715348835169     107.26915982177496289 l
s
n
    126.14666715348835169     107.26915982177496289 m
    126.25246370206703261     107.18996837325292404 l
s
n
    126.25246370206703261     107.18996837325292404 m
    138.15907031241391678     99.873403546767178796 l
s
n
    138.15907031241391678     99.873403546767178796 m
      142.541234610346919     97.827798341825669581 l
s
n
      142.541234610346919     97.827798341825669581 m
      151.950540588617514     94.351234097286422298 l
s
n
      151.950540588617514     94.351234097286422298 m
     161.6795118524537429     91.877677236555257423 l
s
n
     161.6795118524537429     91.877677236555257423 m
    166.74435312315426927     90.990891974034852296 l
s
n
    166.74435312315426927     90.990891974034852296 m
    182.21344790225674615     89.848015707793621232 l
s
clr5
n
    182.15524798165702691      119.5871044954800908 m
    182.21344790225674615     89.848015707793621232 l
s
clr5
n
    182.15524798165702691      119.5871044954800908 m
    174.41982927666066416     120.15887218176240481 l
s
n
    174.41982927666066416     120.15887218176240481 m
     174.3980419854997308     120.16211660620452051 l
s
n
     174.3980419854997308     120.16211660620452051 m
    167.06639032917064469     121.82550358698648552 l
s
n
    167.06639032917064469     121.82550358698648552 m
    166.98435805037672708     121.85089416012577601 l
s
n
    166.98435805037672708     121.85089416012577601 m
    165.02029145814827871     122.50814917015557626 l
s
n
    165.02029145814827871     122.50814917015557626 m
    160.12968596526889087     124.59896043353165851 l
s
n
    160.12968596526889087     124.59896043353165851 m
    154.17474178545791119     128.25803588914226339 l
s
n
    154.17474178545791119     128.25803588914226339 m
    154.12169197804763598     128.29776554944760392 l
s
n
    154.12169197804763598     128.29776554944760392 m
    151.19799520441719665     130.74798273269999527 l
s
n
    151.19799520441719665     130.74798273269999527 m
    149.19126587160815234     132.80434071098284221 l
s
n
    149.19126587160815234     132.80434071098284221 m
    145.55095134913955235     137.90411156355122557 l
s
n
    145.55095134913955235     137.90411156355122557 m
    145.52753243390941407     137.94654285485574974 l
s
n
    145.52753243390941407     137.94654285485574974 m
    143.51539636409944478     142.67234400503446068 l
s
n
    143.51539636409944478     142.67234400503446068 m
    143.27184827956872937     143.52534566267803484 l
s
n
    143.27184827956872937     143.52534566267803484 m
    142.51018907254990609     149.28969218747513992 l
s
n
    142.51018907254990609     149.28969218747513992 m
    142.51015823732171839     149.32660742853320812 l
s
n
    142.51015823732171839     149.32660742853320812 m
    143.27159807368664701     155.12752025574246773 l
s
n
    143.27159807368664701     155.12752025574246773 m
    143.49554200120073233     155.91628019465230182 l
s
n
    143.49554200120073233     155.91628019465230182 m
    145.50707898655369377     160.66730009211289598 l
s
n
    145.50707898655369377     160.66730009211289598 m
    145.52132838595662179     160.69316560951432393 l
s
n
    145.52132838595662179     160.69316560951432393 m
    145.52882222738861628     160.70627019406140334 l
s
n
    145.52882222738861628     160.70627019406140334 m
    149.17883927459934057      165.8347430122133801 l
s
n
    149.17883927459934057      165.8347430122133801 m
    149.19106235901364244     165.84828288890446402 l
s
n
    149.19106235901364244     165.84828288890446402 m
     151.1430186356546983     167.85358920533531091 l
s
n
     151.1430186356546983     167.85358920533531091 m
    154.09896641483294388     170.33729921123423878 l
s
n
    154.09896641483294388     170.33729921123423878 m
    154.11662707146905404     170.35055359267295216 l
s
n
    154.11662707146905404     170.35055359267295216 m
    154.12167171478432692      170.3543231873940158 l
s
n
    154.12167171478432692      170.3543231873940158 m
    160.12568002850355242     174.05150609105652393 l
s
n
    160.12568002850355242     174.05150609105652393 m
    160.14281560525560621      174.0602947628069046 l
s
n
    160.14281560525560621      174.0602947628069046 m
    164.97215149991174599     176.12656136487657932 l
s
n
    164.97215149991174599     176.12656136487657932 m
    166.95268762796197848     176.79160669442109111 l
s
n
    166.95268762796197848     176.79160669442109111 m
    166.96415480878485482     176.79517186044296295 l
s
n
    166.96415480878485482     176.79517186044296295 m
     167.0287008702328535     176.81468598963721206 l
s
n
     167.0287008702328535     176.81468598963721206 m
    174.38536606357843084      178.4889147407041321 l
s
n
    174.38536606357843084      178.4889147407041321 m
    174.44651143987158548     178.49779857753853207 l
s
n
    174.44651143987158548     178.49779857753853207 m
    182.15524798149655794     179.06528207267723474 l
s
clr5
n
    182.15524798149655794     179.06528207267723474 m
    180.70024996848226806     188.97831164607435994 l
s
clr5
n
    182.15524798165702691      119.5871044954800908 m
    180.70024996869619827     109.67407487647817277 l
s
clr5
n
    180.70024996869619827     109.67407487647817277 m
    171.05377307157675659     110.33982689491946871 l
s
n
    171.05377307157675659     110.33982689491946871 m
    170.38751541725977745     110.43591719514043348 l
s
n
    170.38751541725977745     110.43591719514043348 m
     161.7526295848896325     112.30962606110436752 l
s
n
     161.7526295848896325     112.30962606110436752 m
    160.47137828345569233     112.69287524035331671 l
s
n
    160.47137828345569233     112.69287524035331671 m
    157.85444709797860696     113.56841163746045709 l
s
n
    157.85444709797860696     113.56841163746045709 m
    153.08028687944687363     115.51702599851741127 l
s
n
    153.08028687944687363     115.51702599851741127 m
    151.33243514456211187     116.35663228941645286 l
s
n
    151.33243514456211187     116.35663228941645286 m
    145.32999502242338963     119.85954977240413655 l
s
n
    145.32999502242338963     119.85954977240413655 m
    143.32232741767563766     121.28815744137352794 l
s
n
    143.32232741767563766     121.28815744137352794 m
    139.42408326030303556     124.55492629273578586 l
s
n
    139.42408326030303556     124.55492629273578586 m
    138.76445429901713169     125.18565227324627642 l
s
n
    138.76445429901713169     125.18565227324627642 m
    136.74839951222742229     127.29674339227297253 l
s
n
    136.74839951222742229     127.29674339227297253 m
    133.61168505389812822     131.31075905806926585 l
s
n
    133.61168505389812822     131.31075905806926585 m
    131.86381217485157435     134.15218932825200682 l
s
n
    131.86381217485157435     134.15218932825200682 m
    130.01852288121165202     138.05943858124010148 l
s
n
    130.01852288121165202     138.05943858124010148 m
    129.18032447104042149     140.45434017818189432 l
s
n
    129.18032447104042149     140.45434017818189432 m
    128.85593434751928044     141.59059718408656181 l
s
n
    128.85593434751928044     141.59059718408656181 m
    128.12943346757293739     145.18141900772820918 l
s
n
    128.12943346757293739     145.18141900772820918 m
    128.12619400658832092     153.44794813864837124 l
s
n
    128.12619400658832092     153.44794813864837124 m
    128.85568237961376781      157.0618809791970989 l
s
n
    128.85568237961376781      157.0618809791970989 m
    129.15421319984733373     158.11312560559943563 l
s
n
    129.15421319984733373     158.11312560559943563 m
    130.41888395862446259     161.56056096336533301 l
s
n
    130.41888395862446259     161.56056096336533301 m
    131.86390379944745632     164.50028531038265101 l
s
n
    131.86390379944745632     164.50028531038265101 m
    134.91082871657903297     169.13784992324329437 l
s
n
    134.91082871657903297     169.13784992324329437 m
    136.74852990107308415     171.35563431893484676 l
s
n
    136.74852990107308415     171.35563431893484676 m
     139.3516803826045134      174.0293079312762643 l
s
n
     139.3516803826045134      174.0293079312762643 m
    141.40547660755754578     175.84879384705743632 l
s
n
    141.40547660755754578     175.84879384705743632 m
    143.32243137629333773     177.36425199149351783 l
s
n
    143.32243137629333773     177.36425199149351783 m
    149.61890301836677963     181.39955203325513367 l
s
n
    149.61890301836677963     181.39955203325513367 m
    151.33241047620174413     182.29576480719276788 l
s
n
    151.33241047620174413     182.29576480719276788 m
    157.74970423300146649     185.04623488009517018 l
s
n
    157.74970423300146649     185.04623488009517018 m
    159.19174274777813594     185.54742003331139699 l
s
n
    159.19174274777813594     185.54742003331139699 m
    160.47132189884098352     185.95951656925748807 l
s
n
    160.47132189884098352     185.95951656925748807 m
    169.70548334104992705     188.11112246050302588 l
s
n
    169.70548334104992705     188.11112246050302588 m
    170.38748722484143627     188.21646404051861623 l
s
n
    170.38748722484143627     188.21646404051861623 m
    180.70024996848226806     188.97831164607435994 l
s
clr5
n
    180.70024996869619827     109.67407487647817277 m
    188.48068370166663499     110.10636138993005773 l
s
n
    188.48068370166663499     110.10636138993005773 m
    191.01298452012852636     110.43591719508478377 l
s
n
    191.01298452012852636     110.43591719508478377 m
    196.12774450107337998     111.40135287497305683 l
s
n
    196.12774450107337998     111.40135287497305683 m
    200.92912165392041857     112.69287524024416314 l
s
n
    200.92912165392041857     112.69287524024416314 m
    203.41490620929954503     113.52155340730493549 l
s
n
    203.41490620929954503     113.52155340730493549 m
    203.44320942465876101      113.5316602917020532 l
s
n
    203.44320942465876101      113.5316602917020532 m
    203.54605283939278593     113.56841163733716371 l
s
n
    203.54605283939278593     113.56841163733716371 m
    210.06806479279424593     116.35663228925798762 l
s
n
    210.06806479279424593     116.35663228925798762 m
    210.22232374784957187     116.43441212236480453 l
s
n
    210.22232374784957187     116.43441212236480453 m
    210.24312959775070908      116.4449278641603911 l
s
n
    210.24312959775070908      116.4449278641603911 m
    216.39124590943885096     120.07805849810006293 l
s
n
    216.39124590943885096     120.07805849810006293 m
    218.07817251965411742     121.28815744117184749 l
s
n
    218.07817251965411742     121.28815744117184749 m
    221.76619178297329427     124.35856195300662819 l
s
n
    221.76619178297329427     124.35856195300662819 m
    221.97641667700909807     124.55492629251307335 l
s
n
    221.97641667700909807     124.55492629251307335 m
    224.65210042506990362     127.29674339203580757 l
s
n
    224.65210042506990362     127.29674339203580757 m
    226.23415113851490332     129.18572625397399634 l
s
n
    226.23415113851490332     129.18572625397399634 m
    229.53668776240877492     134.15218932798850915 l
s
n
    229.53668776240877492     134.15218932798850915 m
    229.69659220722328996     134.44497528319229218 l
s
n
    229.69659220722328996     134.44497528319229218 m
    231.74979375276998894     139.03678223259777269 l
s
n
    231.74979375276998894     139.03678223259777269 m
    232.22017546618593542     140.45434017790390158 l
s
n
    232.22017546618593542     140.45434017790390158 m
    232.54456558970093738     141.59059718380683535 l
s
n
    232.54456558970093738     141.59059718380683535 m
    233.04134225835861116     143.78212218439119852 l
s
n
    233.04134225835861116     143.78212218439119852 m
    233.55181857834571701     148.61012711027902355 l
s
n
    233.55181857834571701     148.61012711027902355 m
    233.56043482207826401     149.32623555672660132 l
s
n
    233.56043482207826401     149.32623555672660132 m
    233.27416761254480093     153.44890331383862758 l
s
n
    233.27416761254480093     153.44890331383862758 m
    232.54481755752300387     157.06188097891731559 l
s
n
    232.54481755752300387     157.06188097891731559 m
    232.24628673728372519     158.11312560532130078 l
s
n
    232.24628673728372519     158.11312560532130078 m
    232.21174951981114987     158.22611123260520571 l
s
n
    232.21174951981114987     158.22611123260520571 m
    230.38113955675245847     162.87057267060342269 l
s
n
    230.38113955675245847     162.87057267060342269 m
    229.53659613764915548     164.50028531011912492 l
s
n
    229.53659613764915548     164.50028531011912492 m
    227.80915379972765322     167.31289465834342423 l
s
n
    227.80915379972765322     167.31289465834342423 m
    224.59325447566661182     171.42130175137583592 l
s
n
    224.59325447566661182     171.42130175137583592 m
    222.04881955444068353     174.02930793105309704 l
s
n
    222.04881955444068353     174.02930793105309704 m
    218.07806856073389667     177.36425199129183738 l
s
n
    218.07806856073389667     177.36425199129183738 m
    216.08150340011104618     178.78564649934790509 l
s
n
    216.08150340011104618     178.78564649934790509 m
    205.52577844125846696     184.33366868942772498 l
s
n
    205.52577844125846696     184.33366868942772498 m
    203.65079570398432907      185.0462348799713368 l
s
n
    203.65079570398432907      185.0462348799713368 m
    200.92917803813986666     185.95951656914832029 l
s
n
    200.92917803813986666     185.95951656914832029 m
     193.4930548670331234     187.79916514657466564 l
s
n
     193.4930548670331234     187.79916514657466564 m
    191.01301271212724942     188.21646404046296652 l
s
n
    191.01301271212724942     188.21646404046296652 m
    180.70024996848226806     188.97831164607435994 l
s
clr5
n
    182.15524798149655794     179.06528207267723474 m
    189.86398452312462837     178.49779857749692269 l
s
n
    189.86398452312462837     178.49779857749692269 m
    189.92512989941781143     178.48891474066221008 l
s
n
    189.92512989941781143     178.48891474066221008 m
    197.28179509277242687     176.81468598955558491 l
s
n
    197.28179509277242687     176.81468598955558491 m
    197.34634115422056766     176.79517186036099474 l
s
n
    197.34634115422056766     176.79517186036099474 m
      197.357808335043444     176.79160669433906605 l
s
n
      197.357808335043444     176.79160669433906605 m
    199.33834446309728605      176.1265613647838677 l
s
n
    199.33834446309728605      176.1265613647838677 m
    204.16768035776453871     174.06029476268813028 l
s
n
    204.16768035776453871     174.06029476268813028 m
    204.18481593451667777     174.05150609093763592 l
s
n
    204.18481593451667777     174.05150609093763592 m
    210.18882424825582689     170.35432318724275547 l
s
n
    210.18882424825582689     170.35432318724275547 m
    210.19386889157112819     170.35055359252163498 l
s
n
    210.19386889157112819     170.35055359252163498 m
    210.21152954820729519     170.33729921108283634 l
s
n
    210.21152954820729519     170.33729921108283634 m
    213.16747732739895582      167.8535892051679923 l
s
n
    213.16747732739895582      167.8535892051679923 m
    215.11943360405084036     165.84828288872660096 l
s
n
    215.11943360405084036     165.84828288872660096 m
    215.13165668846519907     165.83474301203543178 l
s
n
    215.13165668846519907     165.83474301203543178 m
    218.78167373570357768     160.70627019386375878 l
s
n
    218.78167373570357768     160.70627019386375878 m
    218.78916757713565744     160.69316560931667937 l
s
n
    218.78916757713565744     160.69316560931667937 m
    218.80341697653872757     160.66730009191513773 l
s
n
    218.80341697653872757     160.66730009191513773 m
    220.81495396191732539     155.91628019444368647 l
s
n
    220.81495396191732539     155.91628019444368647 m
    221.03889788943564554     155.12752025553268709 l
s
n
    221.03889788943564554     155.12752025553268709 m
    221.80033772583186646     149.32660742831927791 l
s
n
    221.80033772583186646     149.32660742831927791 m
    221.80030689060387772     149.28969218726120971 l
s
n
    221.80030689060387772     149.28969218726120971 m
    221.03864768361617621     143.52534566246822578 l
s
n
    221.03864768361617621     143.52534566246822578 m
    220.79509959909006511     142.67234400482595902 l
s
n
    220.79509959909006511     142.67234400482595902 m
     218.7829635293055901     137.94654285465810517 l
s
n
     218.7829635293055901     137.94654285465810517 m
    218.75954461407567919     137.90411156335369469 l
s
n
    218.75954461407567919     137.90411156335369469 m
    215.11923009163459142     132.80434071080497915 l
s
n
    215.11923009163459142     132.80434071080497915 m
    213.11250075883663158     130.74798273253293246 l
s
n
    213.11250075883663158     130.74798273253293246 m
    210.18880398521937991     128.29776554929631516 l
s
n
    210.18880398521937991     128.29776554929631516 m
     210.1357541778093605     128.25803588899125884 l
s
n
     210.1357541778093605     128.25803588899125884 m
    204.18080999801810549     124.59896043341281313 l
s
n
    204.18080999801810549     124.59896043341281313 m
    199.29020450515000107     122.50814917006310623 l
s
n
    199.29020450515000107     122.50814917006310623 m
    197.32613791292510541     121.85089416004390728 l
s
n
    197.32613791292510541     121.85089416004390728 m
    197.24410563413132991     121.82550358690507153 l
s
n
    197.24410563413132991     121.82550358690507153 m
    189.91245397781119664     120.16211660616265533 l
s
n
    189.91245397781119664     120.16211660616265533 m
    189.89066668665032012     120.15887218172066753 l
s
n
    189.89066668665032012     120.15887218172066753 m
    182.15524798165702691      119.5871044954800908 l
s
clr5
n
    182.21344790225674615     89.848015707793621232 m
    197.68258320765283997     90.990802095816377459 l
s
n
    197.68258320765283997     90.990802095816377459 m
    198.69908500272970286       91.1477927629227338 l
s
n
    198.69908500272970286       91.1477927629227338 m
    212.39563695829775725     94.326237842272661283 l
s
n
    212.39563695829775725     94.326237842272661283 m
    212.55682591061443532     94.376120207200301593 l
s
n
    212.55682591061443532     94.376120207200301593 m
    214.46414511107820999     94.990294512331857391 l
s
n
    214.46414511107820999     94.990294512331857391 m
    226.26522211778828364     99.871947873205641599 l
s
n
    226.26522211778828364     99.871947873205641599 m
    228.81942916328813453     101.20741535955139057 l
s
n
    228.81942916328813453     101.20741535955139057 m
    235.26880741541410202      105.1258359360033694 l
s
n
    235.26880741541410202      105.1258359360033694 m
    238.22733037664204403      107.2295640972116928 l
s
n
    238.22733037664204403      107.2295640972116928 m
      241.137974157706509     109.52763874568043434 l
s
clr5
n
    241.13797415749181141      189.1247478239831139 m
    238.29783380392984782     191.37010277817933002 l
s
n
    238.29783380392984782     191.37010277817933002 m
    235.26880741517564388     193.52655063369186905 l
s
n
    235.26880741517564388     193.52655063369186905 m
    228.81942916302853064     197.44497121017863606 l
s
n
    228.81942916302853064     197.44497121017863606 m
    226.26523973765182518     198.78060787890996153 l
s
n
    226.26523973765182518     198.78060787890996153 m
     214.4641451107850969      203.6620920574756326 l
s
n
     214.4641451107850969      203.6620920574756326 m
    212.56832656938851756     204.27266595026810592 l
s
n
    212.56832656938851756     204.27266595026810592 m
    198.69908500241584193     207.50459380696983658 l
s
n
    198.69908500241584193     207.50459380696983658 m
    197.68252329889497787     207.66160914651086955 l
s
n
    197.68252329889497787     207.66160914651086955 m
    182.21344790193586505      208.8043708621879091 l
s
clr5
n
    393.59681201755239499     179.06528207210678261 m
    393.65501193799161683     208.80437086161745697 l
s
clr5
n
    393.65501193799161683     208.80437086161745697 m
    378.18593654103869994     207.66160914602389198 l
s
n
    378.18593654103869994     207.66160914602389198 m
    377.16942769790972534     207.50462552818302697 l
s
n
    377.16942769790972534     207.50462552818302697 m
    363.30013327056343542      204.2726659498614481 l
s
n
    363.30013327056343542      204.2726659498614481 m
    361.40443630806947795     203.66211496719205343 l
s
n
    361.40443630806947795     203.66211496719205343 m
    349.60322010232977163     198.78060787857720015 l
s
n
    349.60322010232977163     198.78060787857720015 m
    347.04918221008114187      197.4450610879946737 l
s
n
    347.04918221008114187      197.4450610879946737 m
     340.5997176193165501     193.52675153747415493 l
s
n
     340.5997176193165501     193.52675153747415493 m
    337.57062603609165308     191.37010277791148383 l
s
n
    337.57062603609165308     191.37010277791148383 m
    334.73075527053600808     189.12482889028373734 l
s
clr5
n
    334.73075527075076252     109.52755767887481397 m
    337.64112946383346525     107.22956409694347713 l
s
n
    337.64112946383346525     107.22956409694347713 m
    340.59971761955500824     105.12563503165270618 l
s
n
    340.59971761955500824     105.12563503165270618 m
    347.04918221034080261     101.20732548109742766 l
s
n
    347.04918221034080261     101.20732548109742766 m
    349.60323772272687393     99.871947872872880225 l
s
n
    349.60323772272687393     99.871947872872880225 m
    361.40443630836261946     94.990271601822570346 l
s
n
    361.40443630836261946     94.990271601822570346 m
    363.31163392993045136     94.376120206793558509 l
s
n
    363.31163392993045136     94.376120206793558509 m
    363.47282288224738522     94.326237841865051337 l
s
n
    363.47282288224738522     94.326237841865051337 m
    377.16942769822355785     91.147761040746516414 l
s
n
    377.16942769822355785     91.147761040746516414 m
    378.18587663291026502     90.990802095329385679 l
s
n
    378.18587663291026502     90.990802095329385679 m
    393.65501193831249793     89.848015707223169102 l
s
clr5
n
    393.59681201771280712     119.58710449490963867 m
    393.65501193831249793     89.848015707223169102 l
s
clr5
n
    393.59681201771280712     119.58710449490963867 m
    385.86139331271647279     120.15887218119195268 l
s
n
    385.86139331271647279     120.15887218119195268 m
    385.83960602155559627     120.16211660563405417 l
s
n
    385.83960602155559627     120.16211660563405417 m
    378.50795436522645332     121.82550358641603339 l
s
n
    378.50795436522645332     121.82550358641603339 m
    378.42592208643253571     121.85089415955530967 l
s
n
    378.42592208643253571     121.85089415955530967 m
    376.46185549420414418     122.50814916958510992 l
s
n
    376.46185549420414418     122.50814916958510992 m
     371.5712500013246995     124.59896043296120638 l
s
n
     371.5712500013246995     124.59896043296120638 m
    365.61630582151371982     128.25803588857178283 l
s
n
    365.61630582151371982     128.25803588857178283 m
    365.56325601410350146     128.29776554887712336 l
s
n
    365.56325601410350146     128.29776554887712336 m
    362.63955924047297685     130.74798273212951472 l
s
n
    362.63955924047297685     130.74798273212951472 m
    360.63282990766396097     132.80434071041239008 l
s
n
    360.63282990766396097     132.80434071041239008 m
    356.99251538519536098     137.90411156298074502 l
s
n
    356.99251538519536098     137.90411156298074502 m
     356.9690964699652227     137.94654285428529761 l
s
n
     356.9690964699652227     137.94654285428529761 m
    354.95696040015525341     142.67234400446400855 l
s
n
    354.95696040015525341     142.67234400446400855 m
    354.71341231562456642     143.52534566210755429 l
s
n
    354.71341231562456642     143.52534566210755429 m
    353.95175310860577156     149.28969218690468779 l
s
n
    353.95175310860577156     149.28969218690468779 m
    353.95172227337752702     149.32660742796275599 l
s
n
    353.95172227337752702     149.32660742796275599 m
    354.71316210974242722      155.1275202551720156 l
s
n
    354.71316210974242722      155.1275202551720156 m
    354.93710603725651254     155.91628019408182126 l
s
n
    354.93710603725651254     155.91628019408182126 m
    356.94864302260947397     160.66730009154241543 l
s
n
    356.94864302260947397     160.66730009154241543 m
    356.96289242201243042      160.6931656089438718 l
s
n
    356.96289242201243042      160.6931656089438718 m
    356.97038626344442491     160.70627019349092279 l
s
n
    356.97038626344442491     160.70627019349092279 m
     360.6204033106551492     165.83474301164289955 l
s
n
     360.6204033106551492     165.83474301164289955 m
    360.63262639506945106     165.84828288833404031 l
s
n
    360.63262639506945106     165.84828288833404031 m
    362.58458267171050693     167.85358920476485878 l
s
n
    362.58458267171050693     167.85358920476485878 m
    365.54053045088880936     170.33729921066375823 l
s
n
    365.54053045088880936     170.33729921066375823 m
    365.55819110752480583     170.35055359210247161 l
s
n
    365.55819110752480583     170.35055359210247161 m
    365.56323575084013555      170.3543231868235921 l
s
n
    365.56323575084013555      170.3543231868235921 m
    371.56724406455936105     174.05150609048604338 l
s
n
    371.56724406455936105     174.05150609048604338 m
    371.58437964131144327     174.06029476223645247 l
s
n
    371.58437964131144327     174.06029476223645247 m
    376.41371553596752619     176.12656136430609877 l
s
n
    376.41371553596752619     176.12656136430609877 m
    378.39425166401775869     176.79160669385061055 l
s
n
    378.39425166401775869     176.79160669385061055 m
    378.40571884484063503      176.7951718598724824 l
s
n
    378.40571884484063503      176.7951718598724824 m
    378.47026490628871898     176.81468598906673151 l
s
n
    378.47026490628871898     176.81468598906673151 m
    385.82693009963423947     178.48891474013367997 l
s
n
    385.82693009963423947     178.48891474013367997 m
    385.88807547592739411     178.49779857696807994 l
s
n
    385.88807547592739411     178.49779857696807994 m
    393.59681201755239499     179.06528207210678261 l
s
clr5
n
    393.59681201755239499     179.06528207210678261 m
    392.14181400453804827     188.97831164550387939 l
s
clr5
n
    393.59681201771280712     119.58710449490963867 m
    392.14181400475200689     109.67407487590770643 l
s
clr5
n
    392.14181400475200689     109.67407487590770643 m
    382.49533710763256522     110.33982689434900237 l
s
n
    382.49533710763256522     110.33982689434900237 m
     381.8290794533156145     110.43591719456995293 l
s
n
     381.8290794533156145     110.43591719456995293 m
    373.19419362094538428     112.30962606053390118 l
s
n
    373.19419362094538428     112.30962606053390118 m
    371.91294231951150095     112.69287523978286458 l
s
n
    371.91294231951150095     112.69287523978286458 m
    369.29601113403441559     113.56841163688997653 l
s
n
    369.29601113403441559     113.56841163688997653 m
    364.52185091550268226     115.51702599794694493 l
s
n
    364.52185091550268226     115.51702599794694493 m
    362.77399918061786366     116.35663228884598652 l
s
n
    362.77399918061786366     116.35663228884598652 m
    356.77155905847922668     119.85954977183368442 l
s
n
    356.77155905847922668     119.85954977183368442 m
    354.76389145373138945      121.2881574408030616 l
s
n
    354.76389145373138945      121.2881574408030616 m
    350.86564729635887261     124.55492629216531952 l
s
n
    350.86564729635887261     124.55492629216531952 m
    350.20601833507294032     125.18565227267581008 l
s
n
    350.20601833507294032     125.18565227267581008 m
    348.18996354828323092     127.29674339170250619 l
s
n
    348.18996354828323092     127.29674339170250619 m
    345.05324908995396527      131.3107590574987853 l
s
n
    345.05324908995396527      131.3107590574987853 m
    343.30537621090735456     134.15218932768158311 l
s
n
    343.30537621090735456     134.15218932768158311 m
    341.46008691726746065     138.05943858066962093 l
s
n
    341.46008691726746065     138.05943858066962093 m
    340.62188850709617327     140.45434017761144219 l
s
n
    340.62188850709617327     140.45434017761144219 m
    340.29749838357508906     141.59059718351610968 l
s
n
    340.29749838357508906     141.59059718351610968 m
    339.57099750362874602     145.18141900715772863 l
s
n
    339.57099750362874602     145.18141900715772863 m
    339.56775804264412955     153.44794813807789069 l
s
n
    339.56775804264412955     153.44794813807789069 m
    340.29724641566951959     157.06188097862661834 l
s
n
    340.29724641566951959     157.06188097862661834 m
    340.59577723590314235      158.1131256050289835 l
s
n
    340.59577723590314235      158.1131256050289835 m
    341.86044799468021438     161.56056096279485246 l
s
n
    341.86044799468021438     161.56056096279485246 m
    343.30546783550329337     164.50028530981217045 l
s
n
    343.30546783550329337     164.50028530981217045 m
    346.35239275263478476     169.13784992267284224 l
s
n
    346.35239275263478476     169.13784992267284224 m
    348.19009393712883593     171.35563431836439463 l
s
n
    348.19009393712883593     171.35563431836439463 m
    350.79324441866032203     174.02930793070578375 l
s
n
    350.79324441866032203     174.02930793070578375 m
     352.8470406436133544     175.84879384648695577 l
s
n
     352.8470406436133544     175.84879384648695577 m
    354.76399541234917479      177.3642519909230657 l
s
n
    354.76399541234917479      177.3642519909230657 m
    361.06046705442253142     181.39955203268468154 l
s
n
    361.06046705442253142     181.39955203268468154 m
    362.77397451225755276     182.29576480662231575 l
s
n
    362.77397451225755276     182.29576480662231575 m
    369.19126826905727512     185.04623487952471805 l
s
n
    369.19126826905727512     185.04623487952471805 m
     370.6333067838338593     185.54742003274094486 l
s
n
     370.6333067838338593     185.54742003274094486 m
    371.91288593489679215     185.95951656868700752 l
s
n
    371.91288593489679215     185.95951656868700752 m
    381.14704737710570726     188.11112245993257375 l
s
n
    381.14704737710570726     188.11112245993257375 m
     381.8290512608972449      188.2164640399481641 l
s
n
     381.8290512608972449      188.2164640399481641 m
    392.14181400453804827     188.97831164550387939 l
s
clr5
n
    392.14181400475200689     109.67407487590770643 m
    399.92224773772244362      110.1063613893596056 l
s
n
    399.92224773772244362      110.1063613893596056 m
    402.45454855618430656     110.43591719451431743 l
s
n
    402.45454855618430656     110.43591719451431743 m
    407.56930853712913176      111.4013528744026047 l
s
n
    407.56930853712913176      111.4013528744026047 m
    412.37068568997625562      112.6928752396736968 l
s
n
    412.37068568997625562      112.6928752396736968 m
    414.85647024535535365     113.52155340673445494 l
s
n
    414.85647024535535365     113.52155340673445494 m
    414.88477346071454122     113.53166029113158686 l
s
n
    414.88477346071454122     113.53166029113158686 m
    414.98761687544862298     113.56841163676671158 l
s
n
    414.98761687544862298     113.56841163676671158 m
    421.50962882884999772     116.35663228868752128 l
s
n
    421.50962882884999772     116.35663228868752128 m
    421.66388778390535208      116.4344121217943524 l
s
n
    421.66388778390535208      116.4344121217943524 m
    421.68469363380643244     116.44492786358993897 l
s
n
    421.68469363380643244     116.44492786358993897 m
    427.83280994549460274     120.07805849752959659 l
s
n
    427.83280994549460274     120.07805849752959659 m
    429.51973655570986921     121.28815744060138115 l
s
n
    429.51973655570986921     121.28815744060138115 m
    433.20775581902904605     124.35856195243616185 l
s
n
    433.20775581902904605     124.35856195243616185 m
    433.41798071306493512      124.5549262919425928 l
s
n
    433.41798071306493512      124.5549262919425928 m
    436.09366446112568383     127.29674339146534123 l
s
n
    436.09366446112568383     127.29674339146534123 m
    437.67571517457065511     129.18572625340354421 l
s
n
    437.67571517457065511     129.18572625340354421 m
    440.97825179846461197     134.15218932741805702 l
s
n
    440.97825179846461197     134.15218932741805702 m
    441.13815624327907017     134.44497528262184005 l
s
n
    441.13815624327907017     134.44497528262184005 m
     443.1913577888257123     139.03678223202729214 l
s
n
     443.1913577888257123     139.03678223202729214 m
    443.66173950224174405     140.45434017733344945 l
s
n
    443.66173950224174405     140.45434017733344945 m
    443.98612962575668917     141.59059718323635479 l
s
n
    443.98612962575668917     141.59059718323635479 m
    444.48290629441447663     143.78212218382074639 l
s
n
    444.48290629441447663     143.78212218382074639 m
    444.99338261440152564     148.61012710970857142 l
s
n
    444.99338261440152564     148.61012710970857142 m
    445.00199885813401579     149.32623555615612077 l
s
n
    445.00199885813401579     149.32623555615612077 m
     444.7157316486005243     153.44890331326817545 l
s
n
     444.7157316486005243     153.44890331326817545 m
     443.9863815935788125     157.06188097834686346 l
s
n
     443.9863815935788125     157.06188097834686346 m
    443.68785077333950539     158.11312560475084865 l
s
n
    443.68785077333950539     158.11312560475084865 m
    443.65331355586693007     158.22611123203475358 l
s
n
    443.65331355586693007     158.22611123203475358 m
    441.82270359280829553     162.87057267003294214 l
s
n
    441.82270359280829553     162.87057267003294214 m
    440.97816017370502095     164.50028530954867279 l
s
n
    440.97816017370502095     164.50028530954867279 m
    439.25071783578340501     167.31289465777294367 l
s
n
    439.25071783578340501     167.31289465777294367 m
    436.03481851172233519     171.42130175080535537 l
s
n
    436.03481851172233519     171.42130175080535537 m
    433.49038359049649216     174.02930793048267333 l
s
n
    433.49038359049649216     174.02930793048267333 m
    429.51963259678967688     177.36425199072138525 l
s
n
    429.51963259678967688     177.36425199072138525 m
    427.52306743616679796     178.78564649877745296 l
s
n
    427.52306743616679796     178.78564649877745296 m
    416.96734247731421874     184.33366868885727285 l
s
n
    416.96734247731421874     184.33366868885727285 m
    415.09235974004008085     185.04623487940088467 l
s
n
    415.09235974004008085     185.04623487940088467 m
    412.37074207419573213     185.95951656857786816 l
s
n
    412.37074207419573213     185.95951656857786816 m
    404.93461890308890361     187.79916514600421351 l
s
n
    404.93461890308890361     187.79916514600421351 m
    402.45457674818305804     188.21646403989251439 l
s
n
    402.45457674818305804     188.21646403989251439 m
    392.14181400453804827     188.97831164550387939 l
s
clr5
n
    393.59681201755239499     179.06528207210678261 m
    401.30554855918046542     178.49779857692647056 l
s
n
    401.30554855918046542     178.49779857692647056 m
    401.36669393547362006     178.48891474009175795 l
s
n
    401.36669393547362006     178.48891474009175795 m
    408.72335912882817865     176.81468598898513278 l
s
n
    408.72335912882817865     176.81468598898513278 m
    408.78790519027637629     176.79517185979051419 l
s
n
    408.78790519027637629     176.79517185979051419 m
    408.79937237109925263      176.7916066937685855 l
s
n
    408.79937237109925263      176.7916066937685855 m
    410.77990849915306626     176.12656136421338715 l
s
n
    410.77990849915306626     176.12656136421338715 m
     415.6092443938202905     174.06029476211767815 l
s
n
     415.6092443938202905     174.06029476211767815 m
    415.62637997057237271     174.05150609036718379 l
s
n
    415.62637997057237271     174.05150609036718379 m
    421.63038828431166394     170.35432318667230334 l
s
n
    421.63038828431166394     170.35432318667230334 m
    421.63543292762693682     170.35055359195115443 l
s
n
    421.63543292762693682     170.35055359195115443 m
    421.65309358426304698     170.33729921051235578 l
s
n
    421.65309358426304698     170.33729921051235578 m
    424.60904136345470761     167.85358920459751175 l
s
n
    424.60904136345470761     167.85358920459751175 m
    426.56099764010667741     165.84828288815612041 l
s
n
    426.56099764010667741     165.84828288815612041 m
    426.57322072452092243     165.83474301146497965 l
s
n
    426.57322072452092243     165.83474301146497965 m
    430.22323777175932946     160.70627019329327823 l
s
n
    430.22323777175932946     160.70627019329327823 m
    430.23073161319143765     160.69316560874619881 l
s
n
    430.23073161319143765     160.69316560874619881 m
    430.24498101259450777     160.66730009134465718 l
s
n
    430.24498101259450777     160.66730009134465718 m
    432.25651799797304875     155.91628019387320592 l
s
n
    432.25651799797304875     155.91628019387320592 m
    432.48046192549145417     155.12752025496223496 l
s
n
    432.48046192549145417     155.12752025496223496 m
    433.24190176188761825     149.32660742774879736 l
s
n
    433.24190176188761825     149.32660742774879736 m
    433.24187092665960108     149.28969218669075758 l
s
n
    433.24187092665960108     149.28969218669075758 m
    432.48021171967195642     143.52534566189774523 l
s
n
    432.48021171967195642     143.52534566189774523 m
     432.2366636351458169     142.67234400425550689 l
s
n
     432.2366636351458169     142.67234400425550689 m
    430.22452756536137031     137.94654285408765304 l
s
n
    430.22452756536137031     137.94654285408765304 m
    430.20110865013140256     137.90411156278324256 l
s
n
    430.20110865013140256     137.90411156278324256 m
    426.56079412769037162      132.8043407102344986 l
s
n
    426.56079412769037162      132.8043407102344986 m
     424.5540647948924402     130.74798273196248033 l
s
n
     424.5540647948924402     130.74798273196248033 m
    421.63036802127516012     128.29776554872586303 l
s
n
    421.63036802127516012     128.29776554872586303 m
    421.57731821386516913     128.25803588842080671 l
s
n
    421.57731821386516913     128.25803588842080671 m
    415.62237403407391412     124.59896043284234679 l
s
n
    415.62237403407391412     124.59896043284234679 m
    410.73176854120578128      122.5081491694926541 l
s
n
    410.73176854120578128      122.5081491694926541 m
    408.76770194898097088     121.85089415947345515 l
s
n
    408.76770194898097088     121.85089415947345515 m
    408.68566967018716696      121.8255035863346194 l
s
n
    408.68566967018716696      121.8255035863346194 m
    401.35401801386694842      120.1621166055922032 l
s
n
    401.35401801386694842      120.1621166055922032 m
    401.33223072270612874     120.15887218115020119 l
s
n
    401.33223072270612874     120.15887218115020119 m
    393.59681201771280712     119.58710449490963867 l
s
clr5
n
    393.65501193831249793     89.848015707223169102 m
     409.1246168201821547     90.990978326883180216 l
s
n
     409.1246168201821547     90.990978326883180216 m
     418.1756152455328106     92.765082833733160328 l
s
n
     418.1756152455328106     92.765082833733160328 m
    423.83720099435356587     94.326237841702194942 l
s
n
    423.83720099435356587     94.326237841702194942 m
    423.99886128515674955     94.376281458577935268 l
s
n
    423.99886128515674955     94.376281458577935268 m
    437.70665840789916956     99.871932892946020388 l
s
n
    437.70665840789916956     99.871932892946020388 m
    440.28086165831109611     101.21856377235431523 l
s
n
    440.28086165831109611     101.21856377235431523 m
    449.66891643786078703     107.22956365606212614 l
s
n
    449.66891643786078703     107.22956365606212614 m
    457.82430037732473238      114.3886765290741323 l
s
n
    457.82430037732473238      114.3886765290741323 m
    459.58275502563202508     116.28203874719788757 l
s
n
    459.58275502563202508     116.28203874719788757 m
    463.58293956603660035     121.28848437391518189 l
s
n
    463.58293956603660035     121.28848437391518189 m
    466.86190133654633883     126.47880127937565931 l
s
n
    466.86190133654633883     126.47880127937565931 m
     466.9095866952753795     126.56505961655165038 l
s
n
     466.9095866952753795     126.56505961655165038 m
    469.08011187866702585     130.98202010935992234 l
s
n
    469.08011187866702585     130.98202010935992234 m
    469.53133698638231408     132.06064848871841377 l
s
n
    469.53133698638231408     132.06064848871841377 m
    471.42169152534455634     137.72270488429018087 l
s
n
    471.42169152534455634     137.72270488429018087 m
     472.5637402730787926     143.49637494385171976 l
s
n
     472.5637402730787926     143.49637494385171976 m
    472.94527952731414189     149.25151512791501318 l
s
n
    472.94527952731414189     149.25151512791501318 m
    472.94533473705564575     149.32621443200287104 l
s
clr5
n
    472.94533473705564575     149.32621443200287104 m
    472.56389885422026964     155.15607506795248582 l
s
n
    472.56389885422026964     155.15607506795248582 m
    471.42174702869243674     160.92968785223808936 l
s
n
    471.42174702869243674     160.92968785223808936 m
    469.53128588791111042     166.59173543623819569 l
s
n
    469.53128588791111042     166.59173543623819569 m
    466.93812778227146509     172.03552189980294429 l
s
n
    466.93812778227146509     172.03552189980294429 m
    466.90961048232856001     172.08732078378636743 l
s
n
    466.90961048232856001     172.08732078378636743 m
    463.58279948584925023     177.36377530776925937 l
s
n
    463.58279948584925023     177.36377530776925937 m
    459.58269687902355827     182.37033812854690495 l
s
n
    459.58269687902355827     182.37033812854690495 m
     449.7570082792502717     191.35688716713025315 l
s
n
     449.7570082792502717     191.35688716713025315 m
     449.7217283732843498     191.38326728091269047 l
s
n
     449.7217283732843498     191.38326728091269047 m
    437.70682315585105471     198.78055148421557874 l
s
n
    437.70682315585105471     198.78055148421557874 m
    424.02139831256693014     204.26909197209386093 l
s
n
    424.02139831256693014     204.26909197209386093 m
    423.99838554134117885     204.27623816498507381 l
s
n
    423.99838554134117885     204.27623816498507381 m
    409.12412962326351362     207.66161002709861805 l
s
n
    409.12412962326351362     207.66161002709861805 m
    393.65501193799161683     208.80437086161745697 l
s
clr5
n
    182.21344790193586505      208.8043708621879091 m
    183.60015520710331316     228.62646484377080469 l
s
n
    183.60015520710331316     228.62646484377080469 m
    184.98741727344847163     248.45648924903107968 l
s
clr5
n
    184.98741727398328294     50.195897325040625958 m
    183.60015520753114515     70.025921728255383414 l
s
n
    183.60015520753114515     70.025921728255383414 m
    182.21344790225674615     89.848015707793621232 l
s
clr5
n
    393.65501193831249793     89.848015707223169102 m
    394.19504803027149364      70.01799130454293163 l
s
n
    394.19504803027149364      70.01799130454293163 m
    394.73486819457690444     50.195897325539014844 l
s
clr5
n
    499.60859363825801438      149.3261932877834397 m
    495.17804854352903021     149.32619328718905649 l
s
n
    495.17804854352903021     149.32619328718905649 m
     490.7315039223718145     149.32619328659251323 l
s
n
     490.7315039223718145     149.32619328659251323 m
    486.28496103053095112     149.32619328599599839 l
s
n
    486.28496103053095112     149.32619328599599839 m
    481.83841813869008774     149.32619328539945514 l
s
n
    481.83841813869008774     149.32619328539945514 m
    477.39187351753275834     149.32619328480291188 l
s
n
    477.39187351753275834     149.32619328480291188 m
    472.94533473705564575     149.32621443200287104 l
s
clr5
n
    394.73486819404212156     248.45648924952945436 m
    394.55543264502955481     241.86762891073809101 l
s
n
    394.55543264502955481     241.86762891073809101 m
    394.37534745295346283     235.25497730091399262 l
s
n
    394.37534745295346283     235.25497730091399262 m
    394.19526402289045564     228.64232569108983739 l
s
n
    394.19526402289045564     228.64232569108983739 m
    394.19504802984363323     228.63439526741223062 l
s
n
    394.19504802984363323     228.63439526741223062 m
    394.01518059282733475     222.02967408126568216 l
s
n
    394.01518059282733475     222.02967408126568216 m
    393.83509536805468088     215.41702247144155535 l
s
n
    393.83509536805468088     215.41702247144155535 m
    393.65501193799161683     208.80437086161745697 l
s
clr5
n
    274.87918194903193125     248.45648924924466883 m
    304.79898321471785039     218.79659190783303302 l
s
n
    304.79898321471785039     218.79659190783303302 m
    334.73075527053600808     189.12482889028373734 l
s
clr5
n
    241.13797415749181141      189.1247478239831139 m
    258.00520451609986594     218.78468569854510406 l
s
n
    258.00520451609986594     218.78468569854510406 m
    274.87918194903193125     248.45648924924466883 l
s
clr5
n
    334.73075527075076252     109.52755767887481397 m
    304.79898321509261905     79.855794663996221061 l
s
n
    304.79898321509261905     79.855794663996221061 m
    274.87918194956677098     50.195897325254215104 l
s
clr5
n
    274.87918194956677098     50.195897325254215104 m
    258.00520451647457776     79.867700873535639516 l
s
n
    258.00520451647457776     79.867700873535639516 m
      241.137974157706509     109.52763874568043434 l
s
clr6
n
    252.14118875644797413     177.36381143582536879 m
    248.14108086358328364     182.37035663343931446 l
s
n
    248.14108086358328364     182.37035663343931446 m
    241.13797415749181141      189.1247478239831139 l
s
n
    241.13797415749181141      189.1247478239831139 m
    334.73075527053600808     189.12482889028373734 l
s
n
    334.73075527053600808     189.12482889028373734 m
    327.72737897648681837     182.37035663322456003 l
s
n
    327.72737897648681837     182.37035663322456003 m
    323.72727108364915694     177.36381143563221485 l
s
n
    323.72727108364915694     177.36381143563221485 m
    320.38618161458026634     172.06142090161091573 l
s
n
    320.38618161458026634     172.06142090161091573 m
    317.77866750777855032      166.5917706829750955 l
s
n
    317.77866750777855032      166.5917706829750955 m
     315.8883059207641395     160.92973014825065547 l
s
n
     315.8883059207641395     160.92973014825065547 m
    314.74614264218274684     155.15608916690928254 l
s
n
    314.74614264218274684     155.15608916690928254 m
    314.36471263275575438      149.2888859281832481 l
s
n
    314.36471263275575438      149.2888859281832481 m
    314.74628184124389918     143.49642957608506322 l
s
n
    314.74628184124389918     143.49642957608506322 m
    315.88829534874855653     137.72276920925742161 l
s
n
    315.88829534874855653     137.72276920925742161 m
    317.77864812572840947      132.0606810919807117 l
s
n
    317.77864812572840947      132.0606810919807117 m
    320.42424285824267827     126.52194454688978453 l
s
n
    320.42424285824267827     126.52194454688978453 m
     323.7270402600930197     121.28852578872727008 l
s
n
     323.7270402600930197     121.28852578872727008 m
    327.72718515523138194     116.28204403450276061 l
s
n
    327.72718515523138194     116.28204403450276061 m
    334.73075527075076252     109.52755767887481397 l
s
n
    334.73075527075076252     109.52755767887481397 m
      241.137974157706509     109.52763874568043434 l
s
n
      241.137974157706509     109.52763874568043434 m
      248.141274685195242     116.28204403471748662 l
s
n
      248.141274685195242     116.28204403471748662 m
    252.14141958030663204     121.28852578892040981 l
s
n
    252.14141958030663204     121.28852578892040981 m
    255.44421698212875071     126.52194454706510385 l
s
n
    255.44421698212875071     126.52194454706510385 m
    258.08981171461311988      132.0606810921417491 l
s
n
    258.08981171461311988      132.0606810921417491 m
    259.98016449156250474     137.72276920940828404 l
s
n
    259.98016449156250474     137.72276920940828404 m
     261.1221779990360119     143.49642957622972972 l
s
n
     261.1221779990360119     143.49642957622972972 m
    261.50374720749283597     149.28888592832583981 l
s
n
    261.50374720749283597     149.28888592832583981 m
    261.12231719803412489     155.15608916705394904 l
s
n
    261.12231719803412489     155.15608916705394904 m
    259.98015391942169572     160.92973014840146107 l
s
n
    259.98015391942169572     160.92973014840146107 m
     258.0897923323766463      166.5917706831361329 l
s
n
     258.0897923323766463      166.5917706831361329 m
    255.48227822554542854     172.06142090178605031 l
s
n
    255.48227822554542854     172.06142090178605031 m
    252.14118875644797413     177.36381143582536879 l
s
clr4
n
    143.64461541285896828     50.199159372548173508 m
    184.98741727398328294     50.195897325040625958 l
s
n
    184.98741727398328294     50.195897325040625958 m
    274.87918194956677098     50.195897325254215104 l
s
n
    274.87918194956677098     50.195897325254215104 m
    394.73486819457690444     50.195897325539014844 l
s
n
    394.73486819457690444     50.195897325539014844 m
    438.27149794003861416     50.220587378023409997 l
s
n
    438.27149794003861416     50.220587378023409997 m
    449.12417122543121195                        50 l
s
n
    449.12417122543121195                        50 m
    462.57445742863490068     51.287565965059393136 l
s
n
    462.57445742863490068     51.287565965059393136 m
    475.21095522109891363     55.000368278778971387 l
s
n
    475.21095522109891363     55.000368278778971387 m
    479.94550335836930799     57.072801225860864349 l
s
n
    479.94550335836930799     57.072801225860864349 m
    486.43812289265412119     60.718045141419992206 l
s
n
    486.43812289265412119     60.718045141419992206 m
    491.26015333806111585     64.309155984956220209 l
s
n
    491.26015333806111585     64.309155984956220209 m
    495.30907404826018592     68.400905663635228393 l
s
n
    495.30907404826018592     68.400905663635228393 m
    498.29380497666176097     72.975614619605792655 l
s
n
    498.29380497666176097     72.975614619605792655 m
    499.85751276419341593     77.928657654455136594 l
s
n
    499.85751276419341593     77.928657654455136594 m
                      500     84.091537928396093093 l
s
n
                      500     84.091537928396093093 m
    499.70373085410915337     88.117454516647768514 l
s
n
    499.70373085410915337     88.117454516647768514 m
    499.60344865479709142     108.51918492607345001 l
s
n
    499.60344865479709142     108.51918492607345001 m
    499.60913826385615266     116.74587337075693938 l
s
n
    499.60913826385615266     116.74587337075693938 m
    499.60859363825801438      149.3261932877834397 l
s
n
    499.60859363825801438      149.3261932877834397 m
    499.59705577341736671     190.78493796579692798 l
s
n
    499.59705577341736671     190.78493796579692798 m
    499.55286249946510679     211.51453676245751012 l
s
n
    499.55286249946510679     211.51453676245751012 m
    499.62475829104732838     221.87607587549857158 l
s
n
    499.62475829104732838     221.87607587549857158 m
    498.35784844945811756     226.96305671697953699 l
s
n
    498.35784844945811756     226.96305671697953699 m
    495.87371596773533611     231.79343195838404768 l
s
n
    495.87371596773533611     231.79343195838404768 m
    492.40727799525762975      236.2715888872304788 l
s
n
    492.40727799525762975      236.2715888872304788 m
    488.09116369007909952     240.31319009118925578 l
s
n
    488.09116369007909952     240.31319009118925578 m
     482.9924640268445728     243.80340479773451534 l
s
n
     482.9924640268445728     243.80340479773451534 m
    477.15344574527324539     246.56071618279898416 l
s
n
    477.15344574527324539     246.56071618279898416 m
     470.6628285117118935     248.30379687223370411 l
s
n
     470.6628285117118935     248.30379687223370411 m
    463.79806410663252336     248.79052574423261035 l
s
n
    463.79806410663252336     248.79052574423261035 m
    449.99580408181344637     248.36320631942328419 l
s
n
    449.99580408181344637     248.36320631942328419 m
    394.73486819404212156     248.45648924952945436 l
s
n
    394.73486819404212156     248.45648924952945436 m
    274.87918194903193125     248.45648924924466883 l
s
n
    274.87918194903193125     248.45648924924466883 m
    184.98741727344847163     248.45648924903107968 l
s
n
    184.98741727344847163     248.45648924903107968 m
    134.88465767499775438     248.45188431623026304 l
s
n
    134.88465767499775438     248.45188431623026304 m
    122.23347401622612551     248.46519861639563942 l
s
n
    122.23347401622612551     248.46519861639563942 m
    90.865455442814862863     248.64458479989392004 l
s
n
    90.865455442814862863     248.64458479989392004 m
    84.669908793915851675     248.77835871109490995 l
s
n
    84.669908793915851675     248.77835871109490995 m
    83.027475190887770395     248.72071334254135877 l
s
n
    83.027475190887770395     248.72071334254135877 m
    75.387937219854237014     247.47429217784818434 l
s
n
    75.387937219854237014     247.47429217784818434 m
    68.465183818137546723     244.73285045168918828 l
s
n
    68.465183818137546723     244.73285045168918828 m
    62.473561043592624742     240.94656306987832295 l
s
n
    62.473561043592624742     240.94656306987832295 m
    57.481853721230400822     236.41421491255258047 l
s
n
    57.481853721230400822     236.41421491255258047 m
    53.583551061404612881     231.31397264035507533 l
s
n
    53.583551061404612881     231.31397264035507533 m
    50.978210993524434969     225.77089551003925294 l
s
n
    50.978210993524434969     225.77089551003925294 m
    50.651389206657356112     224.65809141042197439 l
s
n
    50.651389206657356112     224.65809141042197439 m
    50.023176229215081889     219.94277604266451931 l
s
n
    50.023176229215081889     219.94277604266451931 m
    50.119395647933131954     196.40484151498819188 l
s
n
    50.119395647933131954     196.40484151498819188 m
    50.155167277067008058     187.00796971191095963 l
s
n
    50.155167277067008058     187.00796971191095963 m
     50.14977026034068075     149.32619328671543713 l
s
n
     50.14977026034068075     149.32619328671543713 m
    50.149578135610241247     118.42197546307983202 l
s
n
    50.149578135610241247     118.42197546307983202 m
    50.149883061996845868     102.83037832920798849 l
s
n
    50.149883061996845868     102.83037832920798849 m
    50.203759974413664224       87.4058822714752921 l
s
n
    50.203759974413664224       87.4058822714752921 m
                       50     79.584362697079939153 l
s
n
                       50     79.584362697079939153 m
    50.828691037346032999     73.822256076396485014 l
s
n
    50.828691037346032999     73.822256076396485014 m
    53.804087303965857814     68.472815219856059343 l
s
n
    53.804087303965857814     68.472815219856059343 m
    58.383944038203104299     63.796223229767363705 l
s
n
    58.383944038203104299     63.796223229767363705 m
    63.998718489814059751     59.840553453300657338 l
s
n
    63.998718489814059751     59.840553453300657338 m
    70.389979772589384766     56.513815619277139035 l
s
n
    70.389979772589384766     56.513815619277139035 m
    77.263766832389819683     53.839579828022166907 l
s
n
    77.263766832389819683     53.839579828022166907 m
    84.519128573484238132     51.810136826563386592 l
s
n
    84.519128573484238132     51.810136826563386592 m
    92.058740402686765947     50.491511797802147044 l
s
n
    92.058740402686765947     50.491511797802147044 m
    102.30568949356288044     50.012470149828807564 l
s
n
    102.30568949356288044     50.012470149828807564 m
    107.51794715416326653     50.132820497246378011 l
s
n
    107.51794715416326653     50.132820497246378011 m
    123.01052661759376861     50.209282117743697427 l
s
n
    123.01052661759376861     50.209282117743697427 m
    143.64461541285896828     50.199159372548173508 l
s
showpage
