%!PS-Adobe-2.0
%%BoundingBox: 50 50 550 550
/clr0{ 0.0000 0.0000 0.0000 setrgbcolor} def
/clr1{ 0.0000 0.0000 1.0000 setrgbcolor} def
/clr2{ 0.0000 1.0000 1.0000 setrgbcolor} def
/clr3{ 0.0000 1.0000 0.0000 setrgbcolor} def
/clr4{ 1.0000 0.0000 0.0000 setrgbcolor} def
/clr5{ 0.2000 0.6000 0.1000 setrgbcolor} def
/clr6{ 0.7000 0.1000 0.0000 setrgbcolor} def
/clr7{ 0.7000 0.7000 0.7000 setrgbcolor} def
/clr8{ 0.1000 0.0000 0.7000 setrgbcolor} def
/clr9{ 0.7000 0.0000 0.1000 setrgbcolor} def
/m {moveto} def % x y
/l {lineto} def % x y
/s {stroke} def 
/n {newpath} def % x y
/c {closepath} def 
0.01 setlinewidth
clr0
n
    210.63583028594587176     344.14957404835672605 m
    210.64229894160919798     344.15393775229216544 l
s
clr0
n
    210.64229894160919798     344.15393775229216544 m
     214.9557550272805031     345.81804560982101293 l
s
clr0
n
     214.9557550272805031     345.81804560982101293 m
    219.71991056018802624     345.29734101136733671 l
s
clr0
n
    219.71991056018802624     345.29734101136733671 m
    219.22372447991949684     402.42952907489723202 l
s
clr0
n
    219.22372447991949684     402.42952907489723202 m
    209.73777647021310599     403.47514240394343688 l
s
clr0
n
    209.73777647021310599     403.47514240394343688 m
    201.09039256450688526     400.15753437221292188 l
s
clr0
n
    201.09039256450688526     400.15753437221292188 m
    201.07740796127913541     400.14879044456574775 l
s
clr0
n
    201.07740796127913541     400.14879044456574775 m
    193.61309696362269506     392.60855367264360893 l
s
clr0
n
    193.61309696362269506     392.60855367264360893 m
    187.59424932276874642     381.11325256536673578 l
s
clr0
n
    187.59424932276874642     381.11325256536673578 m
    187.57758923952030727     381.07058080664342015 l
s
clr0
n
    187.57758923952030727     381.07058080664342015 m
    183.26414211774851992     366.11684041756871011 l
s
clr0
n
    183.26414211774851992     366.11684041756871011 m
    181.78744853747818411     357.48037624224417641 l
s
clr0
n
    181.78744853747818411     357.48037624224417641 m
    180.78988589851743995     348.19399234157418732 l
s
clr0
n
    180.78988589851743995     348.19399234157418732 m
    180.78266210052686347     348.10198306805546054 l
s
clr0
n
    180.78266210052686347     348.10198306805546054 m
    180.28083331853943605     338.34733013971168702 l
s
clr0
n
    180.28083331853943605     338.34733013971168702 m
    180.26601200065789499      328.0342946012552261 l
s
clr0
n
    180.26601200065789499      328.0342946012552261 m
    180.74458140837478481     317.35519039781934225 l
s
clr0
n
    180.74458140837478481     317.35519039781934225 m
    181.71291797509849175     306.41218409756965002 l
s
clr0
n
    181.71291797509849175     306.41218409756965002 m
    181.72844629018291585     306.27086207553753638 l
s
clr0
n
    181.72844629018291585     306.27086207553753638 m
    183.16086025939623028     295.31103370867532476 l
s
clr0
n
    183.16086025939623028     295.31103370867532476 m
    185.07510446249941083     284.15846922682726472 l
s
clr0
n
    185.07510446249941083     284.15846922682726472 m
    187.43658067508576437     273.06174434915351412 l
s
clr0
n
    187.43658067508576437     273.06174434915351412 m
    190.22323694701699992     262.12821618259010847 l
s
clr0
n
    190.22323694701699992     262.12821618259010847 m
      190.271135943115695     261.95518136946986942 l
s
clr0
n
      190.271135943115695     261.95518136946986942 m
    193.40759302648345397      251.4626835353388401 l
s
clr0
n
    193.40759302648345397      251.4626835353388401 m
    196.95927517677910146     241.16818888839520696 l
s
clr0
n
    196.95927517677910146     241.16818888839520696 m
    205.02493526160978377     222.08431717837274277 l
s
clr0
n
    205.02493526160978377     222.08431717837274277 m
    205.10784200685523615     221.91266764495398434 l
s
clr0
n
    205.10784200685523615     221.91266764495398434 m
    214.10961120949505698     205.60865276719172812 l
s
clr0
n
    214.10961120949505698     205.60865276719172812 m
    223.86461389229378938     192.37683094100225389 l
s
clr0
n
    223.86461389229378938     192.37683094100225389 m
     223.9762627346690067     192.24911335030128612 l
s
clr0
n
     223.9762627346690067     192.24911335030128612 m
    233.91503094144636066     182.89357046094721682 l
s
clr0
n
    233.91503094144636066     182.89357046094721682 m
    243.87464291826023555     177.52681388054122635 l
s
clr0
n
    243.87464291826023555     177.52681388054122635 m
    232.04536977935842401     232.84598341418933387 l
s
clr0
n
    232.04536977935842401     232.84598341418933387 m
    227.05058500553741396     235.54089581884787208 l
s
clr0
n
    227.05058500553741396     235.54089581884787208 m
    222.09773316846369084     240.20532344480423603 l
s
clr0
n
    222.09773316846369084     240.20532344480423603 m
    222.04190892987546135      240.2691805742086899 l
s
clr0
n
    222.04190892987546135      240.2691805742086899 m
    217.16363436857315605     246.88578161609021322 l
s
clr0
n
    217.16363436857315605     246.88578161609021322 m
    212.66196977641834565     255.03882825473806406 l
s
clr0
n
    212.66196977641834565     255.03882825473806406 m
     212.6205154848588279     255.12465653593895354 l
s
clr0
n
     212.6205154848588279     255.12465653593895354 m
    208.58757201392273828     264.66715005220743251 l
s
clr0
n
    208.58757201392273828     264.66715005220743251 m
    205.24274630512044837      275.0633957454119809 l
s
clr0
n
    205.24274630512044837      275.0633957454119809 m
    205.21879811496555135     275.14992556654340206 l
s
clr0
n
    205.21879811496555135     275.14992556654340206 m
     202.6450788140413124     286.16503242026851694 l
s
clr0
n
     202.6450788140413124     286.16503242026851694 m
    200.97214488101786856      297.2195763054214126 l
s
clr0
n
    200.97214488101786856      297.2195763054214126 m
    200.96438347434602179     297.29022195772438408 l
s
clr0
n
    200.96438347434602179     297.29022195772438408 m
    200.24099334213605061     308.09834207821432983 l
s
clr0
n
    200.24099334213605061     308.09834207821432983 m
    200.49803359541431291     318.10930598806481839 l
s
clr0
n
    200.49803359541431291     318.10930598806481839 m
    200.50162972993180688     318.15525480544994252 l
s
clr0
n
    200.50162972993180688     318.15525480544994252 m
    201.73500898187660368     327.11802264255493355 l
s
clr0
n
    201.73500898187660368     327.11802264255493355 m
    203.89440102455034776     334.61094372753416337 l
s
clr0
n
    203.89440102455034776     334.61094372753416337 m
    203.90275459486278464     334.63234250035588957 l
s
clr0
n
    203.90275459486278464     334.63234250035588957 m
    206.91268141107343581     340.38403260053968324 l
s
clr0
n
    206.91268141107343581     340.38403260053968324 m
    210.63583028594587176     344.14957404835672605 l
s
clr0
n
    209.52882145874792741     343.30270831590127045 m
    210.67882415065355417     344.17745383112350055 l
s
clr0
n
    210.67882415065355417     344.17745383112350055 m
    214.99234568704960679     345.82216854931209582 l
s
clr0
n
    214.99234568704960679     345.82216854931209582 m
    219.71991056018802624     345.29734101136733671 l
s
clr0
n
    219.71991056018802624     345.29734101136733671 m
    76.002079124076317385     341.37650232070819811 l
s
clr0
n
    76.002079124076317385     341.37650232070819811 m
    69.678086328962251628     342.07357515163670314 l
s
clr0
n
    69.678086328962251628     342.07357515163670314 m
    63.913190841966276423     339.86176436302724824 l
s
clr0
n
    63.913190841966276423     339.86176436302724824 m
    62.391832134200242876     338.69917320579094167 l
s
clr4
n
    62.391832134200242876     338.69917320579094167 m
    58.928349018054376529     334.82910869075908522 l
s
clr0
n
    58.928349018054376529     334.82910869075908522 m
     54.91578739999081904     327.16559809428724748 l
s
clr0
n
     54.91578739999081904     327.16559809428724748 m
    53.111145290946893738     321.68343227418682773 l
s
clr4
n
    53.111145290946893738     321.68343227418682773 m
    52.029046608945144214     317.16803369058538919 l
s
clr0
n
    52.029046608945144214     317.16803369058538919 m
    50.379529192880035282     305.21948873977021321 l
s
clr0
n
    50.379529192880035282     305.21948873977021321 m
                       50     293.70533552845029135 l
s
clr4
n
                       50     293.70533552845029135 m
    50.030210623794502567      291.7796927604296684 l
s
clr0
n
    50.030210623794502567      291.7796927604296684 m
    50.994897306204535425     277.36493157678114585 l
s
clr0
n
    50.994897306204535425     277.36493157678114585 m
    53.236430194654623449     262.52913325181634718 l
s
clr4
n
    53.236430194654623449     262.52913325181634718 m
    53.675781364559220776     260.31365534347077073 l
s
clr0
n
    53.675781364559220776     260.31365534347077073 m
    56.668403690559259189     247.84242032270145728 l
s
clr0
n
    56.668403690559259189     247.84242032270145728 m
      61.1591378634374081     233.86890292757354359 l
s
clr0
n
      61.1591378634374081     233.86890292757354359 m
    63.409059398426492749     228.13056699585433762 l
s
clr4
n
    63.409059398426492749     228.13056699585433762 m
    66.536179253502496067     221.14634975460555211 l
s
clr0
n
    66.536179253502496067     221.14634975460555211 m
    72.592705326374456831      210.1624565412495258 l
s
clr0
n
    72.592705326374456831      210.1624565412495258 m
    77.269770766476256085     203.53918990851627768 l
s
clr4
n
    77.269770766476256085     203.53918990851627768 m
    79.096021662792367124     201.34148155155597237 l
s
clr0
n
    79.096021662792367124     201.34148155155597237 m
    85.796300624844505478     195.01916307582555987 l
s
clr0
n
    85.796300624844505478     195.01916307582555987 m
    92.436024749636828801     191.44135885780426065 l
s
clr0
n
    92.436024749636828801     191.44135885780426065 m
    232.04536977935842401     232.84598341418933387 l
s
clr0
n
    232.04536977935842401     232.84598341418933387 m
    227.06495127537363032     235.53024612247506298 l
s
clr0
n
    227.06495127537363032     235.53024612247506298 m
    222.03991491270895153     240.27147917548802525 l
s
clr0
n
    222.03991491270895153     240.27147917548802525 m
    220.67023889607241927      241.9200342265206416 l
s
clr0
n
    220.67023889607241927      241.9200342265206416 m
    217.16252778981532856     246.88747285407521304 l
s
clr0
n
    217.16252778981532856     246.88747285407521304 m
    212.62027132667012097      255.1252187687438493 l
s
clr0
n
    212.62027132667012097      255.1252187687438493 m
    210.27501580691600225     260.36336913196174692 l
s
clr0
n
    210.27501580691600225     260.36336913196174692 m
    208.58762139010130454      264.6670599063344298 l
s
clr0
n
    208.58762139010130454      264.6670599063344298 m
    205.21966978966881356     275.14701756963449952 l
s
clr0
n
    205.21966978966881356     275.14701756963449952 m
    202.97523698346000742     284.50026323902045533 l
s
clr0
n
    202.97523698346000742     284.50026323902045533 m
    202.64571197753519982     286.16187550486688451 l
s
clr0
n
    202.64571197753519982     286.16187550486688451 m
    200.96456788785636149     297.28852972174809111 l
s
clr0
n
    200.96456788785636149     297.28852972174809111 m
    200.24092504421224703      308.0995592649406376 l
s
clr0
n
    200.24092504421224703      308.0995592649406376 m
    200.21826236662414544     309.54379048543165709 l
s
clr0
n
    200.21826236662414544     309.54379048543165709 m
    200.50362420649847195     318.17847756447315533 l
s
clr0
n
    200.50362420649847195     318.17847756447315533 m
    201.73988571951781523      327.1410881853642536 l
s
clr0
n
    201.73988571951781523      327.1410881853642536 m
    202.55119359020221737      330.5278180175567968 l
s
clr0
n
    202.55119359020221737      330.5278180175567968 m
    203.90514413800025295     334.63842385336789675 l
s
clr0
n
    203.90514413800025295     334.63842385336789675 m
    206.92163036732125647     340.39709718807841909 l
s
clr0
n
    206.92163036732125647     340.39709718807841909 m
    209.52882145874792741     343.30270831590127045 l
s
clr0
n
    117.01147695414566385     218.88975784116209411 m
    117.01263893617975498     218.89675461493837361 l
s
clr0
n
    117.01263893617975498     218.89675461493837361 m
    118.09844551866795825     228.11892844145407366 l
s
clr0
n
    118.09844551866795825     228.11892844145407366 m
    118.43739727579703924     236.37479532755099854 l
s
clr0
n
    118.43739727579703924     236.37479532755099854 m
    118.26581208170300386     245.07879857667967372 l
s
clr0
n
    118.26581208170300386     245.07879857667967372 m
    117.58617018407464627     254.10097766863273705 l
s
clr0
n
    117.58617018407464627     254.10097766863273705 m
    116.40893553432304941     263.30687032209266363 l
s
clr0
n
    116.40893553432304941     263.30687032209266363 m
    114.75121076889121241     272.55901259698902095 l
s
clr0
n
    114.75121076889121241     272.55901259698902095 m
    112.63816392707857972     281.71939727919232155 l
s
clr0
n
    112.63816392707857972     281.71939727919232155 m
     110.1010297514373093     290.65126982587003113 l
s
clr0
n
     110.1010297514373093     290.65126982587003113 m
    107.17786097293880232     299.22161358000232667 l
s
clr0
n
    107.17786097293880232     299.22161358000232667 m
    100.35240520831797539     314.77272310203960615 l
s
clr0
n
    100.35240520831797539     314.77272310203960615 m
    92.568130949118085482     327.44979582905313009 l
s
clr0
n
    92.568130949118085482     327.44979582905313009 m
    84.287075279425579311     336.49570441364591034 l
s
clr0
n
    84.287075279425579311     336.49570441364591034 m
    76.002079124076317385     341.37650232070819811 l
s
clr0
n
    76.002079124076317385     341.37650232070819811 m
    69.273836244985972144     342.01617655680161079 l
s
clr0
n
    69.273836244985972144     342.01617655680161079 m
    69.268677467292732786     342.01535670397987587 l
s
clr0
n
    69.268677467292732786     342.01535670397987587 m
    63.198861593102812151     339.35128063935292175 l
s
clr0
n
    63.198861593102812151     339.35128063935292175 m
    63.189810234409897305     339.34441904394776657 l
s
clr0
n
    63.189810234409897305     339.34441904394776657 m
    58.042618898312937858     333.49869842322823388 l
s
clr0
n
    58.042618898312937858     333.49869842322823388 m
    58.031539952558112816      333.4809923386865762 l
s
clr0
n
    58.031539952558112816      333.4809923386865762 m
    54.030369704863247193      324.7139559725478648 l
s
clr0
n
    54.030369704863247193      324.7139559725478648 m
     54.01956914063796944     324.68151702091449806 l
s
clr0
n
     54.01956914063796944     324.68151702091449806 m
    51.337555547979242476     313.38081182771441036 l
s
clr0
n
    51.337555547979242476     313.38081182771441036 m
    51.329609359475718122     313.33099855739868644 l
s
clr0
n
    51.329609359475718122     313.33099855739868644 m
    50.081701361237527692     299.99519765646232372 l
s
clr0
n
    50.081701361237527692     299.99519765646232372 m
    50.079262033203207238     299.92690095300753228 l
s
clr0
n
    50.079262033203207238     299.92690095300753228 m
    50.317844983972783268     285.14132593328326948 l
s
clr0
n
    50.317844983972783268     285.14132593328326948 m
    50.323373307427907264     285.05521481700543518 l
s
clr0
n
    50.323373307427907264     285.05521481700543518 m
    52.035689785754435377     269.46863281774301413 l
s
clr0
n
    52.035689785754435377     269.46863281774301413 m
    54.698900425992000862     255.61205038240711929 l
s
clr0
n
    54.698900425992000862     255.61205038240711929 m
     58.35581191708904214     242.10805269456747624 l
s
clr0
n
     58.35581191708904214     242.10805269456747624 m
    62.863760445739643501     229.45975402747944827 l
s
clr0
n
    62.863760445739643501     229.45975402747944827 m
    68.094101540708550147     218.02926438594121805 l
s
clr0
n
    68.094101540708550147     218.02926438594121805 m
    73.865269129731785824     208.21280616517282169 l
s
clr0
n
    73.865269129731785824     208.21280616517282169 m
    79.980744356658391325     200.35134328170593676 l
s
clr0
n
    79.980744356658391325     200.35134328170593676 m
    86.234975179041100546     194.69940159762359144 l
s
clr0
n
    86.234975179041100546     194.69940159762359144 m
    92.436024749636828801     191.44135885780426065 l
s
clr0
n
    92.436024749636828801     191.44135885780426065 m
    97.223492377396240727     190.64598820042749594 l
s
clr0
n
    97.223492377396240727     190.64598820042749594 m
    97.249847175948033851     190.64613866316688018 l
s
clr0
n
    97.249847175948033851     190.64613866316688018 m
     101.7642629135986283     191.50540901635287128 l
s
clr0
n
     101.7642629135986283     191.50540901635287128 m
    101.78515844902852905     191.51352893778118869 l
s
clr0
n
    101.78515844902852905     191.51352893778118869 m
    105.91553941315518728     194.00763481369551755 l
s
clr0
n
    105.91553941315518728     194.00763481369551755 m
    105.93123438263162939     194.02087702656609736 l
s
clr0
n
    105.93123438263162939     194.02087702656609736 m
    109.59057529919985541     198.10385859009011256 l
s
clr0
n
    109.59057529919985541     198.10385859009011256 m
    109.60147323282330944     198.11942772278118241 l
s
clr0
n
    109.60147323282330944     198.11942772278118241 m
    112.70948334129930402      203.7064938525175819 l
s
clr0
n
    112.70948334129930402      203.7064938525175819 m
    112.71623637527162032     203.72164422366998338 l
s
clr0
n
    112.71623637527162032     203.72164422366998338 m
    115.20240879602262396     210.68681154885194928 l
s
clr0
n
    115.20240879602262396     210.68681154885194928 m
    115.20585876566141792     210.69899505100406145 l
s
clr0
n
    115.20585876566141792     210.69899505100406145 m
    117.01147695414566385     218.88975784116209411 l
s
clr0
n
    229.74632277176843331     337.84774021902097729 m
    229.73837652179395263     337.85685735042892475 l
s
clr0
n
    229.73837652179395263     337.85685735042892475 m
    224.72294335313048919     342.59723914159428659 l
s
clr0
n
    224.72294335313048919     342.59723914159428659 m
    219.71991056018802624     345.29734101136733671 l
s
clr0
n
    219.71991056018802624     345.29734101136733671 m
    219.22372447991949684     402.42952907489723202 l
s
clr0
n
    219.22372447991949684     402.42952907489723202 m
    229.18329368977148874     397.06283155773917315 l
s
clr0
n
    229.18329368977148874     397.06283155773917315 m
    239.23375455396444522     387.57946349685022369 l
s
clr0
n
    239.23375455396444522     387.57946349685022369 m
    239.24970164979032461     387.56117911596919612 l
s
clr0
n
    239.24970164979032461     387.56117911596919612 m
    248.98873220435919507     374.34800639789818888 l
s
clr0
n
    248.98873220435919507     374.34800639789818888 m
    258.07340982380526384     357.87220013105007865 l
s
clr0
n
    258.07340982380526384     357.87220013105007865 m
    258.10102441000896079     357.81492845503305489 l
s
clr4
n
    258.10102441000896079     357.81492845503305489 m
    266.13896747746707661     338.78822089404690132 l
s
clr4
n
    266.13896747746707661     338.78822089404690132 m
    269.69063951792639955     328.49361396816317438 l
s
clr4
n
    269.69063951792639955     328.49361396816317438 m
    272.87506072770230503     317.82818830228194429 l
s
clr4
n
    272.87506072770230503     317.82818830228194429 m
    272.90375237146292875     317.72433563194903172 l
s
clr4
n
    272.90375237146292875     317.72433563194903172 m
    275.66176102850442931     306.89472590347844516 l
s
clr4
n
    275.66176102850442931     306.89472590347844516 m
    278.02323291810262162      295.7980891608967795 l
s
clr4
n
    278.02323291810262162      295.7980891608967795 m
    279.93756723946614784     284.64553028796433409 l
s
clr4
n
    279.93756723946614784     284.64553028796433409 m
    281.38542312876825235     273.54439875409832439 l
s
clr4
n
    281.38542312876825235     273.54439875409832439 m
    281.40087170559166907     273.40310302637908535 l
s
clr4
n
    281.40087170559166907     273.40310302637908535 m
    282.35367110930360468     262.60143130022936475 l
s
clr4
n
    282.35367110930360468     262.60143130022936475 m
    282.83233866965429115     251.92225940408337692 l
s
clr4
n
    282.83233866965429115     251.92225940408337692 m
    282.81753274951938693     241.60913207854690654 l
s
clr4
n
    282.81753274951938693     241.60913207854690654 m
    282.30854245835189431     231.76236904984048692 l
s
clr4
n
    282.30854245835189431     231.76236904984048692 m
    282.29640518872952271     231.60913166321714129 l
s
clr4
n
    282.29640518872952271     231.60913166321714129 m
    281.31107416560382717      222.4758255791743693 l
s
clr4
n
    281.31107416560382717      222.4758255791743693 m
    279.83434418118423537     213.83948902113922941 l
s
clr4
n
    279.83434418118423537     213.83948902113922941 m
    275.50410240750142066     198.84326255286333662 l
s
clr0
n
    275.50410240750142066     198.84326255286333662 m
    275.45401680806173772     198.71546828154211539 l
s
clr0
n
    275.45401680806173772     198.71546828154211539 m
    269.48522430071460576     187.34811279642207182 l
s
clr0
n
    269.48522430071460576     187.34811279642207182 m
    262.00798474155811846     179.79875714404920473 l
s
clr0
n
    262.00798474155811846     179.79875714404920473 m
     261.9170098027798872      179.7378563242738494 l
s
clr0
n
     261.9170098027798872      179.7378563242738494 m
    253.36062346936242307     176.48123478122519714 l
s
clr0
n
    253.36062346936242307     176.48123478122519714 m
    243.87464291826023555     177.52681388054122635 l
s
clr0
n
    243.87464291826023555     177.52681388054122635 m
    232.04536977935842401     232.84598341418933387 l
s
clr0
n
    232.04536977935842401     232.84598341418933387 m
    236.80183896888610207     232.32534383083583407 l
s
clr0
n
    236.80183896888610207     232.32534383083583407 m
    241.06529482134101272     233.95062217152261042 l
s
clr0
n
    241.06529482134101272     233.95062217152261042 m
    241.11078247332952174     233.98107091546424385 l
s
clr0
n
    241.11078247332952174     233.98107091546424385 m
    244.85007650393816903     237.75596155561672163 l
s
clr0
n
    244.85007650393816903     237.75596155561672163 m
    247.83507489663512047      243.4402227298515129 l
s
clr0
n
    247.83507489663512047      243.4402227298515129 m
    247.86011788489409469     243.50412301480477595 l
s
clr0
n
    247.86011788489409469     243.50412301480477595 m
    250.02523387584778902     251.00275812071839709 l
s
clr0
n
    250.02523387584778902     251.00275812071839709 m
    251.25645185707239193     259.89001774505402409 l
s
clr0
n
    251.25645185707239193     259.89001774505402409 m
    251.26251626239877623     259.96665067893093237 l
s
clr0
n
    251.26251626239877623     259.96665067893093237 m
    251.52404587998674401     270.04681210607839148 l
s
clr0
n
    251.52404587998674401     270.04681210607839148 m
    250.80826345327514559     280.78572782273954545 l
s
clr0
n
    250.80826345327514559     280.78572782273954545 m
    250.80053970078216707     280.85636105828353948 l
s
clr0
n
    250.80053970078216707     280.85636105828353948 m
    249.12004457624593101     291.98009400891601217 l
s
clr0
n
    249.12004457624593101     291.98009400891601217 m
    246.56688922964588073     302.91774181827884149 l
s
clr0
n
    246.56688922964588073     302.91774181827884149 m
    246.55257304979750188     302.96959736092060211 l
s
clr0
n
    246.55257304979750188     302.96959736092060211 m
    243.18825081403159061     313.44849309446453844 l
s
clr0
n
    243.18825081403159061     313.44849309446453844 m
    239.16276014245522674     322.98092745457523733 l
s
clr0
n
    239.16276014245522674     322.98092745457523733 m
    239.14891325191828741     323.00964700237500438 l
s
clr0
n
    239.14891325191828741     323.00964700237500438 m
    234.60511499077622943     331.25223681460329317 l
s
clr0
n
    234.60511499077622943     331.25223681460329317 m
    229.74632277176843331     337.84774021902097729 l
s
clr0
n
     231.1289617349983132     336.17989372531673098 m
    229.69376362030911309     337.90712935353383273 l
s
clr0
n
    229.69376362030911309     337.90712935353383273 m
    224.68267075914371844     342.62670833802303605 l
s
clr0
n
    224.68267075914371844     342.62670833802303605 m
    219.71991056018802624     345.29734101136733671 l
s
clr0
n
    219.71991056018802624     345.29734101136733671 m
    76.002079124076317385     341.37650232070819811 l
s
clr0
n
    76.002079124076317385     341.37650232070819811 m
    82.641822064078581889     337.79868226383007368 l
s
clr0
n
    82.641822064078581889     337.79868226383007368 m
    89.342116554551537888      331.4763779362714331 l
s
clr4
n
    89.342116554551537888      331.4763779362714331 m
    91.241987741146147073     329.18560955899692999 l
s
clr0
n
    91.241987741146147073     329.18560955899692999 m
    95.845411860807814719     322.65541951583236369 l
s
clr0
n
    95.845411860807814719     322.65541951583236369 m
    101.90185453155132222     311.67157628523267476 l
s
clr4
n
    101.90185453155132222     311.67157628523267476 m
    105.08867473302939288     304.54343686870936381 l
s
clr4
n
    105.08867473302939288     304.54343686870936381 m
    107.27888588305694384     298.94896861618917683 l
s
clr0
n
    107.27888588305694384     298.94896861618917683 m
    111.76962433447019407     284.97562644075208027 l
s
clr0
n
    111.76962433447019407     284.97562644075208027 m
    114.79633202792034297     272.33824007063566341 l
s
clr0
n
    114.79633202792034297     272.33824007063566341 m
    115.20181305776762315     270.28884896165692453 l
s
clr0
n
    115.20181305776762315     270.28884896165692453 m
    117.44318903796659015     255.45308953255104711 l
s
clr0
n
    117.44318903796659015     255.45308953255104711 m
    118.40771589053520074     241.03839389989806818 l
s
clr0
n
    118.40771589053520074     241.03839389989806818 m
    118.43929002329599598      238.9573836474438906 l
s
clr0
n
    118.43929002329599598      238.9573836474438906 m
    118.05861400963762264     227.59852004300893213 l
s
clr0
n
    118.05861400963762264     227.59852004300893213 m
    116.40914104397471363     215.64978380375615075 l
s
clr0
n
    116.40914104397471363     215.64978380375615075 m
    115.29557426036713252      211.0205843574746325 l
s
clr0
n
    115.29557426036713252      211.0205843574746325 m
    113.52237706721305699     205.65228485209351561 l
s
clr0
n
    113.52237706721305699     205.65228485209351561 m
    109.50973715980413203     197.98877759188894743 l
s
clr0
n
    109.50973715980413203     197.98877759188894743 m
    105.98825856985125426     194.06904474606494659 l
s
clr0
n
    105.98825856985125426     194.06904474606494659 m
    104.52487649692335481     192.95611849752279454 l
s
clr0
n
    104.52487649692335481     192.95611849752279454 m
     98.76000092073368819     190.74428187438024906 l
s
clr0
n
     98.76000092073368819     190.74428187438024906 m
    92.436024749636828801     191.44135885780426065 l
s
clr0
n
    92.436024749636828801     191.44135885780426065 m
    232.04536977935842401     232.84598341418933387 l
s
clr0
n
    232.04536977935842401     232.84598341418933387 m
    236.78881736100086641       232.323725500581304 l
s
clr0
n
    236.78881736100086641       232.323725500581304 m
    241.11240325733092504     233.98217750788751346 l
s
clr0
n
    241.11240325733092504     233.98217750788751346 m
    242.20986447703535305     234.81717482831106736 l
s
clr0
n
    242.20986447703535305     234.81717482831106736 m
    244.85088142849406267     237.75702246048729194 l
s
clr0
n
    244.85088142849406267     237.75702246048729194 m
    247.86025248344535044     243.50456034962292051 l
s
clr0
n
    247.86025248344535044     243.50456034962292051 m
    249.19006253736947087     247.53082919935221184 l
s
clr0
n
    249.19006253736947087     247.53082919935221184 m
    250.02520129881364142     251.00269499955592778 l
s
clr0
n
    250.02520129881364142     251.00269499955592778 m
    251.26224059212350426     259.96412102797023636 l
s
clr0
n
    251.26224059212350426     259.96412102797023636 m
    251.54775219254858598     268.48309781287343867 l
s
clr0
n
    251.54775219254858598     268.48309781287343867 m
     251.5240832214743989     270.04385166762671133 l
s
clr0
n
     251.5240832214743989     270.04385166762671133 m
    250.80072632924418485     280.85466809190967297 l
s
clr0
n
    250.80072632924418485     280.85466809190967297 m
    249.11984116626868513     291.98135574989487395 l
s
clr0
n
    249.11984116626868513     291.98135574989487395 m
    248.81573565142366533     293.51839493931538527 l
s
clr0
n
    248.81573565142366533     293.51839493931538527 m
    246.54514733680093741      302.9959265008658349 l
s
clr0
n
    246.54514733680093741      302.9959265008658349 m
    243.17776243175742934      313.4766254053096759 l
s
clr0
n
    243.17776243175742934      313.4766254053096759 m
    241.53534902852371147     317.67248894994884267 l
s
clr0
n
    241.53534902852371147     317.67248894994884267 m
    239.14496138835002625     323.01781948366817687 l
s
clr0
n
    239.14496138835002625     323.01781948366817687 m
    234.59252354178013888     331.27240451864008719 l
s
clr0
n
    234.59252354178013888     331.27240451864008719 m
     231.1289617349983132     336.17989372531673098 l
s
clr0
n
    343.53293204816685602     300.32571904686210473 m
    343.53940070383021066     300.33008275079754412 l
s
clr0
n
    343.53940070383021066     300.33008275079754412 m
    347.85285678950151578     301.99419060832633477 l
s
clr0
n
    347.85285678950151578     301.99419060832633477 m
    352.61701232240903892     301.47348600987265854 l
s
clr0
n
    352.61701232240903892     301.47348600987265854 m
    352.12082624214053794     358.60567407340255386 l
s
clr0
n
    352.12082624214053794     358.60567407340255386 m
    342.63487823243411867     359.65128740244870187 l
s
clr0
n
    342.63487823243411867     359.65128740244870187 m
    333.98749432672792636     356.33367937071830056 l
s
clr0
n
    333.98749432672792636     356.33367937071830056 m
    333.97450972350014808     356.32493544307106959 l
s
clr0
n
    333.97450972350014808     356.32493544307106959 m
    326.51019872584367931     348.78469867114904446 l
s
clr0
n
    326.51019872584367931     348.78469867114904446 m
    320.49135108498973068     337.28939756387205762 l
s
clr0
n
    320.49135108498973068     337.28939756387205762 m
    320.47469100174129153     337.24672580514879883 l
s
clr4
n
    320.47469100174129153     337.24672580514879883 m
    316.16124387996950418     322.29298541607408879 l
s
clr4
n
    316.16124387996950418     322.29298541607408879 m
    314.68455029969919678     313.65652124074955509 l
s
clr4
n
    314.68455029969919678     313.65652124074955509 m
    313.68698766073845263     304.37013734007950916 l
s
clr4
n
    313.68698766073845263     304.37013734007950916 m
    313.67976386274784772     304.27812806656078237 l
s
clr4
n
    313.67976386274784772     304.27812806656078237 m
    313.17793508076039188     294.52347513821700886 l
s
clr4
n
    313.17793508076039188     294.52347513821700886 m
    313.16311376287887924     284.21043959976060478 l
s
clr4
n
    313.16311376287887924     284.21043959976060478 m
    313.64168317059574065     273.53133539632466409 l
s
clr4
n
    313.64168317059574065     273.53133539632466409 m
    314.61001973731941916      262.5883290960750287 l
s
clr4
n
    314.61001973731941916      262.5883290960750287 m
    314.62554805240387168     262.44700707404285822 l
s
clr4
n
    314.62554805240387168     262.44700707404285822 m
    316.05796202161724295     251.48717870718067502 l
s
clr4
n
    316.05796202161724295     251.48717870718067502 m
    317.97220622472042351     240.33461422533267182 l
s
clr4
n
    317.97220622472042351     240.33461422533267182 m
    320.33368243730677705      229.2378893476588928 l
s
clr4
n
    320.33368243730677705      229.2378893476588928 m
    323.12033870923795575     218.30436118109548715 l
s
clr4
n
    323.12033870923795575     218.30436118109548715 m
    323.16823770533670768     218.13132636797519126 l
s
clr4
n
    323.16823770533670768     218.13132636797519126 m
    326.30469478870446665     207.63882853384416194 l
s
clr4
n
    326.30469478870446665     207.63882853384416194 m
    329.85637693900008571     197.34433388690058564 l
s
clr4
n
    329.85637693900008571     197.34433388690058564 m
    337.92203702383079644     178.26046217687806461 l
s
clr0
n
    337.92203702383079644     178.26046217687806461 m
    338.00494376907624883     178.08881264345930617 l
s
clr0
n
    338.00494376907624883     178.08881264345930617 m
    347.00671297171606966     161.78479776569704995 l
s
clr0
n
    347.00671297171606966     161.78479776569704995 m
    356.76171565451483048     148.55297593950757573 l
s
clr0
n
    356.76171565451483048     148.55297593950757573 m
    356.87336449689001938     148.42525834880660796 l
s
clr0
n
    356.87336449689001938     148.42525834880660796 m
    366.81213270366737333      139.0697154594525955 l
s
clr0
n
    366.81213270366737333      139.0697154594525955 m
    376.77174468048127665     133.70295887904654819 l
s
clr0
n
    376.77174468048127665     133.70295887904654819 m
    364.94247154157943669     189.02212841269465571 l
s
clr0
n
    364.94247154157943669     189.02212841269465571 m
    359.94768676775839822     191.71704081735319392 l
s
clr0
n
    359.94768676775839822     191.71704081735319392 m
    354.99483493068470352     196.38146844330958629 l
s
clr0
n
    354.99483493068470352     196.38146844330958629 m
    354.93901069209647403     196.44532557271404016 l
s
clr0
n
    354.93901069209647403     196.44532557271404016 m
    350.06073613079416873     203.06192661459553506 l
s
clr0
n
    350.06073613079416873     203.06192661459553506 m
    345.55907153863927306     211.21497325324344274 l
s
clr0
n
    345.55907153863927306     211.21497325324344274 m
    345.51761724707984058      211.3008015344443038 l
s
clr0
n
    345.51761724707984058      211.3008015344443038 m
    341.48467377614372253     220.84329505071281119 l
s
clr0
n
    341.48467377614372253     220.84329505071281119 m
    338.13984806734146105     231.23954074391724589 l
s
clr0
n
    338.13984806734146105     231.23954074391724589 m
    338.11589987718650718     231.32607056504872389 l
s
clr0
n
    338.11589987718650718     231.32607056504872389 m
    335.54218057626229665      242.3411774187738672 l
s
clr0
n
    335.54218057626229665      242.3411774187738672 m
    333.86924664323885281     253.39572130392676286 l
s
clr0
n
    333.86924664323885281     253.39572130392676286 m
    333.86148523656703446     253.46636695622970592 l
s
clr0
n
    333.86148523656703446     253.46636695622970592 m
    333.13809510435703487     264.27448707671965167 l
s
clr0
n
    333.13809510435703487     264.27448707671965167 m
    333.39513535763535401     274.28545098657019707 l
s
clr0
n
    333.39513535763535401     274.28545098657019707 m
    333.39873149215276271      274.3313998039553212 l
s
clr0
n
    333.39873149215276271      274.3313998039553212 m
    334.63211074409758794     283.29416764106031223 l
s
clr0
n
    334.63211074409758794     283.29416764106031223 m
    336.79150278677133201     290.78708872603942837 l
s
clr0
n
    336.79150278677133201     290.78708872603942837 m
    336.79985635708379732     290.80848749886126825 l
s
clr0
n
    336.79985635708379732     290.80848749886126825 m
    339.80978317329442007     296.56017759904506192 l
s
clr0
n
    339.80978317329442007     296.56017759904506192 m
    343.53293204816685602     300.32571904686210473 l
s
clr0
n
    342.42592322096885482     299.47885331440659229 m
    343.57592591287459527     300.35359882962882239 l
s
clr0
n
    343.57592591287459527     300.35359882962882239 m
    347.88944744927056263     301.99831354781741766 l
s
clr0
n
    347.88944744927056263     301.99831354781741766 m
    352.61701232240903892     301.47348600987265854 l
s
clr0
n
    352.61701232240903892     301.47348600987265854 m
    208.89918088629733006     297.55264731921357679 l
s
clr0
n
    208.89918088629733006     297.55264731921357679 m
    202.57518809118326431     298.24972015014202498 l
s
clr0
n
    202.57518809118326431     298.24972015014202498 m
      196.810292604187282     296.03790936153257007 l
s
clr0
n
      196.810292604187282     296.03790936153257007 m
    195.28893389642124134      294.8753182042962635 l
s
clr4
n
    195.28893389642124134      294.8753182042962635 m
    191.82545078027538921      291.0052536892644639 l
s
clr0
n
    191.82545078027538921      291.0052536892644639 m
    187.81288916221183172     283.34174309279262616 l
s
clr0
n
    187.81288916221183172     283.34174309279262616 m
    186.00824705316790642     277.85957727269214956 l
s
clr4
n
    186.00824705316790642     277.85957727269214956 m
    184.92614837116613558     273.34417868909071103 l
s
clr0
n
    184.92614837116613558     273.34417868909071103 m
    183.27663095510104085      261.3956337382755919 l
s
clr0
n
    183.27663095510104085      261.3956337382755919 m
    182.89710176222101268     249.88148052695567003 l
s
clr4
n
    182.89710176222101268     249.88148052695567003 m
    182.92731238601550103     247.95583775893499023 l
s
clr0
n
    182.92731238601550103     247.95583775893499023 m
     183.8919990684255481     233.54107657528646769 l
s
clr0
n
     183.8919990684255481     233.54107657528646769 m
    186.13353195687562902     218.70527825032169744 l
s
clr4
n
    186.13353195687562902     218.70527825032169744 m
    186.57288312678022635     216.48980034197609257 l
s
clr0
n
    186.57288312678022635     216.48980034197609257 m
    189.56550545278028608     204.01856532120680754 l
s
clr0
n
    189.56550545278028608     204.01856532120680754 m
    194.05623962565837815     190.04504792607886543 l
s
clr0
n
    194.05623962565837815     190.04504792607886543 m
    196.30616116064751964     184.30671199435965946 l
s
clr4
n
    196.30616116064751964     184.30671199435965946 m
    199.43328101572350874     177.32249475311090237 l
s
clr0
n
    199.43328101572350874     177.32249475311090237 m
    205.48980708859548372     166.33860153975490448 l
s
clr0
n
    205.48980708859548372     166.33860153975490448 m
    210.16687252869726876     159.71533490702162794 l
s
clr4
n
    210.16687252869726876     159.71533490702162794 m
    211.99312342501335138     157.51762655006129421 l
s
clr0
n
    211.99312342501335138     157.51762655006129421 m
    218.69340238706550394     151.19530807433088171 l
s
clr0
n
    218.69340238706550394     151.19530807433088171 m
    225.33312651185784148     147.61750385630958249 l
s
clr0
n
    225.33312651185784148     147.61750385630958249 m
    364.94247154157943669     189.02212841269465571 l
s
clr0
n
    364.94247154157943669     189.02212841269465571 m
    359.96205303759461458     191.70639112098044166 l
s
clr0
n
    359.96205303759461458     191.70639112098044166 m
    354.93701667492996421     196.44762417399337551 l
s
clr0
n
    354.93701667492996421     196.44762417399337551 m
    353.56734065829346036     198.09617922502602028 l
s
clr0
n
    353.56734065829346036     198.09617922502602028 m
    350.05962955203636966     203.06361785258053487 l
s
clr0
n
    350.05962955203636966     203.06361785258053487 m
     345.5173730888910768     211.30136376724919955 l
s
clr0
n
     345.5173730888910768     211.30136376724919955 m
    343.17211756913701493      216.5395141304671256 l
s
clr0
n
    343.17211756913701493      216.5395141304671256 m
    341.48472315232226038     220.84320490483972321 l
s
clr0
n
    341.48472315232226038     220.84320490483972321 m
    338.11677155188982624     231.32316256813984978 l
s
clr0
n
    338.11677155188982624     231.32316256813984978 m
    335.87233874568107694     240.67640823752577717 l
s
clr0
n
    335.87233874568107694     240.67640823752577717 m
    335.54281373975618408     242.33802050337226319 l
s
clr0
n
    335.54281373975618408     242.33802050337226319 m
    333.86166965007737417     253.46467472025344136 l
s
clr0
n
    333.86166965007737417     253.46467472025344136 m
    333.13802680643328813     264.27570426344595944 l
s
clr0
n
    333.13802680643328813     264.27570426344595944 m
    333.11536412884515812     265.71993548393697893 l
s
clr0
n
    333.11536412884515812     265.71993548393697893 m
    333.40072596871948463     274.35462256297853401 l
s
clr0
n
    333.40072596871948463     274.35462256297853401 m
    334.63698748173879949     283.31723318386963228 l
s
clr0
n
    334.63698748173879949     283.31723318386963228 m
    335.44829535242325846     286.70396301606211864 l
s
clr0
n
    335.44829535242325846     286.70396301606211864 m
    336.80224590022123721     290.81456885187327543 l
s
clr0
n
    336.80224590022123721     290.81456885187327543 m
    339.81873212954229757     296.57324218658368409 l
s
clr0
n
    339.81873212954229757     296.57324218658368409 m
    342.42592322096885482     299.47885331440659229 l
s
clr0
n
    249.90857871636666232     175.06590283966744437 m
    249.90974069840078187     175.07289961344369544 l
s
clr0
n
    249.90974069840078187     175.07289961344369544 m
     250.9955472808889283      184.2950734399593955 l
s
clr0
n
     250.9955472808889283      184.2950734399593955 m
    251.33449903801800929     192.55094032605632037 l
s
clr0
n
    251.33449903801800929     192.55094032605632037 m
    251.16291384392405917     201.25494357518502397 l
s
clr0
n
    251.16291384392405917     201.25494357518502397 m
    250.48327194629564474     210.27712266713805889 l
s
clr0
n
    250.48327194629564474     210.27712266713805889 m
    249.30603729654404788     219.48301532059801389 l
s
clr0
n
    249.30603729654404788     219.48301532059801389 m
    247.64831253111222509     228.73515759549434279 l
s
clr0
n
    247.64831253111222509     228.73515759549434279 m
    245.53526568929956397     237.89554227769770023 l
s
clr0
n
    245.53526568929956397     237.89554227769770023 m
    242.99813151365830777     246.82741482437535296 l
s
clr0
n
    242.99813151365830777     246.82741482437535296 m
    240.07496273515977236     255.39775857850762009 l
s
clr0
n
    240.07496273515977236     255.39775857850762009 m
    233.24950697053895965     270.94886810054498483 l
s
clr0
n
    233.24950697053895965     270.94886810054498483 m
    225.46523271133912658     283.62594082755845193 l
s
clr0
n
    225.46523271133912658     283.62594082755845193 m
    217.18417704164653514     292.67184941215123217 l
s
clr0
n
    217.18417704164653514     292.67184941215123217 m
    208.89918088629733006     297.55264731921357679 l
s
clr0
n
    208.89918088629733006     297.55264731921357679 m
     202.1709380072069564     298.19232155530693262 l
s
clr0
n
     202.1709380072069564     298.19232155530693262 m
    202.16577922951373125     298.19150170248519771 l
s
clr0
n
    202.16577922951373125     298.19150170248519771 m
    196.09596335532381772     295.52742563785830043 l
s
clr0
n
    196.09596335532381772     295.52742563785830043 m
    196.08691199663090288     295.52056404245314525 l
s
clr0
n
    196.08691199663090288     295.52056404245314525 m
    190.93972066053396475     289.67484342173361256 l
s
clr0
n
    190.93972066053396475     289.67484342173361256 m
     190.9286417147791326     289.65713733719189804 l
s
clr0
n
     190.9286417147791326     289.65713733719189804 m
    186.92747146708424566     280.89010097105318664 l
s
clr0
n
    186.92747146708424566     280.89010097105318664 m
    186.91667090285898212     280.85766201941987674 l
s
clr0
n
    186.91667090285898212     280.85766201941987674 m
    184.23465731020021963     269.55695682621978904 l
s
clr0
n
    184.23465731020021963     269.55695682621978904 m
    184.22671112169672369     269.50714355590400828 l
s
clr0
n
    184.22671112169672369     269.50714355590400828 m
    182.97880312345850484      256.1713426549677024 l
s
clr0
n
    182.97880312345850484      256.1713426549677024 m
    182.97636379542421992     256.10304595151285412 l
s
clr0
n
    182.97636379542421992     256.10304595151285412 m
    183.21494674619378884     241.31747093178853447 l
s
clr0
n
    183.21494674619378884     241.31747093178853447 m
    183.22047506964892705     241.23135981551072859 l
s
clr0
n
    183.22047506964892705     241.23135981551072859 m
    184.93279154797542674     225.64477781624833597 l
s
clr0
n
    184.93279154797542674     225.64477781624833597 m
    187.59600218821299222     211.78819538091244112 l
s
clr0
n
    187.59600218821299222     211.78819538091244112 m
    191.25291367931004061      198.2841976930728265 l
s
clr0
n
    191.25291367931004061      198.2841976930728265 m
    195.76086220796065618     185.63589902598479853 l
s
clr0
n
    195.76086220796065618     185.63589902598479853 m
     200.9912033029295344     174.20540938444656831 l
s
clr0
n
     200.9912033029295344     174.20540938444656831 m
    206.76237089195282692     164.38895116367817195 l
s
clr0
n
    206.76237089195282692     164.38895116367817195 m
    212.87784611887937558      156.5274882802112586 l
s
clr0
n
    212.87784611887937558      156.5274882802112586 m
    219.13207694126214164     150.87554659612891328 l
s
clr0
n
    219.13207694126214164     150.87554659612891328 m
    225.33312651185784148     147.61750385630958249 l
s
clr0
n
    225.33312651185784148     147.61750385630958249 m
     230.1205941396172534     146.82213319893281778 l
s
clr0
n
     230.1205941396172534     146.82213319893281778 m
    230.14694893816903232     146.82228366167225886 l
s
clr0
n
    230.14694893816903232     146.82228366167225886 m
    234.66136467581964098     147.68155401485819311 l
s
clr0
n
    234.66136467581964098     147.68155401485819311 m
     234.6822602112495133     147.68967393628651052 l
s
clr0
n
     234.6822602112495133     147.68967393628651052 m
    238.81264117537617153     150.18377981220083939 l
s
clr0
n
    238.81264117537617153     150.18377981220083939 m
    238.82833614485261364     150.19702202507144762 l
s
clr0
n
    238.82833614485261364     150.19702202507144762 m
    242.48767706142086809     154.28000358859549124 l
s
clr0
n
    242.48767706142086809     154.28000358859549124 m
    242.49857499504432212     154.29557272128650425 l
s
clr0
n
    242.49857499504432212     154.29557272128650425 m
     245.6065851035203309     159.88263885102290374 l
s
clr0
n
     245.6065851035203309     159.88263885102290374 m
      245.613338137492633     159.89778922217527679 l
s
clr0
n
      245.613338137492633     159.89778922217527679 m
    248.09951055824362243     166.86295654735727112 l
s
clr0
n
    248.09951055824362243     166.86295654735727112 m
     248.1029605278824306     166.87514004950941171 l
s
clr0
n
     248.1029605278824306     166.87514004950941171 m
    249.90857871636666232     175.06590283966744437 l
s
clr0
n
    362.64342453398944599     294.02388521752635597 m
    362.63547828401499373     294.03300234893424658 l
s
clr0
n
    362.63547828401499373     294.03300234893424658 m
    357.62004511535150186     298.77338414009966527 l
s
clr0
n
    357.62004511535150186     298.77338414009966527 m
    352.61701232240903892     301.47348600987265854 l
s
clr0
n
    352.61701232240903892     301.47348600987265854 m
    352.12082624214053794     358.60567407340255386 l
s
clr0
n
    352.12082624214053794     358.60567407340255386 m
    362.08039545199244458     353.23897655624455183 l
s
clr0
n
    362.08039545199244458     353.23897655624455183 m
    372.13085631618542948     343.75560849535548869 l
s
clr0
n
    372.13085631618542948     343.75560849535548869 m
    372.14680341201130886     343.73732411447451796 l
s
clr0
n
    372.14680341201130886     343.73732411447451796 m
     381.8858339665801509     330.52415139640356756 l
s
clr0
n
     381.8858339665801509     330.52415139640356756 m
    390.97051158602630494     314.04834512955540049 l
s
clr0
n
    390.97051158602630494     314.04834512955540049 m
    390.99812617222994504     313.99107345353837673 l
s
clr0
n
    390.99812617222994504     313.99107345353837673 m
    399.03606923968806086     294.96436589255222316 l
s
clr0
n
    399.03606923968806086     294.96436589255222316 m
    402.58774128014744065     284.66975896666849621 l
s
clr0
n
    402.58774128014744065     284.66975896666849621 m
    405.77216248992328929     274.00433330078726613 l
s
clr0
n
    405.77216248992328929     274.00433330078726613 m
    405.80085413368391301     273.90048063045435356 l
s
clr0
n
    405.80085413368391301     273.90048063045435356 m
    408.55886279072541356       263.070870901983767 l
s
clr0
n
    408.55886279072541356       263.070870901983767 m
    410.92033468032360588     251.97423415940212976 l
s
clr0
n
    410.92033468032360588     251.97423415940212976 m
    412.83466900168718894     240.82167528646965593 l
s
clr0
n
    412.83466900168718894     240.82167528646965593 m
    414.28252489098929345     229.72054375260358938 l
s
clr0
n
    414.28252489098929345     229.72054375260358938 m
    414.29797346781271017     229.57924802488443561 l
s
clr0
n
    414.29797346781271017     229.57924802488443561 m
    415.25077287152464578     218.77757629873474343 l
s
clr0
n
    415.25077287152464578     218.77757629873474343 m
    415.72944043187533225     208.09840440258869876 l
s
clr0
n
    415.72944043187533225     208.09840440258869876 m
    415.71463451174042802      197.7852770770522568 l
s
clr0
n
    415.71463451174042802      197.7852770770522568 m
    415.20564422057287857     187.93851404834578034 l
s
clr0
n
    415.20564422057287857     187.93851404834578034 m
    415.19350695095056381     187.78527666172246313 l
s
clr0
n
    415.19350695095056381     187.78527666172246313 m
    414.20817592782481142     178.65197057767969113 l
s
clr0
n
    414.20817592782481142     178.65197057767969113 m
    412.73144594340521962     170.01563401964457967 l
s
clr0
n
    412.73144594340521962     170.01563401964457967 m
    408.40120416972240491     155.01940755136865846 l
s
clr0
n
    408.40120416972240491     155.01940755136865846 m
    408.35111857028277882     154.89161328004746565 l
s
clr0
n
    408.35111857028277882     154.89161328004746565 m
    402.38232606293559002     143.52425779492742208 l
s
clr0
n
    402.38232606293559002     143.52425779492742208 m
    394.90508650377910271     135.97490214255452656 l
s
clr0
n
    394.90508650377910271     135.97490214255452656 m
    394.81411156500087145     135.91400132277917123 l
s
clr0
n
    394.81411156500087145     135.91400132277917123 m
     386.2577252315833789      132.6573797797305474 l
s
clr0
n
     386.2577252315833789      132.6573797797305474 m
    376.77174468048127665     133.70295887904654819 l
s
clr0
n
    376.77174468048127665     133.70295887904654819 m
    364.94247154157943669     189.02212841269465571 l
s
clr0
n
    364.94247154157943669     189.02212841269465571 m
    369.69894073110714316     188.50148882934121275 l
s
clr0
n
    369.69894073110714316     188.50148882934121275 m
    373.96239658356199698     190.12676717002790383 l
s
clr0
n
    373.96239658356199698     190.12676717002790383 m
    374.00788423555053441     190.15721591396956569 l
s
clr0
n
    374.00788423555053441     190.15721591396956569 m
    377.74717826615915328     193.93210655412210031 l
s
clr0
n
    377.74717826615915328     193.93210655412210031 m
     380.7321766588560763     199.61636772835686315 l
s
clr0
n
     380.7321766588560763     199.61636772835686315 m
    380.75721964711510736     199.68026801331012621 l
s
clr0
n
    380.75721964711510736     199.68026801331012621 m
    382.92233563806877328     207.17890311922374735 l
s
clr0
n
    382.92233563806877328     207.17890311922374735 m
    384.15355361929340461     216.06616274355934593 l
s
clr0
n
    384.15355361929340461     216.06616274355934593 m
    384.15961802461976049     216.14279567743631105 l
s
clr0
n
    384.15961802461976049     216.14279567743631105 m
    384.42114764220775669     226.22295710458374174 l
s
clr0
n
    384.42114764220775669     226.22295710458374174 m
    383.70536521549615827     236.96187282124486728 l
s
clr0
n
    383.70536521549615827     236.96187282124486728 m
    383.69764146300315133     237.03250605678888974 l
s
clr0
n
    383.69764146300315133     237.03250605678888974 m
    382.01714633846694369     248.15623900742133401 l
s
clr0
n
    382.01714633846694369     248.15623900742133401 m
    379.46399099186686499     259.09388681678422017 l
s
clr0
n
    379.46399099186686499     259.09388681678422017 m
    379.44967481201848614     259.14574235942598079 l
s
clr0
n
    379.44967481201848614     259.14574235942598079 m
    376.08535257625260328     269.62463809296991712 l
s
clr0
n
    376.08535257625260328     269.62463809296991712 m
      372.059861904676211     279.15707245308055917 l
s
clr0
n
      372.059861904676211     279.15707245308055917 m
    372.04601501413930009     279.18579200088026937 l
s
clr0
n
    372.04601501413930009     279.18579200088026937 m
    367.50221675299724211     287.42838181310855816 l
s
clr0
n
    367.50221675299724211     287.42838181310855816 m
    362.64342453398944599     294.02388521752635597 l
s
clr0
n
    364.02606349721929746     292.35603872382205282 m
    362.59086538253006893     294.08327435203915456 l
s
clr0
n
    362.59086538253006893     294.08327435203915456 m
    357.57977252136464585     298.80285333652841473 l
s
clr0
n
    357.57977252136464585     298.80285333652841473 m
    352.61701232240903892     301.47348600987265854 l
s
clr0
n
    352.61701232240903892     301.47348600987265854 m
    208.89918088629733006     297.55264731921357679 l
s
clr0
n
    208.89918088629733006     297.55264731921357679 m
    215.53892382629962299     293.97482726233539552 l
s
clr0
n
    215.53892382629962299     293.97482726233539552 m
    222.23921831677256478     287.65252293477675494 l
s
clr4
n
    222.23921831677256478     287.65252293477675494 m
    224.13908950336713133     285.36175455750219498 l
s
clr0
n
    224.13908950336713133     285.36175455750219498 m
     228.7425136230288274     278.83156451433762868 l
s
clr0
n
     228.7425136230288274     278.83156451433762868 m
     234.7989562937723349      267.8477212837379966 l
s
clr4
n
     234.7989562937723349      267.8477212837379966 m
    237.98577649525040556      260.7195818672146288 l
s
clr4
n
    237.98577649525040556      260.7195818672146288 m
     240.1759876452779281     255.12511361469447024 l
s
clr0
n
     240.1759876452779281     255.12511361469447024 m
    244.66672609669120675     241.15177143925737369 l
s
clr0
n
    244.66672609669120675     241.15177143925737369 m
    247.69343379014134143     228.51438506914101367 l
s
clr0
n
    247.69343379014134143     228.51438506914101367 m
    248.09891481998857898     226.46499396016230321 l
s
clr0
n
    248.09891481998857898     226.46499396016230321 m
    250.34029080018760283     211.62923453105639737 l
s
clr0
n
    250.34029080018760283     211.62923453105639737 m
      251.304817652756185      197.2145388984033616 l
s
clr0
n
      251.304817652756185      197.2145388984033616 m
    251.33639178551698024     195.13352864594924085 l
s
clr0
n
    251.33639178551698024     195.13352864594924085 m
    250.95571577185864953     183.77466504151428239 l
s
clr0
n
    250.95571577185864953     183.77466504151428239 m
    249.30624280619571209       171.825928802261501 l
s
clr0
n
    249.30624280619571209       171.825928802261501 m
    248.19267602258813099     167.19672935597992591 l
s
clr0
n
    248.19267602258813099     167.19672935597992591 m
    246.41947882943404124     161.82842985059886587 l
s
clr0
n
    246.41947882943404124     161.82842985059886587 m
    242.40683892202514471     154.16492259039426926 l
s
clr0
n
    242.40683892202514471     154.16492259039426926 m
    238.88536033207228115     150.24518974457032527 l
s
clr0
n
    238.88536033207228115     150.24518974457032527 m
    237.42197825914433906      149.1322634960281448 l
s
clr0
n
    237.42197825914433906      149.1322634960281448 m
    231.65710268295467245     146.92042687288559932 l
s
clr0
n
    231.65710268295467245     146.92042687288559932 m
    225.33312651185784148     147.61750385630958249 l
s
clr0
n
    225.33312651185784148     147.61750385630958249 m
    364.94247154157943669     189.02212841269465571 l
s
clr0
n
    364.94247154157943669     189.02212841269465571 m
    369.68591912322182225     188.49987049908665426 l
s
clr0
n
    369.68591912322182225     188.49987049908665426 m
    374.00950501955196614     190.15832250639289214 l
s
clr0
n
    374.00950501955196614     190.15832250639289214 m
    375.10696623925639415     190.99331982681641762 l
s
clr0
n
    375.10696623925639415     190.99331982681641762 m
    377.74798319071504693      193.9331674589926422 l
s
clr0
n
    377.74798319071504693      193.9331674589926422 m
    380.75735424566636311     199.68070534812829919 l
s
clr0
n
    380.75735424566636311     199.68070534812829919 m
    382.08716429959048355     203.70697419785750526 l
s
clr0
n
    382.08716429959048355     203.70697419785750526 m
    382.92230306103465409     207.17883999806124962 l
s
clr0
n
    382.92230306103465409     207.17883999806124962 m
    384.15934235434451693     216.14026602647558661 l
s
clr0
n
    384.15934235434451693     216.14026602647558661 m
    384.44485395476959866     224.65924281137873209 l
s
clr0
n
    384.44485395476959866     224.65924281137873209 m
    384.42118498369535473     226.21999666613206159 l
s
clr0
n
    384.42118498369535473     226.21999666613206159 m
    383.69782809146516911     237.03081309041502323 l
s
clr0
n
    383.69782809146516911     237.03081309041502323 m
    382.01694292848969781     248.15750074840025263 l
s
clr0
n
    382.01694292848969781     248.15750074840025263 m
    381.71283741364464959     249.69453993782067869 l
s
clr0
n
    381.71283741364464959     249.69453993782067869 m
    379.44224909902197851     259.17207149937121358 l
s
clr0
n
    379.44224909902197851     259.17207149937121358 m
    376.07486419397844202     269.65277040381499774 l
s
clr0
n
    376.07486419397844202     269.65277040381499774 m
    374.43245079074478099     273.84863394845422135 l
s
clr0
n
    374.43245079074478099     273.84863394845422135 m
    372.04206315057103893     279.19396448217355555 l
s
clr0
n
    372.04206315057103893     279.19396448217355555 m
    367.48962530400115156     287.44854951714546587 l
s
clr0
n
    367.48962530400115156     287.44854951714546587 m
    364.02606349721929746     292.35603872382205282 l
s
clr4
n
    266.50255244403081178     104.05108980768751792 m
    239.22207627522911366     112.41482554312293018 l
s
clr4
n
    239.22207627522911366     112.41482554312293018 m
     225.6046989219773593     116.60520541665603389 l
s
clr4
n
     225.6046989219773593     116.60520541665603389 m
    215.39786120154062132      119.5925154156922332 l
s
clr4
n
    215.39786120154062132      119.5925154156922332 m
    211.98352255218384244     120.41865008062080733 l
s
clr4
n
    211.98352255218384244     120.41865008062080733 m
    205.12286453348755799     123.39579241577170876 l
s
clr4
n
    205.12286453348755799     123.39579241577170876 m
    199.87464337892083677     127.41298206623405065 l
s
clr4
n
    199.87464337892083677     127.41298206623405065 m
    194.66668160295455436     132.71660491823408279 l
s
clr4
n
    194.66668160295455436     132.71660491823408279 m
    189.57688171938886512     139.16215739440139032 l
s
clr4
n
    189.57688171938886512     139.16215739440139032 m
    184.69301751914417764     146.70493606721313995 l
s
clr4
n
    184.69301751914417764     146.70493606721313995 m
    184.64749878338002986     146.78267853011288935 l
s
clr4
n
    184.64749878338002986     146.78267853011288935 m
     180.1456638458931252      155.3575671782608083 l
s
clr4
n
     180.1456638458931252      155.3575671782608083 m
    176.15455949718932516     165.12511415208797416 l
s
clr4
n
    176.15455949718932516     165.12511415208797416 m
    173.08271518825893054     175.84042424551020645 l
s
clr4
n
    173.08271518825893054     175.84042424551020645 m
    171.34184580862444136     186.90197071805874884 l
s
clr4
n
    171.34184580862444136     186.90197071805874884 m
    169.85547080602495384     201.64839710233079018 l
s
clr4
n
    169.85547080602495384     201.64839710233079018 m
    166.62355308962619915     230.82133706345160817 l
s
clr4
n
    166.62355308962619915     230.82133706345160817 m
    163.39235862262847832      260.2993742722976549 l
s
clr4
n
    163.39235862262847832      260.2993742722976549 m
    156.98831039167677659     318.72784475106470836 l
s
clr4
n
    156.98831039167677659     318.72784475106470836 m
    149.18320461511615349     389.96913328577551283 l
s
clr4
n
    149.18320461511615349     389.96913328577551283 m
    147.21231986108227829     407.74239310196173847 l
s
clr4
n
    147.21231986108227829     407.74239310196173847 m
    142.27114647781951362     452.26342136335028954 l
s
clr4
n
    142.27114647781951362     452.26342136335028954 m
     141.7085278050794841     461.05135290853820607 l
s
clr4
n
     141.7085278050794841     461.05135290853820607 m
    141.69357725475600773     463.08918829229992298 l
s
clr4
n
    141.69357725475600773     463.08918829229992298 m
    142.26402250509744363     473.04243128893870107 l
s
clr4
n
    142.26402250509744363     473.04243128893870107 m
    143.77938736000012909      481.8970600812422731 l
s
clr4
n
    143.77938736000012909      481.8970600812422731 m
    146.13391279672470091     489.45697523588472677 l
s
clr4
n
    146.13391279672470091     489.45697523588472677 m
    149.30283018024181274     495.40422804825186631 l
s
clr4
n
    149.30283018024181274     495.40422804825186631 m
    153.30266850350491836     499.18783127038517478 l
s
clr4
n
    153.30266850350491836     499.18783127038517478 m
    158.08527847408609546                       500 l
s
clr4
n
    158.08527847408609546                       500 m
    159.15708465050465747     499.77696373209300873 l
s
clr4
n
    159.15708465050465747     499.77696373209300873 m
     163.2729008363882599      498.2715986328827853 l
s
clr4
n
     163.2729008363882599      498.2715986328827853 m
    184.00807163633152186     491.59130825197644299 l
s
clr4
n
    184.00807163633152186     491.59130825197644299 m
     192.3586388037066115     489.00866205515666252 l
s
clr4
n
     192.3586388037066115     489.00866205515666252 m
    225.41768838012953324      478.8889484649475321 l
s
clr0
n
    225.41768838012953324      478.8889484649475321 m
    219.22372447991949684     402.42952907489723202 l
s
clr0
n
    219.22372447991949684     402.42952907489723202 m
    209.73772294617361922      403.4751632653774891 l
s
clr0
n
    209.73772294617361922      403.4751632653774891 m
    204.45449636005889715     402.01344647604139482 l
s
clr0
n
    204.45449636005889715     402.01344647604139482 m
    201.09193693573968176     400.15896804004552223 l
s
clr0
n
    201.09193693573968176     400.15896804004552223 m
    193.62896874562198946     392.62921065909745266 l
s
clr0
n
    193.62896874562198946     392.62921065909745266 m
    192.31521513927702927     390.66127020493354394 l
s
clr0
n
    192.31521513927702927     390.66127020493354394 m
    187.60480476580792697     381.14307792854577883 l
s
clr0
n
    187.60480476580792697     381.14307792854577883 m
    183.99759851319879544     369.41788162254351846 l
s
clr0
n
    183.99759851319879544     369.41788162254351846 m
    183.26885385030303155     366.13966812878277324 l
s
clr0
n
    183.26885385030303155     366.13966812878277324 m
    181.78986176331986258     357.49936950911063605 l
s
clr0
n
    181.78986176331986258     357.49936950911063605 m
     180.7899291705469409      348.1949415117640001 l
s
clr0
n
     180.7899291705469409      348.1949415117640001 m
    180.34382183770944152     340.37297850129186827 l
s
clr0
n
    180.34382183770944152     340.37297850129186827 m
    180.28093652455891061     338.34716764812526435 l
s
clr0
n
    180.28093652455891061     338.34716764812526435 m
     180.2659929834969148     328.03414672199568258 l
s
clr0
n
     180.2659929834969148     328.03414672199568258 m
    180.74456510203850712     317.35514439152194655 l
s
clr0
n
    180.74456510203850712     317.35514439152194655 m
    181.71293887458591598     306.41206159306341306 l
s
clr0
n
    181.71293887458591598     306.41206159306341306 m
    183.16088511667300054     295.31082640096900604 l
s
clr0
n
    183.16088511667300054     295.31082640096900604 m
    185.07517763599679483     284.15821066035641707 l
s
clr0
n
    185.07517763599679483     284.15821066035641707 m
    186.58181094067037975     276.83546926278427236 l
s
clr0
n
    186.58181094067037975     276.83546926278427236 m
    187.43740166418353965     273.05876314520003234 l
s
clr0
n
    187.43740166418353965     273.05876314520003234 m
    190.22711032926824259     262.11390356845856786 l
s
clr0
n
    190.22711032926824259     262.11390356845856786 m
     193.4080904368123015     251.46024900470141006 l
s
clr0
n
     193.4080904368123015     251.46024900470141006 m
    194.52769851342043239      248.0583700508509537 l
s
clr0
n
    194.52769851342043239      248.0583700508509537 m
    196.95266827587192893     241.18947257032289144 l
s
clr0
n
    196.95266827587192893     241.18947257032289144 m
    204.98629924471455865     222.16302440715594457 l
s
clr0
n
    204.98629924471455865     222.16302440715594457 m
    205.00698519565008837     222.12009655342450287 l
s
clr0
n
    205.00698519565008837     222.12009655342450287 m
     214.1057353099602949     205.61523621533225992 l
s
clr0
n
     214.1057353099602949     205.61523621533225992 m
    217.28589327152440092     200.83620018004245367 l
s
clr0
n
    217.28589327152440092     200.83620018004245367 m
    223.86425704173154827     192.37735004837233532 l
s
clr0
n
    223.86425704173154827     192.37735004837233532 m
    230.54787396414832301     185.62006717207572137 l
s
clr0
n
    230.54787396414832301     185.62006717207572137 m
    233.91504463505864919     182.89389351479465518 l
s
clr0
n
    233.91504463505864919     182.89389351479465518 m
    243.87464291826023555     177.52681388054122635 l
s
clr0
n
    243.87464291826023555     177.52681388054122635 m
    266.50255244403081178     104.05108980768751792 l
s
clr4
n
    404.90314687025318108     61.650027910061318437 m
    433.62541271973310586     52.895650245746153928 l
s
clr4
n
    433.62541271973310586     52.895650245746153928 m
    440.83219513011096069     50.284700875263929731 l
s
clr4
n
    440.83219513011096069     50.284700875263929731 m
    449.44046912428501628                        50 l
s
clr4
n
    449.44046912428501628                        50 m
    457.00919362297480575     54.465038328554562952 l
s
clr4
n
    457.00919362297480575     54.465038328554562952 m
    459.70379418540647976     57.426144107411587925 l
s
clr4
n
    459.70379418540647976     57.426144107411587925 m
    463.23251837790684249     63.005457499982050251 l
s
clr4
n
    463.23251837790684249     63.005457499982050251 m
    465.67013273410549345     68.820139728453966654 l
s
clr4
n
    465.67013273410549345     68.820139728453966654 m
    467.49386771805114904     75.737631948635353751 l
s
clr4
n
    467.49386771805114904     75.737631948635353751 m
    468.51532567248420946     83.783352296843659701 l
s
clr4
n
    468.51532567248420946     83.783352296843659701 m
    468.52072684054053298     92.831626847772668043 l
s
clr4
n
    468.52072684054053298     92.831626847772668043 m
    467.33763126333707305     104.45456213245384447 l
s
clr4
n
    467.33763126333707305     104.45456213245384447 m
    466.30786388112147733     112.12598149138989356 l
s
clr4
n
    466.30786388112147733     112.12598149138989356 m
    462.01391209260259529     150.71842217071389314 l
s
clr4
n
    462.01391209260259529     150.71842217071389314 m
    460.31287680129554474     166.27091388364607383 l
s
clr4
n
    460.31287680129554474     166.27091388364607383 m
    453.56101045968807739     227.86842603524075912 l
s
clr0
n
    453.56101045968807739     227.86842603524075912 m
    414.28253028581485751     229.72042636088039558 l
s
clr0
n
    414.28253028581485751     229.72042636088039558 m
    415.25079329889803148     218.77737045182357178 l
s
clr0
n
    415.25079329889803148     218.77737045182357178 m
    415.72942057740146993     208.09817651281633744 l
s
clr0
n
    415.72942057740146993     208.09817651281633744 m
    415.71459929515839349     197.78516986579225545 l
s
clr0
n
    415.71459929515839349     197.78516986579225545 m
    415.65452941915492602     195.83945586045192044 l
s
clr0
n
    415.65452941915492602     195.83945586045192044 m
    415.20556287896295089     187.93843810449783405 l
s
clr0
n
    415.20556287896295089     187.93843810449783405 m
    414.20813771837561035     178.65183223869166795 l
s
clr0
n
    414.20813771837561035     178.65183223869166795 m
    412.73134292439237925      170.0156487221773034 l
s
clr0
n
    412.73134292439237925      170.0156487221773034 m
    412.01851010718377211     166.80045107183457276 l
s
clr0
n
    412.01851010718377211     166.80045107183457276 m
    408.40125990871359818     155.01938595953700428 l
s
clr0
n
    408.40125990871359818     155.01938595953700428 m
    403.72115191488057917      145.5367044838949937 l
s
clr0
n
    403.72115191488057917      145.5367044838949937 m
    402.38217168731705442     143.52425410658690907 l
s
clr0
n
    402.38217168731705442     143.52425410658690907 m
    394.90561217197893029     135.97531649745104687 l
s
clr0
n
    394.90561217197893029     135.97531649745104687 m
    391.57915496648206499     134.13586441834357288 l
s
clr0
n
    391.57915496648206499     134.13586441834357288 m
    386.25824247645209653     132.65785150718994601 l
s
clr0
n
    386.25824247645209653     132.65785150718994601 m
    376.77174468048127665     133.70295887904654819 l
s
clr0
n
    376.77174468048127665     133.70295887904654819 m
    404.90314687025318108     61.650027910061318437 l
s
clr0
n
    354.07157065141694829     371.59383099559602215 m
    352.12082624214053794     358.60567407340255386 l
s
clr0
n
    352.12082624214053794     358.60567407340255386 m
    362.08044824563438624     353.23896235859461967 l
s
clr0
n
    362.08044824563438624     353.23896235859461967 m
    372.13086036901057696     343.75560073597500832 l
s
clr0
n
    372.13086036901057696     343.75560073597500832 m
    381.88588170377147435     330.52393012093722291 l
s
clr0
n
    381.88588170377147435     330.52393012093722291 m
    390.97045856667438102     314.04817634813400673 l
s
clr0
n
    390.97045856667438102     314.04817634813400673 m
    399.03614224993771131     294.96427437608997479 l
s
clr0
n
    399.03614224993771131     294.96427437608997479 m
    402.58781494951784907      284.6696030035573699 l
s
clr0
n
    402.58781494951784907      284.6696030035573699 m
    405.77222968075119525     274.00431435555304915 l
s
clr0
n
    405.77222968075119525     274.00431435555304915 m
    408.55878880060924985     263.07076684220402285 l
s
clr0
n
    408.55878880060924985     263.07076684220402285 m
    410.92038875656857044     251.97406217702231856 l
s
clr0
n
    410.92038875656857044     251.97406217702231856 m
    412.83469699438478528     240.82161467222061901 l
s
clr0
n
    412.83469699438478528     240.82161467222061901 m
    414.28253028581485751     229.72042636088039558 l
s
clr0
n
    414.28253028581485751     229.72042636088039558 m
    420.83287217130271074     229.41157473695014346 l
s
clr0
n
    420.83287217130271074     229.41157473695014346 m
    427.38321198081490593     229.10272223854619256 l
s
clr0
n
    427.38321198081490593     229.10272223854619256 m
    433.93355386630275916     228.79387061461594044 l
s
clr0
n
    433.93355386630275916     228.79387061461594044 m
    440.48389575179055555     228.48501899068568832 l
s
clr0
n
    440.48389575179055555     228.48501899068568832 m
    447.03423556130275074     228.17616649228176584 l
s
clr0
n
    447.03423556130275074     228.17616649228176584 m
    453.56101045968807739     227.86842603524075912 l
s
clr4
n
    453.56101045968807739     227.86842603524075912 m
    444.96204421164640053     306.25399614009239713 l
s
clr4
n
    444.96204421164640053     306.25399614009239713 m
    440.63715829110259392     345.45497664058410692 l
s
clr4
n
    440.63715829110259392     345.45497664058410692 m
    438.53741255267760835     365.03030225202508063 l
s
clr4
n
    438.53741255267760835     365.03030225202508063 m
    436.64729339812140552     374.90402177362000202 l
s
clr4
n
    436.64729339812140552     374.90402177362000202 m
    434.00717104161662974     384.53865933840319258 l
s
clr4
n
    434.00717104161662974     384.53865933840319258 m
    430.79186806743615534     393.70595735201948173 l
s
clr4
n
    430.79186806743615534     393.70595735201948173 m
    427.10637871925752052     402.21965386093313555 l
s
clr4
n
    427.10637871925752052     402.21965386093313555 m
    423.01876775757028781     409.84908334100782668 l
s
clr4
n
    423.01876775757028781     409.84908334100782668 m
    418.59453824624813478     416.24251965007977105 l
s
clr4
n
    418.59453824624813478     416.24251965007977105 m
    413.95053174500964133      420.8501415678742319 l
s
clr4
n
    413.95053174500964133      420.8501415678742319 m
      409.319993931236354      423.1580989023143502 l
s
clr4
n
      409.319993931236354      423.1580989023143502 m
    400.30120877829165238     425.14036254813794358 l
s
clr4
n
    400.30120877829165238     425.14036254813794358 m
    363.81828280635193096      436.4878865673213113 l
s
clr0
n
    363.81828280635193096      436.4878865673213113 m
    361.87455368692587854     423.54645846324740432 l
s
clr0
n
    361.87455368692587854     423.54645846324740432 m
    359.92380817017362915     410.55830190625266596 l
s
clr0
n
    359.92380817017362915     410.55830190625266596 m
    357.97306376089710511     397.57014498405919767 l
s
clr0
n
    357.97306376089710511     397.57014498405919767 m
    356.02231935162063792     384.58198806186567253 l
s
clr0
n
    356.02231935162063792     384.58198806186567253 m
    354.07157065141694829     371.59383099559602215 l
s
clr0
n
    352.12082624214053794     358.60567407340255386 m
    357.97072214749562136     397.55456820207774626 l
s
clr0
n
    357.97072214749562136     397.55456820207774626 m
    363.81828280635193096      436.4878865673213113 l
s
clr4
n
    363.81828280635193096      436.4878865673213113 m
    284.73222839373181614     460.71706472178271952 l
s
clr0
n
    284.73222839373181614     460.71706472178271952 m
    301.94435310773030778     397.17707888407312566 l
s
clr4
n
    301.94435310773030778     397.17707888407312566 m
     343.0378403342546676     401.06347427930313643 l
s
clr0
n
     343.0378403342546676     401.06347427930313643 m
    328.59477361638806769     402.09448504635639665 l
s
clr0
n
    328.59477361638806769     402.09448504635639665 m
      314.840637923836141     400.73518662274773305 l
s
clr0
n
      314.840637923836141     400.73518662274773305 m
    301.94435310773030778     397.17707888407312566 l
s
clr0
n
    301.94435310773030778     397.17707888407312566 m
    319.16336104827746567     333.61167259346984793 l
s
clr0
n
    319.16336104827746567     333.61167259346984793 m
    321.93997724433114627     340.71767492185347237 l
s
clr0
n
    321.93997724433114627     340.71767492185347237 m
     325.1816732756317947     346.78902655565781288 l
s
clr0
n
     325.1816732756317947     346.78902655565781288 m
    332.91602437548596072     355.56788648462207902 l
s
clr0
n
    332.91602437548596072     355.56788648462207902 m
     342.0285043787257564     359.56517303333515656 l
s
clr0
n
     342.0285043787257564     359.56517303333515656 m
    352.12082624214053794     358.60567407340255386 l
s
clr0
n
    272.53248555458799274      406.8526469036760318 m
    284.73222839373181614     460.71706472178271952 l
s
clr4
n
    284.73222839373181614     460.71706472178271952 m
    225.41768838012953324      478.8889484649475321 l
s
clr0
n
    225.41768838012953324      478.8889484649475321 m
    222.32008862536022775      440.6515930826208205 l
s
clr4
n
    222.32008862536022775      440.6515930826208205 m
    260.38534070118384989      418.2673323760684525 l
s
clr0
n
    260.38534070118384989      418.2673323760684525 m
    247.81594360850345993     427.90463571741003079 l
s
clr0
n
    247.81594360850345993     427.90463571741003079 m
    260.38534070118384989      418.2673323760684525 l
s
clr0
n
    260.38534070118384989      418.2673323760684525 m
    247.81594360850345993     427.90463571741003079 l
s
clr0
n
    247.81594360850345993     427.90463571741003079 m
    235.04950581667287679     435.44284985346109806 l
s
clr0
n
    235.04950581667287679     435.44284985346109806 m
    222.32008862536022775      440.6515930826208205 l
s
clr0
n
    222.32008862536022775      440.6515930826208205 m
    219.22372447991949684     402.42952907489723202 l
s
clr0
n
    219.22372447991949684     402.42952907489723202 m
    229.85476969726391872     396.55527843196995263 l
s
clr0
n
    229.85476969726391872     396.55527843196995263 m
    240.55983169688249745     386.02301902281584489 l
s
clr0
n
    240.55983169688249745     386.02301902281584489 m
    250.87089310561427169     371.29342165173721924 l
s
clr0
n
    250.87089310561427169     371.29342165173721924 m
      255.736513639394758     362.54841687626316116 l
s
clr0
n
      255.736513639394758     362.54841687626316116 m
    260.33762420482912603     353.00977003169890622 l
s
clr0
n
    260.33762420482912603     353.00977003169890622 m
    272.53248555458799274      406.8526469036760318 l
s
clr4
n
    260.33762420482912603     353.00977003169890622 m
    319.16336104827746567     333.61167259346984793 l
s
clr0
n
    319.16336104827746567     333.61167259346984793 m
    284.73222839373181614     460.71706472178271952 l
s
clr0
n
    284.73222839373181614     460.71706472178271952 m
    260.33762420482912603     353.00977003169890622 l
s
clr0
n
    376.77174468048127665     133.70295887904654819 m
    390.84025679317915092     97.669287761923470725 l
s
clr0
n
    390.84025679317915092     97.669287761923470725 m
    404.90314687025318108     61.650027910061318437 l
s
clr4
n
    404.90314687025318108     61.650027910061318437 m
    325.81709245763300942     85.879206064522719544 l
s
clr0
n
    325.81709245763300942     85.879206064522719544 m
    330.73657909826704326     134.49113401925114886 l
s
clr4
n
    330.73657909826704326     134.49113401925114886 m
    375.63808688612266451     103.63504442750030421 l
s
clr0
n
    375.63808688612266451     103.63504442750030421 m
    360.39890944472057299     111.92937334500322777 l
s
clr0
n
    360.39890944472057299     111.92937334500322777 m
    345.35669278039853225      122.3218848454705352 l
s
clr0
n
    345.35669278039853225      122.3218848454705352 m
    330.73657909826704326     134.49113401925114886 l
s
clr0
n
    330.73657909826704326     134.49113401925114886 m
    335.65803119852080272     183.12250877979417396 l
s
clr0
n
    335.65803119852080272     183.12250877979417396 m
    340.25903813027463229     173.58367772962853337 l
s
clr0
n
    340.25903813027463229     173.58367772962853337 m
    345.12468992284777869     164.83886496861452997 l
s
clr0
n
    345.12468992284777869     164.83886496861452997 m
     355.4357186269360227     150.10940041781427112 l
s
clr0
n
     355.4357186269360227     150.10940041781427112 m
    366.14073926099052869     139.57713859195268924 l
s
clr0
n
    366.14073926099052869     139.57713859195268924 m
    376.77174468048127665     133.70295887904654819 l
s
clr0
n
    301.31977697905142577     144.21172256459783512 m
    325.81709245763300942     85.879206064522719544 l
s
clr4
n
    325.81709245763300942     85.879206064522719544 m
    266.50255244403081178     104.05108980768751792 l
s
clr0
n
    266.50255244403081178     104.05108980768751792 m
    255.18633648191863017     140.79629967115906197 l
s
clr4
n
    255.18633648191863017     140.79629967115906197 m
    290.89714829579907018     139.89278050364620753 l
s
clr0
n
    290.89714829579907018     139.89278050364620753 m
    279.61636171313671184     137.77344267740028272 l
s
clr0
n
    279.61636171313671184     137.77344267740028272 m
    290.89714829579907018     139.89278050364620753 l
s
clr0
n
    290.89714829579907018     139.89278050364620753 m
    279.61636171313671184     137.77344267740028272 l
s
clr0
n
    279.61636171313671184     137.77344267740028272 m
    267.64635163739274049     138.04544658067888463 l
s
clr0
n
    267.64635163739274049     138.04544658067888463 m
    255.18633648191863017     140.79629967115906197 l
s
clr0
n
    255.18633648191863017     140.79629967115906197 m
    243.87464291826023555     177.52681388054122635 l
s
clr0
n
    243.87464291826023555     177.52681388054122635 m
    253.96699143237222529     176.56736393870224333 l
s
clr0
n
    253.96699143237222529     176.56736393870224333 m
    263.07951645316398981     180.56461958520202415 l
s
clr0
n
    263.07951645316398981     180.56461958520202415 m
    270.81387250255352228     189.34359991768579334 l
s
clr0
n
    270.81387250255352228     189.34359991768579334 m
    274.05549126001369586     195.41517935543177487 l
s
clr0
n
    274.05549126001369586     195.41517935543177487 m
    276.83226075678362577     202.52091275209434684 l
s
clr0
n
    276.83226075678362577     202.52091275209434684 m
    301.31977697905142577     144.21172256459783512 l
s
clr4
n
    276.83226075678362577     202.52091275209434684 m
    335.65803119852080272     183.12250877979417396 l
s
clr0
n
    335.65803119852080272     183.12250877979417396 m
    325.81709245763300942     85.879206064522719544 l
s
clr0
n
    325.81709245763300942     85.879206064522719544 m
    276.83226075678362577     202.52091275209434684 l
s
showpage
