%!PS-Adobe-2.0
%%BoundingBox: 50 50 550 550
/clr0{ 0.0000 0.0000 0.0000 setrgbcolor} def
/clr1{ 0.0000 0.0000 1.0000 setrgbcolor} def
/clr2{ 0.0000 1.0000 1.0000 setrgbcolor} def
/clr3{ 0.0000 1.0000 0.0000 setrgbcolor} def
/clr4{ 1.0000 0.0000 0.0000 setrgbcolor} def
/clr5{ 0.2000 0.6000 0.1000 setrgbcolor} def
/clr6{ 0.7000 0.1000 0.0000 setrgbcolor} def
/clr7{ 0.7000 0.7000 0.7000 setrgbcolor} def
/clr8{ 0.1000 0.0000 0.7000 setrgbcolor} def
/clr9{ 0.7000 0.0000 0.1000 setrgbcolor} def
/m {moveto} def % x y
/l {lineto} def % x y
/s {stroke} def 
/n {newpath} def % x y
/c {closepath} def 
0.01 setlinewidth
clr0
n
     182.1554431852696041     179.06527935293999576 m
    182.21358276999592363     208.80436751576760912 l
s
clr0
n
    182.21358276999592363     208.80436751576760912 m
    166.74445989158215298     207.66160670541307809 l
s
n
    166.74445989158215298     207.66160670541307809 m
    157.75904145584985372     205.90344150604451556 l
s
n
    157.75904145584985372     205.90344150604451556 m
    151.87160594795597035     204.27676977772617306 l
s
n
    151.87160594795597035     204.27676977772617306 m
    151.84718620112488452     204.26908872197788014 l
s
n
    151.84718620112488452     204.26908872197788014 m
    138.19171275716846026     198.79481253825088061 l
s
n
    138.19171275716846026     198.79481253825088061 m
    138.16177614567703813     198.78060474395402935 l
s
n
    138.16177614567703813     198.78060474395402935 m
    135.66707496685143042     197.47715681124995513 l
s
n
    135.66707496685143042     197.47715681124995513 m
    126.14058795919831368     191.37923829080489213 l
s
clr0
n
    126.14058795919831368     191.37923829080489213 m
    118.09387347221635878      184.3145500373319976 l
s
n
    118.09387347221635878      184.3145500373319976 m
     116.2978353639593081     182.38373335002762587 l
s
n
     116.2978353639593081     182.38373335002762587 m
    116.28592767588052936     182.37035384440835628 l
s
n
    116.28592767588052936     182.37035384440835628 m
    112.29323827953939485     177.37466814557652128 l
s
n
    112.29323827953939485     177.37466814557652128 m
    112.28581844016386526     177.36380875231708387 l
s
n
    112.28581844016386526     177.36380875231708387 m
     108.9591349538616214     172.08758167834815822 l
s
n
     108.9591349538616214     172.08758167834815822 m
      108.930442323989638     172.03551932916428768 l
s
n
      108.930442323989638     172.03551932916428768 m
    106.80767931526639813     167.71475672892358943 l
s
n
    106.80767931526639813     167.71475672892358943 m
    106.33728334782847469     166.59173298032840194 l
s
n
    106.33728334782847469     166.59173298032840194 m
    104.44682157242955611     160.92968551565269308 l
s
n
    104.44682157242955611     160.92968551565269308 m
    103.30466936350029528     155.15607285303849494 l
s
n
    103.30466936350029528     155.15607285303849494 m
    102.92323129696168849     149.32622291383941615 l
s
n
    102.92323129696168849     149.32622291383941615 m
    102.92328856240470714     149.25151303742768505 l
s
n
    102.92328856240470714     149.25151303742768505 m
    103.30482794475793185       143.496372974638291 l
s
n
    103.30482794475793185       143.496372974638291 m
    104.44687707592115089     137.72270303673704461 l
s
n
    104.44687707592115089     137.72270303673704461 m
    105.60900787636487053     133.97686353809905313 l
s
n
    105.60900787636487053     133.97686353809905313 m
    106.33760139138067302     132.05993566582810672 l
s
n
    106.33760139138067302     132.05993566582810672 m
    108.95890941623996184     126.56508620115648966 l
s
n
    108.95890941623996184     126.56508620115648966 m
    108.96271360365670944     126.55793295915060526 l
s
n
    108.96271360365670944     126.55793295915060526 m
    109.00666879555015498     126.47879966873658475 l
s
n
    109.00666879555015498     126.47879966873658475 m
    112.28577791400122976     121.28790130824135929 l
s
n
    112.28577791400122976     121.28790130824135929 m
    113.51859365302630067     119.62307190660717993 l
s
n
    113.51859365302630067     119.62307190660717993 m
    116.27867875200423953     116.29252665822124868 l
s
n
    116.27867875200423953     116.29252665822124868 m
    116.28573385455941036     116.28204263834123822 l
s
n
    116.28573385455941036     116.28204263834123822 m
    126.09724771028625412     107.30535835481632034 l
s
n
    126.09724771028625412     107.30535835481632034 m
    126.12362681626858318     107.28554463225599136 l
s
n
    126.12362681626858318     107.28554463225599136 m
    126.14678319933047135     107.26915861496823368 l
s
n
    126.14678319933047135     107.26915861496823368 m
    126.25257978342619936     107.18996716811497549 l
s
n
    126.25257978342619936     107.18996716811497549 m
    138.15919039094799814     99.873402495808619506 l
s
n
    138.15919039094799814     99.873402495808619506 m
    142.54135616002031384     97.827797333973450122 l
s
n
    142.54135616002031384     97.827797333973450122 m
    151.95066529709538372     94.351233162694654766 l
s
n
    151.95066529709538372     94.351233162694654766 m
    161.67963982705111903     91.877676354087938648 l
s
n
    161.67963982705111903     91.877676354087938648 m
    166.74448279807293716     90.990891110254466412 l
s
n
    166.74448279807293716     90.990891110254466412 m
     182.2135827703157247     89.848014868096797159 l
s
clr0
n
    182.15544318542950464      119.5871030291046111 m
     182.2135827703157247     89.848014868096797159 l
s
clr3
n
    182.15544318542950464      119.5871030291046111 m
    174.42002188357045611     120.15887070333819509 l
s
n
    174.42002188357045611     120.15887070333819509 m
    174.39823458509536636     120.16211512771194236 l
s
n
    174.39823458509536636     120.16211512771194236 m
    167.06658046745249635      121.8255020734418963 l
s
n
    167.06658046745249635      121.8255020734418963 m
    166.98454816111950549     121.85089264604614812 l
s
n
    166.98454816111950549     121.85089264604614812 m
    165.02048090953292103     122.50814764222583619 l
s
n
    165.02048090953292103     122.50814764222583619 m
    160.12987377482505735     124.59895886154298239 l
s
n
    160.12987377482505735     124.59895886154298239 m
    154.17492759587577211     128.25803424004715225 l
s
n
    154.17492759587577211     128.25803424004715225 m
    154.12187777065614114     128.29776389951527449 l
s
n
    154.12187777065614114     128.29776389951527449 m
    151.19818001550947884     130.74798103113514003 l
s
n
    151.19818001550947884     130.74798103113514003 m
    149.19145000901997378     132.80433896608511191 l
s
n
    149.19145000901997378     132.80433896608511191 m
    145.55113426445896607      137.9041097111878571 l
s
n
    145.55113426445896607      137.9041097111878571 m
    145.52771534136684295     137.94654100159823429 l
s
n
    145.52771534136684295     137.94654100159823429 m
    143.51557859606134571      142.6723420521918797 l
s
n
    143.51557859606134571      142.6723420521918797 m
    143.27203042976896086     143.52534369186042795 l
s
n
    143.27203042976896086     143.52534369186042795 m
     142.5103709670530634     149.28969009518760913 l
s
n
     142.5103709670530634     149.28969009518760913 m
     142.5103401318145302     149.32660533546777515 l
s
n
     142.5103401318145302     149.32660533546777515 m
    143.27178022380300604     155.12751804043654147 l
s
n
    143.27178022380300604     155.12751804043654147 m
    143.49572422649745818     155.91627796272510409 l
s
n
    143.49572422649745818     155.91627796272510409 m
    145.50726188714492082      160.6672977600692036 l
s
n
    145.50726188714492082      160.6672977600692036 m
    145.52151129133150675     160.69316327692558843 l
s
n
    145.52151129133150675     160.69316327692558843 m
    145.52900513527927728     160.70626786119652252 l
s
n
    145.52900513527927728     160.70626786119652252 m
    149.17902340783973614     165.83474057127813239 l
s
n
    149.17902340783973614     165.83474057127813239 m
    149.19124649635745072     165.84828044768391919 l
s
n
    149.19124649635745072     165.84828044768391919 m
    151.14320342829108768     167.85358672185770956 l
s
n
    151.14320342829108768     167.85358672185770956 m
     154.0991521998126359     170.33729667541831532 l
s
n
     154.0991521998126359     170.33729667541831532 m
    154.11681286237757149     170.35055105657772856 l
s
n
    154.11681286237757149     170.35055105657772856 m
    154.12185750738638035     170.35432065121938194 l
s
n
    154.12185750738638035     170.35432065121938194 m
    160.12586783671534363     174.05150347697255597 l
s
n
    160.12586783671534363     174.05150347697255597 m
    160.14300341922000825     174.06029214853774079 l
s
n
    160.14300341922000825     174.06029214853774079 m
    164.97234093513577591     176.12655870706578298 l
s
n
    164.97234093513577591     176.12655870706578298 m
    166.95287772807316173     176.79160402259606144 l
s
n
    166.95287772807316173     176.79160402259606144 m
    166.96434491274570178     176.79516918854278629 l
s
n
    166.96434491274570178     176.79516918854278629 m
    167.02889099586252541      176.8146833173258301 l
s
n
    167.02889099586252541      176.8146833173258301 m
    174.38555865891913754     178.48891203311239906 l
s
n
    174.38555865891913754     178.48891203311239906 m
    174.44670405573944549     178.49779586975961365 l
s
n
    174.44670405573944549     178.49779586975961365 m
     182.1554431852696041     179.06527935293999576 l
s
clr0
n
    182.15544318542950464      119.5871030291046111 m
    180.70195356529984565     109.67407361905158325 l
s
clr3
n
    180.70195356529984565     109.67407361905158325 m
    171.05547342975512493      110.3398256234636392 l
s
n
    171.05547342975512493      110.3398256234636392 m
    170.38921555176830225     110.43591592165971349 l
s
n
    170.38921555176830225     110.43591592165971349 m
     161.7543268205748177     112.30962474813958352 l
s
n
     161.7543268205748177     112.30962474813958352 m
    160.47307508901113238     112.69287391931246134 l
s
n
    160.47307508901113238     112.69287391931246134 m
    157.85614302500232498     113.56841029796970588 l
s
n
    157.85614302500232498     113.56841029796970588 m
    153.08198120373401707     115.51702461796419641 l
s
n
    153.08198120373401707     115.51702461796419641 m
    151.33412888207681135     116.35663089117051072 l
s
n
    151.33412888207681135     116.35663089117051072 m
    145.33168674485489191     119.85954830034245333 l
s
n
    145.33168674485489191     119.85954830034245333 m
    143.32401846611165297      121.2881559392073143 l
s
n
    143.32401846611165297      121.2881559392073143 m
    139.42577300005689267      124.5549247217301172 l
s
n
    139.42577300005689267      124.5549247217301172 m
    138.76614381732653669     125.18565068894952219 l
s
n
    138.76614381732653669     125.18565068894952219 m
    136.75008835372574367     127.29674176348996184 l
s
n
    136.75008835372574367     127.29674176348996184 m
    133.61337284236793721     131.31075734470033467 l
s
n
    133.61337284236793721     131.31075734470033467 m
    131.86549937654180553     134.15218755500666248 l
s
n
    131.86549937654180553     134.15218755500666248 m
    130.02020946341858121     138.05943672565871339 l
s
n
    130.02020946341858121     138.05943672565871339 m
    129.18201077185523218     140.45433827213363998 l
s
n
    129.18201077185523218     140.45433827213363998 m
    128.85762053943290084     141.59059525409435309 l
s
n
    128.85762053943290084     141.59059525409435309 m
    128.13111941559247953     145.18141700206791711 l
s
clr3
n
    128.12787995352039161     153.44794595879056942 m
    128.85736857144291889     157.06187872318423615 l
s
n
    128.85736857144291889     157.06187872318423615 m
    129.15589949189649133     158.11312332743406728 l
s
n
    129.15589949189649133     158.11312332743406728 m
    130.42057067523711567     161.56055861255345008 l
s
n
    130.42057067523711567     161.56055861255345008 m
    131.86559100116875243     164.50028289762306599 l
s
n
    131.86559100116875243     164.50028289762306599 m
    134.91251694118557225      169.1378474127580489 l
s
n
    134.91251694118557225      169.1378474127580489 m
    136.75021874261557286     171.35563176171507394 l
s
n
    136.75021874261557286     171.35563176171507394 m
    139.35337009805243724     174.02930531771511369 l
s
n
    139.35337009805243724     174.02930531771511369 m
     141.4071670124868092     175.84879119515494494 l
s
n
     141.4071670124868092     175.84879119515494494 m
    143.32412242476479491     177.36424930765642216 l
s
n
    143.32412242476479491     177.36424930765642216 m
    149.62059618063102562     181.39954926438366556 l
s
n
    149.62059618063102562     181.39954926438366556 m
    151.33410421370876975      182.2957620194357844 l
s
n
    151.33410421370876975      182.2957620194357844 m
    157.75140012486252772     185.04623203437861889 l
s
n
    157.75140012486252772     185.04623203437861889 m
    159.19343912374694128     185.54741717703356585 l
s
n
    159.19343912374694128     185.54741717703356585 m
    160.47301870437817684     185.95951370429568783 l
s
n
    160.47301870437817684     185.95951370429568783 m
    169.70718324659375753     188.11111955020132314 l
s
n
    169.70718324659375753     188.11111955020132314 m
    170.38918735934123561     188.21646112799712114 l
s
n
    170.38918735934123561     188.21646112799712114 m
    180.70195356508665441     188.97830871749877701 l
s
clr0
n
     182.1554431852696041     179.06527935293999576 m
    180.70195356508665441     188.97830871749877701 l
s
clr3
n
    180.70195356529984565     109.67407361905158325 m
    188.48238991024496158     110.10636012339412559 l
s
n
    188.48238991024496158     110.10636012339412559 m
    191.01469157882729633     110.43591592160424852 l
s
n
    191.01469157882729633     110.43591592160424852 m
     196.1294532768516774      111.4013515811483046 l
s
n
     196.1294532768516774      111.4013515811483046 m
    200.93083204157233013     112.69287391920369146 l
s
n
    200.93083204157233013     112.69287391920369146 m
    203.41661743145587593     113.52155206880203764 l
s
n
    203.41661743145587593     113.52155206880203764 m
    203.44492065631678201     113.53165895298619148 l
s
n
    203.44492065631678201     113.53165895298619148 m
    203.54776410557641952     113.56841029784686725 l
s
n
    203.54776410557641952     113.56841029784686725 m
    210.06977824848695491     116.35663089101258549 l
s
n
    210.06977824848695491     116.35663089101258549 m
    210.22403725532868179     116.43441072248039347 l
s
n
    210.22403725532868179     116.43441072248039347 m
    210.24484311221456778     116.44492646405440439 l
s
n
    210.24484311221456778     116.44492646405440439 m
    216.39296148789102858      120.0780570214344749 l
s
n
    216.39296148789102858      120.0780570214344749 m
    218.07988866442559583     121.28815593900631598 l
s
n
    218.07988866442559583     121.28815593900631598 m
    221.76790916585224522     124.35856038613962937 l
s
n
    221.76790916585224522     124.35856038613962937 m
    221.97813413046279152     124.55492472150815786 l
s
n
    221.97813413046279152     124.55492472150815786 m
    224.65381877677921807     127.29674176325362112 l
s
n
    224.65381877677921807     127.29674176325362112 m
    226.23587002133558599     129.18572458538596948 l
s
n
    226.23587002133558599     129.18572458538596948 m
    229.53840775392629325      134.1521875547440743 l
s
n
    229.53840775392629325      134.1521875547440743 m
    229.69831225242242567     134.44497350377810108 l
s
n
    229.69831225242242567     134.44497350377810108 m
    231.75151448725083014     139.03678035642212762 l
s
n
    231.75151448725083014     139.03678035642212762 m
    232.22189635857895951     140.45433827185661357 l
s
n
    232.22189635857895951     140.45433827185661357 m
     232.5462865909952086     141.59059525381559297 l
s
n
     232.5462865909952086     141.59059525381559297 m
    233.04306342642613004     143.78212020821877104 l
s
n
    233.04306342642613004     143.78212020821877104 m
    233.55353991778565614     148.61012503236781868 l
s
n
    233.55353991778565614     148.61012503236781868 m
    233.56215616441076577     149.32623346372511719 l
s
n
    233.56215616441076577     149.32623346372511719 m
    233.27588885877435132     153.44890113396169795 l
s
n
    233.27588885877435132     153.44890113396169795 m
    232.54653855890202863     157.06187872290541918 l
s
n
    232.54653855890202863     157.06187872290541918 m
    232.24800763844277185     158.11312332715689877 l
s
n
    232.24800763844277185     158.11312332715689877 m
    232.21347040937567385      158.2261089520599171 l
s
n
    232.21347040937567385      158.2261089520599171 m
    230.38285983176169225     162.87057029218706816 l
s
n
    230.38285983176169225     162.87057029218706816 m
    229.53831612913620575     164.50028289736047782 l
s
n
    229.53831612913620575     164.50028289736047782 m
    227.81087321129390943     167.31289218631565063 l
s
n
    227.81087321129390943     167.31289218631565063 m
    224.59497280762110449     171.42129919277306271 l
s
n
    224.59497280762110449     171.42129919277306271 m
    222.05053703220124817     174.02930531749279908 l
s
n
    222.05053703220124817     174.02930531749279908 m
     218.0797847054709564     177.36424930745542383 l
s
n
     218.0797847054709564     177.36424930745542383 m
    216.08321887457989874     178.78564378555896042 l
s
clr3
n
    205.52749037205779814     184.33366585872724386 m
    203.65250700533195527     185.04623203425518341 l
s
n
    203.65250700533195527     185.04623203425518341 m
     200.9308884258113892     185.95951370418691795 l
s
n
     200.9308884258113892     185.95951370418691795 m
    193.49476275831869998     187.79916224284696114 l
s
n
    193.49476275831869998     187.79916224284696114 m
    191.01471977083616594     188.21646112794164196 l
s
n
    191.01471977083616594     188.21646112794164196 m
    180.70195356508665441     188.97830871749877701 l
s
clr3
n
     182.1554431852696041     179.06527935293999576 m
    189.86418231480280383     178.49779586971814638 l
s
n
    189.86418231480280383     178.49779586971814638 m
    189.92532771162316863     178.48891203307061915 l
s
n
    189.92532771162316863     178.48891203307061915 m
    197.28199537468881886     176.81468331724448717 l
s
n
    197.28199537468881886     176.81468331724448717 m
    197.34654145780575618     176.79516918846107387 l
s
n
    197.34654145780575618     176.79516918846107387 m
    197.35800864247829622      176.7916040225143206 l
s
n
    197.35800864247829622      176.7916040225143206 m
    199.33854543541923476     176.12655870697341243 l
s
n
    199.33854543541923476     176.12655870697341243 m
    204.16788295134614373     174.06029214841936437 l
s
n
    204.16788295134614373     174.06029214841936437 m
    204.18501853385083677     174.05150347685409429 l
s
n
    204.18501853385083677     174.05150347685409429 m
    210.18902886319969525      170.3543206510686332 l
s
n
    210.18902886319969525      170.3543206510686332 m
    210.19407350820850411     170.35055105642692297 l
s
n
    210.19407350820850411     170.35055105642692297 m
    210.21173417077352497     170.33729667526745288 l
s
n
    210.21173417077352497     170.33729667526745288 m
    213.16768294230840297     167.85358672169093097 l
s
n
    213.16768294230840297     167.85358672169093097 m
    215.11963987425284017     165.84828044750665299 l
s
n
    215.11963987425284017     165.84828044750665299 m
     215.1318629627706116     165.83474057110080935 l
s
n
     215.1318629627706116     165.83474057110080935 m
    218.78188123535863951     160.70626786099956007 l
s
n
    218.78188123535863951     160.70626786099956007 m
    218.78937507930649531     160.69316327672862599 l
s
n
    218.78937507930649531     160.69316327672862599 m
    218.80362448349325177     160.66729775987215589 l
s
n
    218.80362448349325177     160.66729775987215589 m
    220.81516214416623711     155.91627796251719928 l
s
n
    220.81516214416623711     155.91627796251719928 m
    221.03910614686492409     155.12751804022747137 l
s
n
    221.03910614686492409     155.12751804022747137 m
    221.80054623888460696     149.32660533525455548 l
s
n
    221.80054623888460696     149.32660533525455548 m
    221.80051540364624429     149.28969009497438947 l
s
n
    221.80051540364624429     149.28969009497438947 m
    221.03885594096135492     143.52534369165135786 l
s
n
    221.03885594096135492     143.52534369165135786 m
    220.79530777467354596     142.67234205198411701 l
s
n
    220.79530777467354596     142.67234205198411701 m
    218.78317102939345773     137.94654100140127184 l
s
n
    218.78317102939345773     137.94654100140127184 m
     218.7597521063015904     137.90410971099100834 l
s
n
     218.7597521063015904     137.90410971099100834 m
    215.11943636176798123      132.8043389659078457 l
s
n
    215.11943636176798123      132.8043389659078457 m
    213.11270635528953221     130.74798103096867408 l
s
n
    213.11270635528953221     130.74798103096867408 m
    210.18900860015605758     128.29776389936455416 l
s
n
    210.18900860015605758     128.29776389936455416 m
    210.13595877493662556     128.25803423989668772 l
s
n
    210.13595877493662556     128.25803423989668772 m
    204.18101259600697972     124.59895886142453492 l
s
n
    204.18101259600697972     124.59895886142453492 m
    199.29040546131037104     122.50814764213369301 l
s
n
    199.29040546131037104     122.50814764213369301 m
    197.32633820972736771      121.8508926459645636 l
s
n
    197.32633820972736771      121.8508926459645636 m
    197.24430590339446212     121.82550207336076653 l
s
n
    197.24430590339446212     121.82550207336076653 m
    189.91265178576054495     120.16211512767023351 l
s
n
    189.91265178576054495     120.16211512767023351 m
     189.8908644872854552     120.15887070329659991 l
s
n
     189.8908644872854552     120.15887070329659991 m
    182.15544318542950464      119.5871030291046111 l
s
clr0
n
     182.2135827703157247     89.848014868096797159 m
    197.68272326886571477     90.990801232038194257 l
s
n
    197.68272326886571477     90.990801232038194257 m
    198.69922540519308995     91.147791895836320464 l
s
n
    198.69922540519308995     91.147791895836320464 m
    212.39578195883987632     94.326236908208187515 l
s
n
    212.39578195883987632     94.326236908208187515 m
    212.55697096526941436     94.376119272084679324 l
s
n
    212.55697096526941436     94.376119272084679324 m
    214.46429080604062278     94.990293564273983407 l
s
n
    214.46429080604062278     94.990293564273983407 m
    226.26537177449833393     99.871946822278601985 l
s
n
    226.26537177449833393     99.871946822278601985 m
    228.81957967747274552     101.20741428048256694 l
s
n
    228.81957967747274552     101.20741428048256694 m
    235.26896009472389437     105.12583477436317025 l
s
n
    235.26896009472389437     105.12583477436317025 m
    238.22748404915961373     107.22956289124041973 l
s
n
    238.22748404915961373     107.22956289124041973 m
    241.13812880735832778     109.52763749128271797 l
s
clr0
n
    241.13812880714434073     189.12474489226482888 m
    238.29798750011696029     191.37009979914549263 l
s
n
    238.29798750011696029     191.37009979914549263 m
    235.26896009448626046     193.52654760921592469 l
s
n
    235.26896009448626046     193.52654760921592469 m
    228.81957967721402269     197.44496810313123092 l
s
n
    228.81957967721402269     197.44496810313123092 m
    226.26538939436872511      198.7806047437171344 l
s
n
    226.26538939436872511      198.7806047437171344 m
    214.46429080574850445     203.66208881941702202 l
s
n
    214.46429080574850445     203.66208881941702202 m
    212.56847162790543848     204.27266269934307275 l
s
n
    212.56847162790543848     204.27266269934307275 m
    198.69922540488028062     207.50459048793942429 l
s
n
    198.69922540488028062     207.50459048793942429 m
    197.68266336008883854     207.66160582417174396 l
s
n
    197.68266336008883854     207.66160582417174396 m
    182.21358276999592363     208.80436751576760912 l
s
clr0
n
    393.59707820451620819     179.06527935237150473 m
    393.65521778924249929     208.80436751519911809 l
s
clr0
n
    393.65521778924249929     208.80436751519911809 m
    378.18613719915572347     207.66160582368644327 l
s
n
    378.18613719915572347     207.66160582368644327 m
    377.16962801477387757     207.50462220915360945 l
s
n
    377.16962801477387757     207.50462220915360945 m
    363.30032893135734184     204.27266269893780759 l
s
n
    363.30032893135734184     204.27266269893780759 m
    361.40463133245771132      203.6621117291342955 l
s
n
    361.40463133245771132      203.6621117291342955 m
     349.6034111649236138     198.78060474338553831 l
s
n
     349.6034111649236138     198.78060474338553831 m
    347.04937241525720992     197.44505798094647275 l
s
n
    347.04937241525720992     197.44505798094647275 m
    340.59990565933844664      193.5267485129949705 l
s
n
    340.59990565933844664      193.5267485129949705 m
    337.57081305921519743     191.37009979887858435 l
s
n
    337.57081305921519743     191.37009979887858435 m
    334.73094134028457347     189.12482595856462808 l
s
clr0
n
     334.7309413404985321     109.52755642447965556 m
    337.64131651062490391     107.22956289097311355 l
s
n
    337.64131651062490391     107.22956289097311355 m
    340.59990565957605213     105.12563387001772242 l
s
n
    340.59990565957605213     105.12563387001772242 m
    347.04937241551584748      101.2073244020315741 l
s
n
    347.04937241551584748      101.2073244020315741 m
    349.60342878532577515     99.871946821946977479 l
s
n
    349.60342878532577515     99.871946821946977479 m
    361.40463133274982965     94.990270653766543774 l
s
n
    361.40463133274982965     94.990270653766543774 m
    363.31182959458419646     94.376119271679357325 l
s
n
    363.31182959458419646     94.376119271679357325 m
    363.47301860101401871     94.326236907801984444 l
s
n
    363.47301860101401871     94.326236907801984444 m
    377.16962801508663006     91.147760173662447869 l
s
n
    377.16962801508663006     91.147760173662447869 m
    378.18607729100614279     90.990801231552865147 l
s
n
    378.18607729100614279     90.990801231552865147 m
    393.65521778956230037     89.848014867528306127 l
s
clr0
n
    393.59707820467610873     119.58710302853612006 m
    393.65521778956230037     89.848014867528306127 l
s
clr3
n
    393.59707820467610873     119.58710302853612006 m
     385.8616569028170602     120.15887070276970405 l
s
n
     385.8616569028170602     120.15887070276970405 m
    385.83986960434185676     120.16211512714345133 l
s
n
    385.83986960434185676     120.16211512714345133 m
    378.50821548669910044     121.82550207287340527 l
s
n
    378.50821548669910044     121.82550207287340527 m
    378.42618318036608116     121.85089264547764287 l
s
n
    378.42618318036608116     121.85089264547764287 m
     376.4621159287794967     122.50814764165733095 l
s
n
     376.4621159287794967     122.50814764165733095 m
    371.57150879407163302     124.59895886097447715 l
s
n
    371.57150879407163302     124.59895886097447715 m
    365.61656261512234778     128.25803423947866122 l
s
n
    365.61656261512234778     128.25803423947866122 m
    365.56351278990268838     128.29776389894678346 l
s
n
    365.56351278990268838     128.29776389894678346 m
     362.6398150347560545       130.747981030566649 l
s
n
     362.6398150347560545       130.747981030566649 m
    360.63308502826652102     132.80433896551659245 l
s
n
    360.63308502826652102     132.80433896551659245 m
    356.99276928370551332     137.90410971061936607 l
s
n
    356.99276928370551332     137.90410971061936607 m
    356.96935036061336177     137.94654100102974326 l
s
n
    356.96935036061336177     137.94654100102974326 m
    354.95721361530792137     142.67234205162338867 l
s
n
    354.95721361530792137     142.67234205162338867 m
    354.71366544901553652     143.52534369129193692 l
s
n
    354.71366544901553652     143.52534369129193692 m
    353.95200598629963906     149.28969009461908968 l
s
n
    353.95200598629963906     149.28969009461908968 m
    353.95197515106110586     149.32660533489928412 l
s
n
    353.95197515106110586     149.32660533489928412 m
    354.71341524304949644     155.12751803986805044 l
s
n
    354.71341524304949644     155.12751803986805044 m
    354.93735924574406226     155.91627796215661306 l
s
n
    354.93735924574406226     155.91627796215661306 m
    356.94889690639149649     160.66729775950071257 l
s
n
    356.94889690639149649     160.66729775950071257 m
      356.963146310578054     160.69316327635712582 l
s
n
      356.963146310578054     160.69316327635712582 m
    356.97064015452582453     160.70626786062803149 l
s
n
    356.97064015452582453     160.70626786062803149 m
    360.62065842708625496     165.83474057070964136 l
s
n
    360.62065842708625496     165.83474057070964136 m
    360.63288151560402639     165.84828044711542816 l
s
n
    360.63288151560402639     165.84828044711542816 m
    362.58483844753772019     167.85358672128919011 l
s
n
    362.58483844753772019     167.85358672128919011 m
    365.54078721905921157     170.33729667484982429 l
s
n
    365.54078721905921157     170.33729667484982429 m
    365.55844788162414716     170.35055105600923753 l
s
n
    365.55844788162414716     170.35055105600923753 m
    365.56349252663295601     170.35432065065089091 l
s
n
    365.56349252663295601     170.35432065065089091 m
    371.56750285596189087     174.05150347640403652 l
s
n
    371.56750285596189087     174.05150347640403652 m
    371.58463843846658392     174.06029214796924975 l
s
n
    371.58463843846658392     174.06029214796924975 m
    376.41397595438235157     176.12655870649729195 l
s
n
    376.41397595438235157     176.12655870649729195 m
    378.39451274731970898     176.79160402202757041 l
s
n
    378.39451274731970898     176.79160402202757041 m
    378.40597993199224902     176.79516918797429526 l
s
n
    378.40597993199224902     176.79516918797429526 m
    378.47052601510904424     176.81468331675733907 l
s
n
    378.47052601510904424     176.81468331675733907 m
    385.82719367816577005     178.48891203254393645 l
s
n
    385.82719367816577005     178.48891203254393645 m
    385.88833907498604958     178.49779586919112262 l
s
n
    385.88833907498604958     178.49779586919112262 m
    393.59707820451620819     179.06527935237150473 l
s
clr0
n
    393.59707820467610873     119.58710302853612006 m
    392.14358858454642132     109.67407361848307801 l
s
clr3
n
    392.14358858454642132     109.67407361848307801 m
    382.49710844900164375     110.33982562289514817 l
s
n
    382.49710844900164375     110.33982562289514817 m
    381.83085057101487791     110.43591592109123667 l
s
n
    381.83085057101487791     110.43591592109123667 m
    373.19596183982133653     112.30962474757109248 l
s
n
    373.19596183982133653     112.30962474757109248 m
    371.91471010825767962     112.69287391874397031 l
s
n
    371.91471010825767962     112.69287391874397031 m
    369.29777804424890064     113.56841029740122906 l
s
n
    369.29777804424890064     113.56841029740122906 m
    364.52361622298059274     115.51702461739569117 l
s
n
    364.52361622298059274     115.51702461739569117 m
    362.77576390132338702     116.35663089060201969 l
s
n
    362.77576390132338702     116.35663089060201969 m
    356.77332176410146758     119.85954829977394809 l
s
n
    356.77332176410146758     119.85954829977394809 m
    354.76565348535825706     121.28815593863882327 l
s
n
    354.76565348535825706     121.28815593863882327 m
    350.86740801930346834     124.55492472116161196 l
s
n
    350.86740801930346834     124.55492472116161196 m
    350.20777883657314078     125.18565068838103116 l
s
n
    350.20777883657314078     125.18565068838103116 m
    348.19172337297231934     127.29674176292147081 l
s
n
    348.19172337297231934     127.29674176292147081 m
    345.05500786161451288     131.31075734413184364 l
s
n
    345.05500786161451288     131.31075734413184364 m
    343.30713439578840962     134.15218755443817145 l
s
n
    343.30713439578840962     134.15218755443817145 m
    341.46184448266512845     138.05943672509022235 l
s
n
    341.46184448266512845     138.05943672509022235 m
    340.62364579110180784     140.45433827156514894 l
s
n
    340.62364579110180784     140.45433827156514894 m
    340.29925555867947651     141.59059525352589048 l
s
n
    340.29925555867947651     141.59059525352589048 m
    339.57275443483905519     145.18141700149942608 l
s
clr3
n
    339.56951497276696728     153.44794595822207839 m
    340.29900359068949456     157.06187872261574512 l
s
n
    340.29900359068949456     157.06187872261574512 m
    340.59753451114312384     158.11312332686560467 l
s
n
    340.59753451114312384     158.11312332686560467 m
    341.86220569448369133     161.56055861198495904 l
s
n
    341.86220569448369133     161.56055861198495904 m
    343.30722602041532809     164.50028289705457496 l
s
n
    343.30722602041532809     164.50028289705457496 m
    346.35415196043209107     169.13784741218955787 l
s
n
    346.35415196043209107     169.13784741218955787 m
    348.19185376186214853      171.3556317611465829 l
s
n
    348.19185376186214853      171.3556317611465829 m
    350.79500511729895607     174.02930531714662266 l
s
n
    350.79500511729895607     174.02930531714662266 m
    352.84880203173338487     175.84879119458645391 l
s
n
    352.84880203173338487     175.84879119458645391 m
      354.765757444011399     177.36424930708790271 l
s
n
      354.765757444011399     177.36424930708790271 m
    361.06223119987760128     181.39954926381520295 l
s
n
    361.06223119987760128     181.39954926381520295 m
    362.77573923295540226     182.29576201886732179 l
s
n
    362.77573923295540226     182.29576201886732179 m
    369.19303514410916023     185.04623203381009944 l
s
n
    369.19303514410916023     185.04623203381009944 m
     370.6350741429934601      185.5474171764650464 l
s
n
     370.6350741429934601      185.5474171764650464 m
    371.91465372362478092      185.9595137037271968 l
s
n
    371.91465372362478092      185.9595137037271968 m
    381.14881826584030478      188.1111195496328321 l
s
n
    381.14881826584030478      188.1111195496328321 m
    381.83082237858781127     188.21646112742860169 l
s
n
    381.83082237858781127     188.21646112742860169 m
     392.1435885843332585     188.97830871693028598 l
s
clr0
n
    393.59707820451620819     179.06527935237150473 m
     392.1435885843332585     188.97830871693028598 l
s
clr3
n
    392.14358858454642132     109.67407361848307801 m
    399.92402492949156567     110.10636012282563456 l
s
n
    399.92402492949156567     110.10636012282563456 m
    402.45632659807387199     110.43591592103575749 l
s
n
    402.45632659807387199     110.43591592103575749 m
    407.57108829609825307     111.40135158057981357 l
s
n
    407.57108829609825307     111.40135158057981357 m
    412.37246706081890579     112.69287391863520043 l
s
n
    412.37246706081890579     112.69287391863520043 m
    414.85825245070248002     113.52155206823354661 l
s
n
    414.85825245070248002     113.52155206823354661 m
     414.8865556755633861     113.53165895241770045 l
s
n
     414.8865556755633861     113.53165895241770045 m
    414.98939912482302361     113.56841029727837622 l
s
n
    414.98939912482302361     113.56841029727837622 m
    421.51141326773347373     116.35663089044409446 l
s
n
    421.51141326773347373     116.35663089044409446 m
    421.66567227457522904     116.43441072191190244 l
s
n
    421.66567227457522904     116.43441072191190244 m
    421.68647813146111503     116.44492646348589915 l
s
n
    421.68647813146111503     116.44492646348589915 m
    427.83459650713763267     120.07805702086599808 l
s
n
    427.83459650713763267     120.07805702086599808 m
     429.5215236836721715     121.28815593843781073 l
s
n
     429.5215236836721715     121.28815593843781073 m
    433.20954418509876405     124.35856038557112413 l
s
n
    433.20954418509876405     124.35856038557112413 m
    433.41976914970939561     124.55492472093966683 l
s
n
    433.41976914970939561     124.55492472093966683 m
    436.09545379602576531     127.29674176268513008 l
s
n
    436.09545379602576531     127.29674176268513008 m
    437.67750504058210481     129.18572458481747844 l
s
n
    437.67750504058210481     129.18572458481747844 m
    440.98004277317278365     134.15218755417558327 l
s
n
    440.98004277317278365     134.15218755417558327 m
    441.13994727166902976     134.44497350320961004 l
s
n
    441.13994727166902976     134.44497350320961004 m
    443.19314950649737739     139.03678035585363659 l
s
n
    443.19314950649737739     139.03678035585363659 m
     443.6635313778255636     140.45433827128812254 l
s
n
     443.6635313778255636     140.45433827128812254 m
    443.98792161024175584     141.59059525324710194 l
s
n
    443.98792161024175584     141.59059525324710194 m
    444.48469844567279097     143.78212020765028001 l
s
n
    444.48469844567279097     143.78212020765028001 m
    444.99517493703217497     148.61012503179932764 l
s
n
    444.99517493703217497     148.61012503179932764 m
    445.00379118365736986     149.32623346315659774 l
s
n
    445.00379118365736986     149.32623346315659774 m
    444.71752387802092699     153.44890113339320692 l
s
n
    444.71752387802092699     153.44890113339320692 m
    443.98817357814857587     157.06187872233692815 l
s
n
    443.98817357814857587     157.06187872233692815 m
    443.68964265768937594     158.11312332658840774 l
s
n
    443.68964265768937594     158.11312332658840774 m
    443.65510542862227794     158.22610895149142607 l
s
n
    443.65510542862227794     158.22610895149142607 m
    441.82449485100829634     162.87057029161860555 l
s
n
    441.82449485100829634     162.87057029161860555 m
    440.97995114838283826     164.50028289679195836 l
s
n
    440.97995114838283826     164.50028289679195836 m
    439.25250823054045668     167.31289218574713118 l
s
n
    439.25250823054045668     167.31289218574713118 m
    436.03660782686762332     171.42129919220457168 l
s
n
    436.03660782686762332     171.42129919220457168 m
    433.49217205144782383     174.02930531692430804 l
s
n
    433.49217205144782383     174.02930531692430804 m
    429.52141972471753206     177.36424930688690438 l
s
n
    429.52141972471753206     177.36424930688690438 m
    427.52485389382644598     178.78564378499046938 l
s
clr3
n
    416.96912539130431696     184.33366585815875283 m
    415.09414202457850251     185.04623203368669238 l
s
n
    415.09414202457850251     185.04623203368669238 m
    412.37252344505799329     185.95951370361842692 l
s
n
    412.37252344505799329     185.95951370361842692 m
     404.9363977775652188     187.79916224227844168 l
s
n
     404.9363977775652188     187.79916224227844168 m
    402.45635479008279844     188.21646112737315093 l
s
n
    402.45635479008279844     188.21646112737315093 m
     392.1435885843332585     188.97830871693028598 l
s
clr3
n
    393.59707820451620819     179.06527935237150473 m
     401.3058173340493795     178.49779586914968377 l
s
n
     401.3058173340493795     178.49779586914968377 m
    401.36696273086971587     178.48891203250212811 l
s
n
    401.36696273086971587     178.48891203250212811 m
    408.72363039393542294     176.81468331667599614 l
s
n
    408.72363039393542294     176.81468331667599614 m
    408.78817647705233185     176.79516918789261126 l
s
n
    408.78817647705233185     176.79516918789261126 m
    408.79964366172487189     176.79160402194580115 l
s
n
    408.79964366172487189     176.79160402194580115 m
    410.78018045466586727     176.12655870640489297 l
s
n
    410.78018045466586727     176.12655870640489297 m
    415.60951797059277624     174.06029214785087333 l
s
n
    415.60951797059277624     174.06029214785087333 m
    415.62665355309741244     174.05150347628557483 l
s
n
    415.62665355309741244     174.05150347628557483 m
     421.6306638824462425     170.35432065050014216 l
s
n
     421.6306638824462425     170.35432065050014216 m
    421.63570852745516504     170.35055105585848878 l
s
n
    421.63570852745516504     170.35055105585848878 m
    421.65336919002010063     170.33729667469896185 l
s
n
    421.65336919002010063     170.33729667469896185 m
     424.6093179615550639     167.85358672112243994 l
s
n
     424.6093179615550639     167.85358672112243994 m
    426.56127489349944426     165.84828044693813354 l
s
n
    426.56127489349944426     165.84828044693813354 m
    426.57349798201721569     165.83474057053231832 l
s
n
    426.57349798201721569     165.83474057053231832 m
    430.22351625460527202     160.70626786043109746 l
s
n
    430.22351625460527202     160.70626786043109746 m
    430.23101009855304255     160.69316327616013496 l
s
n
    430.23101009855304255     160.69316327616013496 m
    430.24525950273982744     160.66729775930366486 l
s
n
    430.24525950273982744     160.66729775930366486 m
     432.2567971634128412     155.91627796194870825 l
s
n
     432.2567971634128412     155.91627796194870825 m
    432.48074116611155659     155.12751803965898034 l
s
n
    432.48074116611155659     155.12751803965898034 m
    433.24218125813121105     149.32660533468606445 l
s
n
    433.24218125813121105     149.32660533468606445 m
    433.24215042289279154     149.28969009440592686 l
s
n
    433.24215042289279154     149.28969009440592686 m
    432.48049096020793058     143.52534369108286683 l
s
n
    432.48049096020793058     143.52534369108286683 m
    432.23694279392009321     142.67234205141559755 l
s
n
    432.23694279392009321     142.67234205141559755 m
    430.22480604864011866     137.94654100083278081 l
s
n
    430.22480604864011866     137.94654100083278081 m
    430.20138712554813765     137.90410971042251731 l
s
n
    430.20138712554813765     137.90410971042251731 m
    426.56107138101464216     132.80433896533935467 l
s
n
    426.56107138101464216     132.80433896533935467 m
     424.5543413745361363     130.74798103040018304 l
s
n
     424.5543413745361363     130.74798103040018304 m
    421.63064361940269009     128.29776389879606313 l
s
n
    421.63064361940269009     128.29776389879606313 m
    421.57759379418320123     128.25803423932819669 l
s
n
    421.57759379418320123     128.25803423932819669 m
    415.62264761525352696     124.59895886085604388 l
s
n
    415.62264761525352696     124.59895886085604388 m
    410.73204048055691828     122.50814764156518777 l
s
n
    410.73204048055691828     122.50814764156518777 m
    408.76797322897402864     121.85089264539605836 l
s
n
    408.76797322897402864     121.85089264539605836 m
    408.68594092264106621      121.8255020727922755 l
s
n
    408.68594092264106621      121.8255020727922755 m
    401.35428680500712062     120.16211512710174247 l
s
n
    401.35428680500712062     120.16211512710174247 m
    401.33249950653203086     120.15887070272810888 l
s
n
    401.33249950653203086     120.15887070272810888 m
    393.59707820467610873     119.58710302853612006 l
s
clr0
n
    393.65521778956230037     89.848014867528306127 m
    409.12482786474339491     90.990977463103234868 l
s
n
    409.12482786474339491     90.990977463103234868 m
    418.17582932861097333     92.765081932568250522 l
s
n
    418.17582932861097333     92.765081932568250522 m
    423.83741697808648041     94.326236907639696483 l
s
n
    423.83741697808648041     94.326236907639696483 m
    423.99907732316069087     94.376280523460877703 l
s
n
    423.99907732316069087     94.376280523460877703 m
    437.70687904775707011     99.871931842021254511 l
s
n
    437.70687904775707011     99.871931842021254511 m
    440.28108316235665143     101.21856269305251885 l
s
n
    440.28108316235665143     101.21856269305251885 m
    449.66914109357645657     107.22956245009282839 l
s
n
    449.66914109357645657     107.22956245009282839 m
    457.82452777088997209     114.38867517224355197 l
s
n
    457.82452777088997209     114.38867517224355197 m
    459.58298300952924365     116.28203735046922418 l
s
n
    459.58298300952924365     116.28203735046922418 m
    463.58316889283867113     121.28848287168756315 l
s
n
    463.58316889283867113     121.28848287168756315 m
    466.86213176413087922     126.47879966777442462 l
s
n
    466.86213176413087922     126.47879966777442462 m
    466.90981713886839088     126.56505800313271948 l
s
n
    466.90981713886839088     126.56505800313271948 m
     469.0803430509286045     130.98201840286404263 l
s
n
     469.0803430509286045     130.98201840286404263 m
    469.53156831012489647     132.06064675949298248 l
s
n
    469.53156831012489647     132.06064675949298248 m
     471.4219234836995156     137.72270303575038497 l
s
n
     471.4219234836995156     137.72270303575038497 m
    472.56397261483164129     143.49637297364549227 l
s
n
    472.56397261483164129     143.49637297364549227 m
    472.94551199715391476     149.25151303643281153 l
s
n
    472.94551199715391476     149.25151303643281153 m
    472.94556720691394958     149.32621233894656143 l
s
clr0
n
    472.94556720691394958     149.32621233894656143 m
    472.56413119602649431     155.15607285204569621 l
s
n
    472.56413119602649431     155.15607285204569621 m
    471.42197898706621118     160.92968551466606186 l
s
n
    471.42197898706621118     160.92968551466606186 m
      469.531517211636924     166.59173297935194569 l
s
n
      469.531517211636924     166.59173297935194569 m
    466.93835823544651475     172.03551932820172965 l
s
n
    466.93835823544651475     172.03551932820172965 m
    466.90984092592992738     172.08731821109358862 l
s
n
    466.90984092592992738     172.08731821109358862 m
    463.58302881260465256      177.3637726238876553 l
s
n
    463.58302881260465256      177.3637726238876553 m
     459.5829248629020185     182.37033533916383021 l
s
n
     459.5829248629020185     182.37033533916383021 m
    449.75723296454020783     191.35688418837688118 l
s
n
    449.75723296454020783     191.35688418837688118 m
    449.72195304673039118     191.38326430160338987 l
s
n
    449.72195304673039118     191.38326430160338987 m
     437.7070437957651734     198.78054834902590642 l
s
n
     437.7070437957651734     198.78054834902590642 m
    424.02161435813792423     204.26908872124610639 l
s
n
    424.02161435813792423     204.26908872124610639 m
    423.99860157918652703     204.27623491398671263 l
s
n
    423.99860157918652703     204.27623491398671263 m
    409.12434066766240903     207.66160670476139671 l
s
n
    409.12434066766240903     207.66160670476139671 m
    393.65521778924249929     208.80436751519911809 l
s
clr0
n
    182.21358276999592363     208.80436751576760912 m
    183.60022265460094104      228.6264610796443435 l
s
n
    183.60022265460094104      228.6264610796443435 m
      184.987417273443981     248.45648506703133762 l
s
clr0
n
     184.9874172739769449     50.195897320913331896 m
     183.6002226550272951     70.025921306259760968 l
s
n
     183.6002226550272951     70.025921306259760968 m
     182.2135827703157247     89.848014868096797159 l
s
clr0
n
    393.65521778956230037     89.848014867528306127 m
    394.19515093532447736     70.017990882715096745 l
s
n
    394.19515093532447736     70.017990882715096745 m
    394.73486819455803243     50.195897321411123926 l
s
clr0
n
    499.60859363825068158     149.32619119471900149 m
    495.17808717227563875     149.32619119412603936 l
s
n
    495.17808717227563875     149.32619119412603936 m
    490.73158131931967318     149.32619119353091719 l
s
n
    490.73158131931967318     149.32619119353091719 m
    486.28507719571473444     149.32619119293582344 l
s
n
    486.28507719571473444     149.32619119293582344 m
     481.8385730721097957     149.32619119234072969 l
s
n
     481.8385730721097957     149.32619119234072969 m
    477.39206721915383014     149.32619119174563593 l
s
n
    477.39206721915383014     149.32619119174563593 m
    472.94556720691394958     149.32621233894656143 l
s
clr0
n
    394.73486819402506853     248.45648506752914386 m
    394.55546685065434076     241.86762486758360069 l
s
n
    394.55546685065434076     241.86762486758360069 m
    394.37541598769632856     235.25497339710670985 l
s
n
    394.37541598769632856     235.25497339710670985 m
    394.19536688675191272     228.64232192662981902 l
s
n
    394.19536688675191272     228.64232192662981902 m
    394.19515093489803803      228.6343915031193319 l
s
n
    394.19515093489803803      228.6343915031193319 m
    394.01531778580755372     222.02967045615292818 l
s
n
    394.01531778580755372     222.02967045615292818 m
    393.83526689018685829      215.4170189856759805 l
s
n
    393.83526689018685829      215.4170189856759805 m
    393.65521778924249929     208.80436751519911809 l
s
clr0
n
    274.87918194902692903     248.45648506724469939 m
     304.7990762309655679     218.79658835084842394 l
s
n
     304.7990762309655679     218.79658835084842394 m
    334.73094134028457347     189.12482595856462808 l
s
clr0
n
    241.13812880714434073     189.12474489226482888 m
      258.005281856405702     218.78468214181097551 l
s
n
      258.005281856405702     218.78468214181097551 m
    274.87918194902692903     248.45648506724469939 l
s
clr0
n
     334.7309413404985321     109.52755642447965556 m
    304.79907623133908601     79.855794034859883368 l
s
n
    304.79907623133908601     79.855794034859883368 m
    274.87918194955983608     50.195897321126672352 l
s
clr0
n
    274.87918194955983608     50.195897321126672352 m
    258.00528185677910642     79.867700244147982858 l
s
n
    258.00528185677910642     79.867700244147982858 m
    241.13812880735832778     109.52763749128271797 l
s
clr8
n
    126.14058795919831368     191.37923829080489213 m
      126.146788485145251     191.38331540964708211 l
s
n
      126.146788485145251     191.38331540964708211 m
    126.14058795919831368     191.37923829080489213 l
s
n
    126.14058795919831368     191.37923829080489213 m
    105.21292787484742348     199.33978947996718034 l
s
n
    105.21292787484742348     199.33978947996718034 m
    126.14058795919831368     191.37923829080489213 l
s
clr8
n
    127.84175096597576271     149.32623346400936271 m
    128.12787995352039161     153.44794595879056942 l
s
n
    128.12787995352039161     153.44794595879056942 m
    128.13111941559247953     145.18141700206791711 l
s
n
    128.13111941559247953     145.18141700206791711 m
    127.84175096597576271     149.32623346400936271 l
s
clr8
n
    216.08321887457989874     178.78564378555896042 m
    205.52749037205779814     184.33366585872724386 l
s
n
    205.52749037205779814     184.33366585872724386 m
    210.06980291650046411     182.29576201927787338 l
s
n
    210.06980291650046411     182.29576201927787338 m
    216.08321887457989874     178.78564378555896042 l
s
clr6
n
     252.1413470999970059     177.36380875194100781 m
    248.14123786425344065      182.3703538440538523 l
s
n
    248.14123786425344065      182.3703538440538523 m
    241.13812880714434073     189.12474489226482888 l
s
n
    241.13812880714434073     189.12474489226482888 m
    334.73094134028457347     189.12482595856462808 l
s
n
    334.73094134028457347     189.12482595856462808 m
     327.7275626951270624     182.37035384383989367 l
s
n
     327.7275626951270624     182.37035384383989367 m
    323.72745345941041251     177.36380875174856442 l
s
n
    323.72745345941041251     177.36380875174856442 m
    320.38636286870212189     172.06141832946258319 l
s
n
    320.38636286870212189     172.06141832946258319 m
    317.77884788653000214      166.5917682260866286 l
s
n
    317.77884788653000214      166.5917682260866286 m
    315.88848566490094072     160.92972781067626897 l
s
n
    315.88848566490094072     160.92972781067626897 m
    314.74632200288311878     155.15608695100070236 l
s
n
    314.74632200288311878     155.15608695100070236 m
      314.364891865405923     149.28888383591208822 l
s
n
      314.364891865405923     149.28888383591208822 m
    314.74646120199082588      143.4964276058761925 l
s
n
    314.74646120199082588      143.4964276058761925 m
    315.88847509288154924     137.72276736071478354 l
s
n
    315.88847509288154924     137.72276736071478354 m
    317.77882850447298324     132.06067936275320562 l
s
n
    317.77882850447298324     132.06067936275320562 m
    320.42442412514162697     126.52194293437806039 l
s
n
    320.42442412514162697     126.52194293437806039 m
     323.7272226357762861     121.28852428649747708 l
s
n
     323.7272226357762861     121.28852428649747708 m
    327.72736887380597182     116.28204263777273297 l
s
n
    327.72736887380597182     116.28204263777273297 m
     334.7309413404985321     109.52755642447965556 l
s
n
     334.7309413404985321     109.52755642447965556 m
    241.13812880735832778     109.52763749128271797 l
s
n
    241.13812880735832778     109.52763749128271797 m
    248.14143168592988786     116.28204263798672002 l
s
n
    248.14143168592988786     116.28204263798672002 m
    252.14157792393265822     121.28852428668993468 l
s
n
    252.14157792393265822     121.28852428668993468 m
    255.44437643453917985     126.52194293455275442 l
s
n
    255.44437643453917985     126.52194293455275442 m
    258.08997205517800921     132.06067936291367459 l
s
n
    258.08997205517800921     132.06067936291367459 m
    259.98032546673903198     137.72276736086513438 l
s
n
    259.98032546673903198     137.72276736086513438 m
    261.12233935759866199     143.49642760602040426 l
s
n
    261.12233935759866199     143.49642760602040426 m
    261.50390869415247153     149.28888383605419676 l
s
n
    261.50390869415247153     149.28888383605419676 m
    261.12247855664372764     155.15608695114485727 l
s
n
    261.12247855664372764     155.15608695114485727 m
     259.9803148945948692     160.92972781082659139 l
s
n
     259.9803148945948692     160.92972781082659139 m
    258.08995267293533971     166.59176822624712599 l
s
n
    258.08995267293533971     166.59176822624712599 m
    255.48243769073383191     172.06141832963706406 l
s
n
    255.48243769073383191     172.06141832963706406 m
     252.1413470999970059     177.36380875194100781 l
s
clr8
n
    339.28338598522230996     149.32623346344087167 m
    339.56951497276696728     153.44794595822207839 l
s
n
    339.56951497276696728     153.44794595822207839 m
    339.57275443483905519     145.18141700149942608 l
s
n
    339.57275443483905519     145.18141700149942608 m
    339.28338598522230996     149.32623346344087167 l
s
clr8
n
    427.52485389382644598     178.78564378499046938 m
    416.96912539130431696     184.33366585815875283 l
s
n
    416.96912539130431696     184.33366585815875283 m
    421.51143793574709662     182.29576201870938235 l
s
n
    421.51143793574709662     182.29576201870938235 m
    427.52485389382644598     178.78564378499046938 l
s
clr4
n
    143.64461541286516422     50.199159368352262334 m
     184.9874172739769449     50.195897320913331896 l
s
n
     184.9874172739769449     50.195897320913331896 m
    274.87918194955983608     50.195897321126672352 l
s
n
    274.87918194955983608     50.195897321126672352 m
    394.73486819455803243     50.195897321411123926 l
s
n
    394.73486819455803243     50.195897321411123926 m
    438.27149794002889394     50.220587373375089157 l
s
n
    438.27149794002889394     50.220587373375089157 m
    449.12417122542484549                        50 l
s
n
    449.12417122542484549                        50 m
    462.57445742861273175     51.287565937926949289 l
s
n
    462.57445742861273175     51.287565937926949289 m
    475.21095522108970499     55.000368173407977679 l
s
n
    475.21095522108970499     55.000368173407977679 m
    479.94550335835310761     57.072801076818244326 l
s
n
    479.94550335835310761     57.072801076818244326 m
    486.43812289264133142     60.718044915562465746 l
s
n
    486.43812289264133142     60.718044915562465746 m
    491.26015333804616603     64.309155683424521044 l
s
n
    491.26015333804616603     64.309155683424521044 m
    495.30907404826353968     68.400905275879580358 l
s
n
    495.30907404826353968     68.400905275879580358 m
    498.29380497663834149     72.975614135448978459 l
s
n
    498.29380497663834149     72.975614135448978459 m
    499.85751276416840483     77.928657065924667791 l
s
n
    499.85751276416840483     77.928657065924667791 m
                      500     84.091537209997511582 l
s
n
                      500     84.091537209997511582 m
    499.70373085409909208     88.117453713412544403 l
s
n
    499.70373085409909208     88.117453713412544403 m
    499.60344865479140708     108.51918369292005195 l
s
n
    499.60344865479140708     108.51918369292005195 m
      499.609138263861837     116.74587196424556623 l
s
n
      499.609138263861837     116.74587196424556623 m
    499.60859363825068158     149.32619119471900149 l
s
n
    499.60859363825068158     149.32619119471900149 m
    499.59705577340253058      190.7849349990876533 l
s
n
    499.59705577340253058      190.7849349990876533 m
    499.55286249946567523      211.5145333589209713 l
s
n
    499.55286249946567523      211.5145333589209713 m
    499.62475829104209879     221.87607225361713859 l
s
n
    499.62475829104209879     221.87607225361713859 m
    498.35784844943884764     226.96305298790207416 l
s
n
    498.35784844943884764     226.96305298790207416 m
    495.87371596771993154     231.79342812751787051 l
s
n
    495.87371596771993154     231.79342812751787051 m
    492.40727799525944874      236.2715849619977746 l
s
n
    492.40727799525944874      236.2715849619977746 m
    488.09116369008211223      240.3131860807893645 l
s
n
    488.09116369008211223      240.3131860807893645 m
    482.99246402684138957     243.80340071378662969 l
s
n
    482.99246402684138957     243.80340071378662969 m
    477.15344574527267696     246.56071204074734737 l
s
n
    477.15344574527267696     246.56071204074734737 m
     470.6628285117019459     248.30379269345073112 l
s
n
     470.6628285117019459     248.30379269345073112 m
    463.79806410663525185     248.79052155519303824 l
s
n
    463.79806410663525185     248.79052155519303824 m
    449.99580408180412405     248.36320213938847701 l
s
n
    449.99580408180412405     248.36320213938847701 m
    394.73486819402506853     248.45648506752914386 l
s
n
    394.73486819402506853     248.45648506752914386 m
    274.87918194902692903     248.45648506724469939 l
s
n
    274.87918194902692903     248.45648506724469939 m
      184.987417273443981     248.45648506703133762 l
s
n
      184.987417273443981     248.45648506703133762 m
    134.88465767498718151     248.45188013432772323 l
s
n
    134.88465767498718151     248.45188013432772323 m
    122.23347401622289965     248.46519443421254891 l
s
n
    122.23347401622289965     248.46519443421254891 m
    90.865455442800168839     248.64458061393079902 l
s
n
    90.865455442800168839     248.64458061393079902 m
    84.669908793906543565      248.7783545223128101 l
s
n
    84.669908793906543565      248.7783545223128101 m
    83.027475190898854862     248.72070915497403121 l
s
n
    83.027475190898854862     248.72070915497403121 m
    75.387937219848225823     247.47428801654626795 l
s
n
    75.387937219848225823     247.47428801654626795 m
    68.465183818139394134     244.73284634815664162 l
s
n
    68.465183818139394134     244.73284634815664162 m
    62.473561043600184917     240.94655904613284747 l
s
n
    62.473561043600184917     240.94655904613284747 m
    57.481853721242181621     236.41421098431564474 l
s
n
    57.481853721242181621     236.41421098431564474 m
    53.583551061406275551     231.31396881959366851 l
s
n
    53.583551061406275551     231.31396881959366851 m
    50.978210993528122685     225.77089180608504648 l
s
n
    50.978210993528122685     225.77089180608504648 m
    50.651389206667921883     224.65808772991752562 l
s
n
    50.651389206667921883     224.65808772991752562 m
    50.023176229198178078      219.9427724615241857 l
s
n
    50.023176229198178078      219.9427724615241857 m
    50.119395647938027594     196.40483842985406682 l
s
n
    50.119395647938027594     196.40483842985406682 m
    50.155167277077488563      187.0079668247936695 l
s
n
    50.155167277077488563      187.0079668247936695 m
    50.149770260336069327     149.32619119365233473 l
s
n
    50.149770260336069327     149.32619119365233473 m
     50.14957813560862121     118.42197402124992323 l
s
n
     50.14957813560862121     118.42197402124992323 m
    50.149883061995758737     102.83037721593404967 l
s
n
    50.149883061995758737     102.83037721593404967 m
    50.203759974392944798     87.405881483236100848 l
s
n
    50.203759974392944798     87.405881483236100848 m
                       50     79.584362073660741999 l
s
n
                       50     79.584362073660741999 m
    50.828691037335808289      73.82225557440004593 l
s
n
    50.828691037335808289      73.82225557440004593 m
    53.804087303948499255     68.472814830586372636 l
s
n
    53.804087303948499255     68.472814830586372636 m
    58.383944038193369863     63.796222939045797773 l
s
n
    58.383944038193369863     63.796222939045797773 m
    63.998718489812141286     59.840553245935439008 l
s
n
    63.998718489812141286     59.840553245935439008 m
    70.389979772589896356     56.513815482015019143 l
s
n
    70.389979772589896356     56.513815482015019143 m
    77.263766832388952821     53.839579747113234021 l
s
n
    77.263766832388952821     53.839579747113234021 m
    84.519128573478354838     51.810136788420116716 l
s
n
    84.519128573478354838     51.810136788420116716 m
    92.058740402686169091     50.491511787445752191 l
s
n
    92.058740402686169091     50.491511787445752191 m
    102.30568949356052144     50.012470149567072042 l
s
n
    102.30568949356052144     50.012470149567072042 m
     107.5179471541438545     50.132820494448516513 l
s
n
     107.5179471541438545     50.132820494448516513 m
    123.01052661760355988     50.209282113334523956 l
s
n
    123.01052661760355988     50.209282113334523956 m
    143.64461541286516422     50.199159368352262334 l
s
clr8
n
     304.7990762309655679     218.79658835084842394 m
    370.96904815365985542     227.98464838031171098 l
s
n
    370.96904815365985542     227.98464838031171098 m
    348.10316784860032158     226.06377820638579124 l
s
n
    348.10316784860032158     226.06377820638579124 m
    325.94201725968491701     222.95587342992274671 l
s
n
    325.94201725968491701     222.95587342992274671 m
     304.7990762309655679     218.79658835084842394 l
s
clr8
n
    183.60022265460094104      228.6264610796443435 m
    240.61055149707581791     222.94562556052790114 l
s
n
    240.61055149707581791     222.94562556052790114 m
    222.19724860274871503     226.05480801631057375 l
s
n
    222.19724860274871503     226.05480801631057375 m
    240.61055149707581791     222.94562556052790114 l
s
n
    240.61055149707581791     222.94562556052790114 m
    222.19724860274871503     226.05480801631057375 l
s
n
    222.19724860274871503     226.05480801631057375 m
     203.0789147206166092     227.97644303550626432 l
s
n
     203.0789147206166092     227.97644303550626432 m
    183.60022265460094104      228.6264610796443435 l
s
clr8
n
    370.96904815408277045     70.667734005495930205 m
    304.79907623133908601     79.855794034859883368 l
s
n
    304.79907623133908601     79.855794034859883368 m
    325.94201726008077458     75.696508955823617271 l
s
n
    325.94201726008077458     75.696508955823617271 m
    348.10316784901283427     72.588604179393115601 l
s
n
    348.10316784901283427     72.588604179393115601 m
    370.96904815408277045     70.667734005495930205 l
s
clr8
n
    240.61055149747161863     75.706756825410877809 m
     183.6002226550272951     70.025921306259760968 l
s
n
     183.6002226550272951     70.025921306259760968 m
    203.07891472103946739     70.675939350406878248 l
s
n
    203.07891472103946739     70.675939350406878248 m
    222.19724860316122772     72.597574369613482759 l
s
n
    222.19724860316122772     72.597574369613482759 m
    240.61055149747161863     75.706756825410877809 l
s
n
    240.61055149747161863     75.706756825410877809 m
    222.19724860316122772     72.597574369613482759 l
s
n
    222.19724860316122772     72.597574369613482759 m
    240.61055149747161863     75.706756825410877809 l
s
showpage
